toasteroid, aligntoasteroid, touchingasteroid, tomothership, aligntomothership, touchingmothership, gas, right, left, accelerate, discharge, nothing
0, 0, 0, 0, 0, 0, 0, -0.4, 5.44956775750146, 0.0, 0.0, 0.0
0, 0, 0, 0, 0, 0, 1, -0.4, 1.5884949630059646, -0.4, -0.4, -0.4
0, 0, 0, 0, 0, 1, 0, 0.0, 0.0, 0.0, 0.0, 0.0
0, 0, 0, 0, 0, 1, 1, 0.0, 0.0, 0.0, 0.0, 0.0
0, 0, 0, 0, 1, 0, 0, -0.13520206555713932, 0.62486073344, 0.0, 0.0, 0.0
0, 0, 0, 0, 1, 0, 1, -0.4, -0.4, 6.34235247929327, 0.0, 0.0
0, 0, 0, 0, 1, 1, 0, 0.0, 0.0, 0.0, 0.0, 0.0
0, 0, 0, 0, 1, 1, 1, 0.0, 0.0, 0.0, 0.0, 0.0
0, 0, 0, 0, 2, 0, 0, -0.8888290010375823, 0.13100968050703793, -0.792, -0.792, -0.792
0, 0, 0, 0, 2, 0, 1, -0.6660131450797061, -0.8700160000000001, -0.792, -0.792, -0.792
0, 0, 0, 0, 2, 1, 0, 0.0, 0.0, 0.0, 0.0, 0.0
0, 0, 0, 0, 2, 1, 1, 0.0, 0.0, 0.0, 0.0, 0.0
0, 0, 0, 1, 0, 0, 0, -0.4, 6.571576532818183, 0.0, 0.0, 0.0
0, 0, 0, 1, 0, 0, 1, -0.792, 3.181505680032049, -0.792, -0.792, -0.792
0, 0, 0, 1, 0, 1, 0, 0.0, 0.0, 0.0, 0.0, 0.0
0, 0, 0, 1, 0, 1, 1, 0.0, 0.0, 0.0, 0.0, 0.0
0, 0, 0, 1, 1, 0, 0, -0.22564594739199997, 6.205462917934997, 0.0, 0.0, 0.0
0, 0, 0, 1, 1, 0, 1, -0.7200000000000001, -0.7609046975908427, 7.185686394993765, -0.792, -0.792
0, 0, 0, 1, 1, 1, 0, 0.0, 0.0, 0.0, 0.0, 0.0
0, 0, 0, 1, 1, 1, 1, 0.0, 0.0, 0.0, 0.0, 0.0
0, 0, 0, 1, 2, 0, 0, -0.6264000000000001, 6.276202897898216, -0.792, -0.792, -0.792
0, 0, 0, 1, 2, 0, 1, 4.619102255949187, -1.2015402952843504, -1.17616, -1.17616, -1.17616
0, 0, 0, 1, 2, 1, 0, 0.0, 0.0, 0.0, 0.0, 0.0
0, 0, 0, 1, 2, 1, 1, 0.0, 0.0, 0.0, 0.0, 0.0
0, 0, 0, 2, 0, 0, 0, -0.4, 6.858696201624818, -0.4, -0.4, -0.4
0, 0, 0, 2, 0, 0, 1, -0.792, -0.8253969002634948, -0.792, -0.792, -0.792
0, 0, 0, 2, 0, 1, 0, 0.0, 0.0, 0.0, 0.0, 0.0
0, 0, 0, 2, 0, 1, 1, 0.0, 0.0, 0.0, 0.0, 0.0
0, 0, 0, 2, 1, 0, 0, -0.12258627965654166, 6.520670913718703, 0.0, 0.0, 0.0
0, 0, 0, 2, 1, 0, 1, -0.4, -0.3352, 6.101603739863774, 0.0, 0.0
0, 0, 0, 2, 1, 1, 0, 0.0, 0.0, 0.0, 0.0, 0.0
0, 0, 0, 2, 1, 1, 1, 0.0, 0.0, 0.0, 0.0, 0.0
0, 0, 0, 2, 2, 0, 0, -0.4, 6.481132226906306, -0.4, -0.4, -0.4
0, 0, 0, 2, 2, 0, 1, 3.5735532507261762, 0.0, 0.0, 0.0, 0.0
0, 0, 0, 2, 2, 1, 0, 0.0, 0.0, 0.0, 0.0, 0.0
0, 0, 0, 2, 2, 1, 1, 0.0, 0.0, 0.0, 0.0, 0.0
0, 0, 0, 3, 0, 0, 0, -0.4, 4.8715319957675085, -0.4, -0.4, -0.5339855000218358
0, 0, 0, 3, 0, 0, 1, -0.4, 0.2161811003247571, 0.0, 0.0, 0.0
0, 0, 0, 3, 0, 1, 0, -0.2771861533076465, 1.2020575982342776, 0.0, 0.0, 0.0
0, 0, 0, 3, 0, 1, 1, -0.4, 0.0, 0.0, 0.0, 0.0
0, 0, 0, 3, 1, 0, 0, -0.1745370403972875, 1.348940859128776, 0.0, 0.0, 0.0
0, 0, 0, 3, 1, 0, 1, -0.4, -0.4, 2.217023466328621, 0.0, 0.0
0, 0, 0, 3, 1, 1, 0, -0.3214805572635515, 0.0, 0.0, 0.0, 0.0
0, 0, 0, 3, 1, 1, 1, -0.34685069657943945, 4.069468661931996, 0.0, 0.0, 0.0
0, 0, 0, 3, 2, 0, 0, -0.4, 6.277768340399781, -0.4, -0.30170197753528616, -0.4
0, 0, 0, 3, 2, 0, 1, 0.09175496799907017, -0.4, -0.4, -0.4, -0.4
0, 0, 0, 3, 2, 1, 0, -0.4, 3.361749668712542, 0.0, 0.0, 0.0
0, 0, 0, 3, 2, 1, 1, -0.2442879738125847, 0.0, 0.0, 0.0, 0.0
0, 0, 0, 4, 0, 0, 0, 0.0, 0.0, 0.0, 0.0, 0.0
0, 0, 0, 4, 0, 0, 1, 0.0, 0.0, 0.0, 0.0, 0.0
0, 0, 0, 4, 0, 1, 0, 0.0, 0.0, 0.0, 0.0, 0.0
0, 0, 0, 4, 0, 1, 1, 0.0, 0.0, 0.0, 0.0, 0.0
0, 0, 0, 4, 1, 0, 0, 0.0, 0.0, 0.0, 0.0, 0.0
0, 0, 0, 4, 1, 0, 1, 0.0, 0.0, 0.0, 0.0, 0.0
0, 0, 0, 4, 1, 1, 0, 0.0, 0.0, 0.0, 0.0, 0.0
0, 0, 0, 4, 1, 1, 1, 0.0, 0.0, 0.0, 0.0, 0.0
0, 0, 0, 4, 2, 0, 0, 0.0, 0.0, 0.0, 0.0, 0.0
0, 0, 0, 4, 2, 0, 1, 0.0, 0.0, 0.0, 0.0, 0.0
0, 0, 0, 4, 2, 1, 0, 0.0, 0.0, 0.0, 0.0, 0.0
0, 0, 0, 4, 2, 1, 1, 0.0, 0.0, 0.0, 0.0, 0.0
0, 0, 1, 0, 0, 0, 0, 0.0, 0.0, 0.0, 0.0, 0.0
0, 0, 1, 0, 0, 0, 1, 0.0, 0.0, 0.0, 0.0, 0.0
0, 0, 1, 0, 0, 1, 0, 0.0, 0.0, 0.0, 0.0, 0.0
0, 0, 1, 0, 0, 1, 1, 0.0, 0.0, 0.0, 0.0, 0.0
0, 0, 1, 0, 1, 0, 0, 0.0, 0.0, 0.0, 0.0, 0.0
0, 0, 1, 0, 1, 0, 1, 0.0, 0.0, 0.0, 0.0, 0.0
0, 0, 1, 0, 1, 1, 0, 0.0, 0.0, 0.0, 0.0, 0.0
0, 0, 1, 0, 1, 1, 1, 0.0, 0.0, 0.0, 0.0, 0.0
0, 0, 1, 0, 2, 0, 0, 0.0, 0.0, 0.0, 0.0, 0.0
0, 0, 1, 0, 2, 0, 1, 0.0, 0.0, 0.0, 0.0, 0.0
0, 0, 1, 0, 2, 1, 0, 0.0, 0.0, 0.0, 0.0, 0.0
0, 0, 1, 0, 2, 1, 1, 0.0, 0.0, 0.0, 0.0, 0.0
0, 0, 1, 1, 0, 0, 0, 0.0, 0.0, 0.0, 0.0, 0.0
0, 0, 1, 1, 0, 0, 1, 0.0, 0.0, 0.0, 0.0, 0.0
0, 0, 1, 1, 0, 1, 0, 0.0, 0.0, 0.0, 0.0, 0.0
0, 0, 1, 1, 0, 1, 1, 0.0, 0.0, 0.0, 0.0, 0.0
0, 0, 1, 1, 1, 0, 0, 0.0, 0.0, 0.0, 0.0, 0.0
0, 0, 1, 1, 1, 0, 1, 0.0, 0.0, 0.0, 0.0, 0.0
0, 0, 1, 1, 1, 1, 0, 0.0, 0.0, 0.0, 0.0, 0.0
0, 0, 1, 1, 1, 1, 1, 0.0, 0.0, 0.0, 0.0, 0.0
0, 0, 1, 1, 2, 0, 0, 0.0, 0.0, 0.0, 0.0, 0.0
0, 0, 1, 1, 2, 0, 1, 0.0, 0.0, 0.0, 0.0, 0.0
0, 0, 1, 1, 2, 1, 0, 0.0, 0.0, 0.0, 0.0, 0.0
0, 0, 1, 1, 2, 1, 1, 0.0, 0.0, 0.0, 0.0, 0.0
0, 0, 1, 2, 0, 0, 0, 0.0, 0.0, 0.0, 0.0, 0.0
0, 0, 1, 2, 0, 0, 1, 0.0, 0.0, 0.0, 0.0, 0.0
0, 0, 1, 2, 0, 1, 0, 0.0, 0.0, 0.0, 0.0, 0.0
0, 0, 1, 2, 0, 1, 1, 0.0, 0.0, 0.0, 0.0, 0.0
0, 0, 1, 2, 1, 0, 0, 0.0, 0.0, 0.0, 0.0, 0.0
0, 0, 1, 2, 1, 0, 1, 0.0, 0.0, 0.0, 0.0, 0.0
0, 0, 1, 2, 1, 1, 0, 0.0, 0.0, 0.0, 0.0, 0.0
0, 0, 1, 2, 1, 1, 1, 0.0, 0.0, 0.0, 0.0, 0.0
0, 0, 1, 2, 2, 0, 0, 0.0, 0.0, 0.0, 0.0, 0.0
0, 0, 1, 2, 2, 0, 1, 0.0, 0.0, 0.0, 0.0, 0.0
0, 0, 1, 2, 2, 1, 0, 0.0, 0.0, 0.0, 0.0, 0.0
0, 0, 1, 2, 2, 1, 1, 0.0, 0.0, 0.0, 0.0, 0.0
0, 0, 1, 3, 0, 0, 0, 0.0, 0.0, 0.0, 0.0, 0.0
0, 0, 1, 3, 0, 0, 1, 0.0, 0.0, 0.0, 0.0, 0.0
0, 0, 1, 3, 0, 1, 0, 0.0, 0.0, 0.0, 0.0, 0.0
0, 0, 1, 3, 0, 1, 1, 0.0, 0.0, 0.0, 0.0, 0.0
0, 0, 1, 3, 1, 0, 0, 0.0, 0.0, 0.0, 0.0, 0.0
0, 0, 1, 3, 1, 0, 1, 0.0, 0.0, 0.0, 0.0, 0.0
0, 0, 1, 3, 1, 1, 0, 0.0, 0.0, 0.0, 0.0, 0.0
0, 0, 1, 3, 1, 1, 1, 0.0, 0.0, 0.0, 0.0, 0.0
0, 0, 1, 3, 2, 0, 0, 0.0, 0.0, 0.0, 0.0, 0.0
0, 0, 1, 3, 2, 0, 1, 0.0, 0.0, 0.0, 0.0, 0.0
0, 0, 1, 3, 2, 1, 0, 0.0, 0.0, 0.0, 0.0, 0.0
0, 0, 1, 3, 2, 1, 1, 0.0, 0.0, 0.0, 0.0, 0.0
0, 0, 1, 4, 0, 0, 0, 0.0, 0.0, 0.0, 0.0, 0.0
0, 0, 1, 4, 0, 0, 1, 0.0, 0.0, 0.0, 0.0, 0.0
0, 0, 1, 4, 0, 1, 0, 0.0, 0.0, 0.0, 0.0, 0.0
0, 0, 1, 4, 0, 1, 1, 0.0, 0.0, 0.0, 0.0, 0.0
0, 0, 1, 4, 1, 0, 0, 0.0, 0.0, 0.0, 0.0, 0.0
0, 0, 1, 4, 1, 0, 1, 0.0, 0.0, 0.0, 0.0, 0.0
0, 0, 1, 4, 1, 1, 0, 0.0, 0.0, 0.0, 0.0, 0.0
0, 0, 1, 4, 1, 1, 1, 0.0, 0.0, 0.0, 0.0, 0.0
0, 0, 1, 4, 2, 0, 0, 0.0, 0.0, 0.0, 0.0, 0.0
0, 0, 1, 4, 2, 0, 1, 0.0, 0.0, 0.0, 0.0, 0.0
0, 0, 1, 4, 2, 1, 0, 0.0, 0.0, 0.0, 0.0, 0.0
0, 0, 1, 4, 2, 1, 1, 0.0, 0.0, 0.0, 0.0, 0.0
0, 1, 0, 0, 0, 0, 0, -0.1325861146248737, -0.4, 5.772520839238757, 0.0, 0.0
0, 1, 0, 0, 0, 0, 1, -0.3179609296517192, 0.8358000820006741, 0.0, 0.0, 0.0
0, 1, 0, 0, 0, 1, 0, 0.0, 0.0, 0.0, 0.0, 0.0
0, 1, 0, 0, 0, 1, 1, 0.0, 0.0, 0.0, 0.0, 0.0
0, 1, 0, 0, 1, 0, 0, 0.0, 0.0, 0.0, 0.0, 0.0
0, 1, 0, 0, 1, 0, 1, 0.0, 0.0, 0.0, 0.0, 0.0
0, 1, 0, 0, 1, 1, 0, 0.0, 0.0, 0.0, 0.0, 0.0
0, 1, 0, 0, 1, 1, 1, 0.0, 0.0, 0.0, 0.0, 0.0
0, 1, 0, 0, 2, 0, 0, -0.4, -0.4, 6.474713334247833, 0.0, 0.0
0, 1, 0, 0, 2, 0, 1, 0.9492909804813936, 0.0, 0.0, 0.0, 0.0
0, 1, 0, 0, 2, 1, 0, 0.0, 0.0, 0.0, 0.0, 0.0
0, 1, 0, 0, 2, 1, 1, 0.0, 0.0, 0.0, 0.0, 0.0
0, 1, 0, 1, 0, 0, 0, -0.2245167579136, -0.4, 8.092207885943917, 0.0, 0.0
0, 1, 0, 1, 0, 0, 1, -0.472, 5.040265427103452, 0.0, 0.0, 0.0
0, 1, 0, 1, 0, 1, 0, 0.0, 0.0, 0.0, 0.0, 0.0
0, 1, 0, 1, 0, 1, 1, 0.0, 0.0, 0.0, 0.0, 0.0
0, 1, 0, 1, 1, 0, 0, -0.024991978525956277, -0.19482232946032335, 8.376586533425522, 0.0, 0.0
0, 1, 0, 1, 1, 0, 1, -0.08521490298568578, 0.0, 0.0, 0.0, 0.0
0, 1, 0, 1, 1, 1, 0, 0.0, 0.0, 0.0, 0.0, 0.0
0, 1, 0, 1, 1, 1, 1, 0.0, 0.0, 0.0, 0.0, 0.0
0, 1, 0, 1, 2, 0, 0, -0.4, -0.14521937308764615, 7.761645344121283, 0.0, 0.0
0, 1, 0, 1, 2, 0, 1, 3.966797411615958, 0.0, 0.0, 0.0, 0.0
0, 1, 0, 1, 2, 1, 0, 0.0, 0.0, 0.0, 0.0, 0.0
0, 1, 0, 1, 2, 1, 1, 0.0, 0.0, 0.0, 0.0, 0.0
0, 1, 0, 2, 0, 0, 0, -0.4, -0.4, 8.302028292977756, 0.0, 0.0
0, 1, 0, 2, 0, 0, 1, -0.4, 2.6619937786156274, 0.0, 0.0, 0.0
0, 1, 0, 2, 0, 1, 0, 0.0, 0.0, 0.0, 0.0, 0.0
0, 1, 0, 2, 0, 1, 1, 0.0, 0.0, 0.0, 0.0, 0.0
0, 1, 0, 2, 1, 0, 0, -0.24288542421884385, -0.2566462998651174, 7.752122134880707, 0.0, 0.0
0, 1, 0, 2, 1, 0, 1, -0.28810037994299664, -0.16117351313650286, 0.0, 0.0, 0.0
0, 1, 0, 2, 1, 1, 0, 0.0, 0.0, 0.0, 0.0, 0.0
0, 1, 0, 2, 1, 1, 1, 0.0, 0.0, 0.0, 0.0, 0.0
0, 1, 0, 2, 2, 0, 0, -0.4, -0.4, 8.478516147059104, 0.0, 0.0
0, 1, 0, 2, 2, 0, 1, 3.1028646383344203, 0.0, 0.0, 0.0, 0.0
0, 1, 0, 2, 2, 1, 0, 0.0, 0.0, 0.0, 0.0, 0.0
0, 1, 0, 2, 2, 1, 1, 0.0, 0.0, 0.0, 0.0, 0.0
0, 1, 0, 3, 0, 0, 0, -0.07064001301425521, -0.2703517434679262, 8.52521357976228, 0.0, 0.0
0, 1, 0, 3, 0, 0, 1, -0.4, 0.5618583456818647, 0.0, 0.0, 0.0
0, 1, 0, 3, 0, 1, 0, 0.0, 0.0, 0.0, 0.0, 0.0
0, 1, 0, 3, 0, 1, 1, 0.0, 0.0, 0.0, 0.0, 0.0
0, 1, 0, 3, 1, 0, 0, 0.0, 0.0, 0.0, 0.0, 0.0
0, 1, 0, 3, 1, 0, 1, 0.0, 0.0, 0.0, 0.0, 0.0
0, 1, 0, 3, 1, 1, 0, 0.0, 0.0, 0.0, 0.0, 0.0
0, 1, 0, 3, 1, 1, 1, 0.0, 0.0, 0.0, 0.0, 0.0
0, 1, 0, 3, 2, 0, 0, -0.4, -0.26867058163957397, 6.355715869793395, 0.0, 0.0
0, 1, 0, 3, 2, 0, 1, 0.8662088773615464, 0.0, 0.0, 0.0, 0.0
0, 1, 0, 3, 2, 1, 0, 0.14005769725023837, 0.0, 0.0, 0.0, 0.0
0, 1, 0, 3, 2, 1, 1, 0.0, 0.0, 0.0, 0.0, 0.0
0, 1, 0, 4, 0, 0, 0, 0.0, 0.0, 0.0, 0.0, 0.0
0, 1, 0, 4, 0, 0, 1, 0.0, 0.0, 0.0, 0.0, 0.0
0, 1, 0, 4, 0, 1, 0, 0.0, 0.0, 0.0, 0.0, 0.0
0, 1, 0, 4, 0, 1, 1, 0.0, 0.0, 0.0, 0.0, 0.0
0, 1, 0, 4, 1, 0, 0, 0.0, 0.0, 0.0, 0.0, 0.0
0, 1, 0, 4, 1, 0, 1, 0.0, 0.0, 0.0, 0.0, 0.0
0, 1, 0, 4, 1, 1, 0, 0.0, 0.0, 0.0, 0.0, 0.0
0, 1, 0, 4, 1, 1, 1, 0.0, 0.0, 0.0, 0.0, 0.0
0, 1, 0, 4, 2, 0, 0, 0.0, 0.0, 0.0, 0.0, 0.0
0, 1, 0, 4, 2, 0, 1, 0.0, 0.0, 0.0, 0.0, 0.0
0, 1, 0, 4, 2, 1, 0, 0.0, 0.0, 0.0, 0.0, 0.0
0, 1, 0, 4, 2, 1, 1, 0.0, 0.0, 0.0, 0.0, 0.0
0, 1, 1, 0, 0, 0, 0, 0.0, 0.0, 0.0, 0.0, 0.0
0, 1, 1, 0, 0, 0, 1, 0.0, 0.0, 0.0, 0.0, 0.0
0, 1, 1, 0, 0, 1, 0, 0.0, 0.0, 0.0, 0.0, 0.0
0, 1, 1, 0, 0, 1, 1, 0.0, 0.0, 0.0, 0.0, 0.0
0, 1, 1, 0, 1, 0, 0, 0.0, 0.0, 0.0, 0.0, 0.0
0, 1, 1, 0, 1, 0, 1, 0.0, 0.0, 0.0, 0.0, 0.0
0, 1, 1, 0, 1, 1, 0, 0.0, 0.0, 0.0, 0.0, 0.0
0, 1, 1, 0, 1, 1, 1, 0.0, 0.0, 0.0, 0.0, 0.0
0, 1, 1, 0, 2, 0, 0, 0.0, 0.0, 0.0, 0.0, 0.0
0, 1, 1, 0, 2, 0, 1, 0.0, 0.0, 0.0, 0.0, 0.0
0, 1, 1, 0, 2, 1, 0, 0.0, 0.0, 0.0, 0.0, 0.0
0, 1, 1, 0, 2, 1, 1, 0.0, 0.0, 0.0, 0.0, 0.0
0, 1, 1, 1, 0, 0, 0, 0.0, 0.0, 0.0, 0.0, 0.0
0, 1, 1, 1, 0, 0, 1, 0.0, 0.0, 0.0, 0.0, 0.0
0, 1, 1, 1, 0, 1, 0, 0.0, 0.0, 0.0, 0.0, 0.0
0, 1, 1, 1, 0, 1, 1, 0.0, 0.0, 0.0, 0.0, 0.0
0, 1, 1, 1, 1, 0, 0, 0.0, 0.0, 0.0, 0.0, 0.0
0, 1, 1, 1, 1, 0, 1, 0.0, 0.0, 0.0, 0.0, 0.0
0, 1, 1, 1, 1, 1, 0, 0.0, 0.0, 0.0, 0.0, 0.0
0, 1, 1, 1, 1, 1, 1, 0.0, 0.0, 0.0, 0.0, 0.0
0, 1, 1, 1, 2, 0, 0, 0.0, 0.0, 0.0, 0.0, 0.0
0, 1, 1, 1, 2, 0, 1, 0.0, 0.0, 0.0, 0.0, 0.0
0, 1, 1, 1, 2, 1, 0, 0.0, 0.0, 0.0, 0.0, 0.0
0, 1, 1, 1, 2, 1, 1, 0.0, 0.0, 0.0, 0.0, 0.0
0, 1, 1, 2, 0, 0, 0, 0.0, 0.0, 0.0, 0.0, 0.0
0, 1, 1, 2, 0, 0, 1, 0.0, 0.0, 0.0, 0.0, 0.0
0, 1, 1, 2, 0, 1, 0, 0.0, 0.0, 0.0, 0.0, 0.0
0, 1, 1, 2, 0, 1, 1, 0.0, 0.0, 0.0, 0.0, 0.0
0, 1, 1, 2, 1, 0, 0, 0.0, 0.0, 0.0, 0.0, 0.0
0, 1, 1, 2, 1, 0, 1, 0.0, 0.0, 0.0, 0.0, 0.0
0, 1, 1, 2, 1, 1, 0, 0.0, 0.0, 0.0, 0.0, 0.0
0, 1, 1, 2, 1, 1, 1, 0.0, 0.0, 0.0, 0.0, 0.0
0, 1, 1, 2, 2, 0, 0, 0.0, 0.0, 0.0, 0.0, 0.0
0, 1, 1, 2, 2, 0, 1, 0.0, 0.0, 0.0, 0.0, 0.0
0, 1, 1, 2, 2, 1, 0, 0.0, 0.0, 0.0, 0.0, 0.0
0, 1, 1, 2, 2, 1, 1, 0.0, 0.0, 0.0, 0.0, 0.0
0, 1, 1, 3, 0, 0, 0, 0.0, 0.0, 0.0, 0.0, 0.0
0, 1, 1, 3, 0, 0, 1, 0.0, 0.0, 0.0, 0.0, 0.0
0, 1, 1, 3, 0, 1, 0, 0.0, 0.0, 0.0, 0.0, 0.0
0, 1, 1, 3, 0, 1, 1, 0.0, 0.0, 0.0, 0.0, 0.0
0, 1, 1, 3, 1, 0, 0, 0.0, 0.0, 0.0, 0.0, 0.0
0, 1, 1, 3, 1, 0, 1, 0.0, 0.0, 0.0, 0.0, 0.0
0, 1, 1, 3, 1, 1, 0, 0.0, 0.0, 0.0, 0.0, 0.0
0, 1, 1, 3, 1, 1, 1, 0.0, 0.0, 0.0, 0.0, 0.0
0, 1, 1, 3, 2, 0, 0, 0.0, 0.0, 0.0, 0.0, 0.0
0, 1, 1, 3, 2, 0, 1, 0.0, 0.0, 0.0, 0.0, 0.0
0, 1, 1, 3, 2, 1, 0, 0.0, 0.0, 0.0, 0.0, 0.0
0, 1, 1, 3, 2, 1, 1, 0.0, 0.0, 0.0, 0.0, 0.0
0, 1, 1, 4, 0, 0, 0, 0.0, 0.0, 0.0, 0.0, 0.0
0, 1, 1, 4, 0, 0, 1, 0.0, 0.0, 0.0, 0.0, 0.0
0, 1, 1, 4, 0, 1, 0, 0.0, 0.0, 0.0, 0.0, 0.0
0, 1, 1, 4, 0, 1, 1, 0.0, 0.0, 0.0, 0.0, 0.0
0, 1, 1, 4, 1, 0, 0, 0.0, 0.0, 0.0, 0.0, 0.0
0, 1, 1, 4, 1, 0, 1, 0.0, 0.0, 0.0, 0.0, 0.0
0, 1, 1, 4, 1, 1, 0, 0.0, 0.0, 0.0, 0.0, 0.0
0, 1, 1, 4, 1, 1, 1, 0.0, 0.0, 0.0, 0.0, 0.0
0, 1, 1, 4, 2, 0, 0, 0.0, 0.0, 0.0, 0.0, 0.0
0, 1, 1, 4, 2, 0, 1, 0.0, 0.0, 0.0, 0.0, 0.0
0, 1, 1, 4, 2, 1, 0, 0.0, 0.0, 0.0, 0.0, 0.0
0, 1, 1, 4, 2, 1, 1, 0.0, 0.0, 0.0, 0.0, 0.0
0, 2, 0, 0, 0, 0, 0, 2.970218560524788, -0.6264000000000001, -0.4, -0.4, -0.4
0, 2, 0, 0, 0, 0, 1, -0.4, 0.4616312562786248, 0.0, 0.0, 0.0
0, 2, 0, 0, 0, 1, 0, 0.0, 0.0, 0.0, 0.0, 0.0
0, 2, 0, 0, 0, 1, 1, 0.0, 0.0, 0.0, 0.0, 0.0
0, 2, 0, 0, 1, 0, 0, 1.0118957929504773, 0.0, 0.0, 0.0, 0.0
0, 2, 0, 0, 1, 0, 1, 0.0, 0.0, 0.0, 0.0, 0.0
0, 2, 0, 0, 1, 1, 0, 0.0, 0.0, 0.0, 0.0, 0.0
0, 2, 0, 0, 1, 1, 1, 0.0, 0.0, 0.0, 0.0, 0.0
0, 2, 0, 0, 2, 0, 0, 5.590241249721149, -0.6137121118941269, -0.4, -0.4, -0.4
0, 2, 0, 0, 2, 0, 1, 0.0, 0.0, 0.0, 0.0, 0.0
0, 2, 0, 0, 2, 1, 0, 0.0, 0.0, 0.0, 0.0, 0.0
0, 2, 0, 0, 2, 1, 1, 0.0, 0.0, 0.0, 0.0, 0.0
0, 2, 0, 1, 0, 0, 0, 6.234363944231804, -0.4, -0.4, -0.4, -0.4
0, 2, 0, 1, 0, 0, 1, -0.8181760000000001, 5.094990475807822, -0.792, -0.792, -0.792
0, 2, 0, 1, 0, 1, 0, 0.0, 0.0, 0.0, 0.0, 0.0
0, 2, 0, 1, 0, 1, 1, 0.0, 0.0, 0.0, 0.0, 0.0
0, 2, 0, 1, 1, 0, 0, 6.586123117199527, 0.0, 0.0, 0.0, 0.0
0, 2, 0, 1, 1, 0, 1, -0.4, -0.4, 7.465832743345775, 0.0, 0.0
0, 2, 0, 1, 1, 1, 0, 0.0, 0.0, 0.0, 0.0, 0.0
0, 2, 0, 1, 1, 1, 1, 0.0, 0.0, 0.0, 0.0, 0.0
0, 2, 0, 1, 2, 0, 0, 6.252092876559159, 0.0, 0.0, 0.0, 0.0
0, 2, 0, 1, 2, 0, 1, 2.110235768471952, -0.4, -0.4, -0.4, -0.4
0, 2, 0, 1, 2, 1, 0, 0.0, 0.0, 0.0, 0.0, 0.0
0, 2, 0, 1, 2, 1, 1, 0.0, 0.0, 0.0, 0.0, 0.0
0, 2, 0, 2, 0, 0, 0, 6.563387236778487, 0.0, 0.0, 0.0, 0.0
0, 2, 0, 2, 0, 0, 1, -0.6505528249107758, 2.8688777530422516, -0.792, -0.78552, -0.792
0, 2, 0, 2, 0, 1, 0, 0.0, 0.0, 0.0, 0.0, 0.0
0, 2, 0, 2, 0, 1, 1, 0.0, 0.0, 0.0, 0.0, 0.0
0, 2, 0, 2, 1, 0, 0, 5.9841779126844346, -0.9934231133600768, -1.17616, -1.17616, -1.17616
0, 2, 0, 2, 1, 0, 1, -0.4, -0.4, 7.1900561993502805, -0.4, -0.4
0, 2, 0, 2, 1, 1, 0, 0.0, 0.0, 0.0, 0.0, 0.0
0, 2, 0, 2, 1, 1, 1, 0.0, 0.0, 0.0, 0.0, 0.0
0, 2, 0, 2, 2, 0, 0, 7.1166099714864615, -0.7295890780911363, -0.792, -0.792, -0.9535133989845603
0, 2, 0, 2, 2, 0, 1, 0.968157895177132, -0.4, -0.4, -0.4, -0.4
0, 2, 0, 2, 2, 1, 0, 0.0, 0.0, 0.0, 0.0, 0.0
0, 2, 0, 2, 2, 1, 1, 0.0, 0.0, 0.0, 0.0, 0.0
0, 2, 0, 3, 0, 0, 0, 7.178509100239651, 0.0, 0.0, 0.0, 0.0
0, 2, 0, 3, 0, 0, 1, -1.17616, 2.1687046565741817, -1.17616, -1.1415856000000002, -1.020807427072
0, 2, 0, 3, 0, 1, 0, 1.7679435919999265, 0.0, 0.0, 0.0, 0.0
0, 2, 0, 3, 0, 1, 1, 2.8849555035708097, 0.0, 0.0, 0.0, 0.0
0, 2, 0, 3, 1, 0, 0, 0.7680553167487777, 0.0, 0.0, 0.0, 0.0
0, 2, 0, 3, 1, 0, 1, -0.4, -0.4, 4.397455171330176, -0.4, -0.4
0, 2, 0, 3, 1, 1, 0, 1.2695471208920035, 0.0, 0.0, 0.0, 0.0
0, 2, 0, 3, 1, 1, 1, 5.458430714561116, 0.0, 0.0, 0.0, 0.0
0, 2, 0, 3, 2, 0, 0, 5.658105359170069, -0.23059037206180144, -0.4, -0.22847229764944116, -0.4
0, 2, 0, 3, 2, 0, 1, -0.39355919098253844, -0.6664891392000001, -0.792, -0.4978583618713667, -0.792
0, 2, 0, 3, 2, 1, 0, 0.0, 0.0, 0.0, 0.0, 0.0
0, 2, 0, 3, 2, 1, 1, 0.36000000000000004, 0.0, 0.0, 0.0, 0.0
0, 2, 0, 4, 0, 0, 0, 0.0, 0.0, 0.0, 0.0, 0.0
0, 2, 0, 4, 0, 0, 1, 0.0, 0.0, 0.0, 0.0, 0.0
0, 2, 0, 4, 0, 1, 0, 0.0, 0.0, 0.0, 0.0, 0.0
0, 2, 0, 4, 0, 1, 1, 0.0, 0.0, 0.0, 0.0, 0.0
0, 2, 0, 4, 1, 0, 0, 0.0, 0.0, 0.0, 0.0, 0.0
0, 2, 0, 4, 1, 0, 1, 0.0, 0.0, 0.0, 0.0, 0.0
0, 2, 0, 4, 1, 1, 0, 0.0, 0.0, 0.0, 0.0, 0.0
0, 2, 0, 4, 1, 1, 1, 0.0, 0.0, 0.0, 0.0, 0.0
0, 2, 0, 4, 2, 0, 0, 0.0, 0.0, 0.0, 0.0, 0.0
0, 2, 0, 4, 2, 0, 1, 0.0, 0.0, 0.0, 0.0, 0.0
0, 2, 0, 4, 2, 1, 0, 0.0, 0.0, 0.0, 0.0, 0.0
0, 2, 0, 4, 2, 1, 1, 0.0, 0.0, 0.0, 0.0, 0.0
0, 2, 1, 0, 0, 0, 0, 0.0, 0.0, 0.0, 0.0, 0.0
0, 2, 1, 0, 0, 0, 1, 0.0, 0.0, 0.0, 0.0, 0.0
0, 2, 1, 0, 0, 1, 0, 0.0, 0.0, 0.0, 0.0, 0.0
0, 2, 1, 0, 0, 1, 1, 0.0, 0.0, 0.0, 0.0, 0.0
0, 2, 1, 0, 1, 0, 0, 0.0, 0.0, 0.0, 0.0, 0.0
0, 2, 1, 0, 1, 0, 1, 0.0, 0.0, 0.0, 0.0, 0.0
0, 2, 1, 0, 1, 1, 0, 0.0, 0.0, 0.0, 0.0, 0.0
0, 2, 1, 0, 1, 1, 1, 0.0, 0.0, 0.0, 0.0, 0.0
0, 2, 1, 0, 2, 0, 0, 0.0, 0.0, 0.0, 0.0, 0.0
0, 2, 1, 0, 2, 0, 1, 0.0, 0.0, 0.0, 0.0, 0.0
0, 2, 1, 0, 2, 1, 0, 0.0, 0.0, 0.0, 0.0, 0.0
0, 2, 1, 0, 2, 1, 1, 0.0, 0.0, 0.0, 0.0, 0.0
0, 2, 1, 1, 0, 0, 0, 0.0, 0.0, 0.0, 0.0, 0.0
0, 2, 1, 1, 0, 0, 1, 0.0, 0.0, 0.0, 0.0, 0.0
0, 2, 1, 1, 0, 1, 0, 0.0, 0.0, 0.0, 0.0, 0.0
0, 2, 1, 1, 0, 1, 1, 0.0, 0.0, 0.0, 0.0, 0.0
0, 2, 1, 1, 1, 0, 0, 0.0, 0.0, 0.0, 0.0, 0.0
0, 2, 1, 1, 1, 0, 1, 0.0, 0.0, 0.0, 0.0, 0.0
0, 2, 1, 1, 1, 1, 0, 0.0, 0.0, 0.0, 0.0, 0.0
0, 2, 1, 1, 1, 1, 1, 0.0, 0.0, 0.0, 0.0, 0.0
0, 2, 1, 1, 2, 0, 0, 0.0, 0.0, 0.0, 0.0, 0.0
0, 2, 1, 1, 2, 0, 1, 0.0, 0.0, 0.0, 0.0, 0.0
0, 2, 1, 1, 2, 1, 0, 0.0, 0.0, 0.0, 0.0, 0.0
0, 2, 1, 1, 2, 1, 1, 0.0, 0.0, 0.0, 0.0, 0.0
0, 2, 1, 2, 0, 0, 0, 0.0, 0.0, 0.0, 0.0, 0.0
0, 2, 1, 2, 0, 0, 1, 0.0, 0.0, 0.0, 0.0, 0.0
0, 2, 1, 2, 0, 1, 0, 0.0, 0.0, 0.0, 0.0, 0.0
0, 2, 1, 2, 0, 1, 1, 0.0, 0.0, 0.0, 0.0, 0.0
0, 2, 1, 2, 1, 0, 0, 0.0, 0.0, 0.0, 0.0, 0.0
0, 2, 1, 2, 1, 0, 1, 0.0, 0.0, 0.0, 0.0, 0.0
0, 2, 1, 2, 1, 1, 0, 0.0, 0.0, 0.0, 0.0, 0.0
0, 2, 1, 2, 1, 1, 1, 0.0, 0.0, 0.0, 0.0, 0.0
0, 2, 1, 2, 2, 0, 0, 0.0, 0.0, 0.0, 0.0, 0.0
0, 2, 1, 2, 2, 0, 1, 0.0, 0.0, 0.0, 0.0, 0.0
0, 2, 1, 2, 2, 1, 0, 0.0, 0.0, 0.0, 0.0, 0.0
0, 2, 1, 2, 2, 1, 1, 0.0, 0.0, 0.0, 0.0, 0.0
0, 2, 1, 3, 0, 0, 0, 0.0, 0.0, 0.0, 0.0, 0.0
0, 2, 1, 3, 0, 0, 1, 0.0, 0.0, 0.0, 0.0, 0.0
0, 2, 1, 3, 0, 1, 0, 0.0, 0.0, 0.0, 0.0, 0.0
0, 2, 1, 3, 0, 1, 1, 0.0, 0.0, 0.0, 0.0, 0.0
0, 2, 1, 3, 1, 0, 0, 0.0, 0.0, 0.0, 0.0, 0.0
0, 2, 1, 3, 1, 0, 1, 0.0, 0.0, 0.0, 0.0, 0.0
0, 2, 1, 3, 1, 1, 0, 0.0, 0.0, 0.0, 0.0, 0.0
0, 2, 1, 3, 1, 1, 1, 0.0, 0.0, 0.0, 0.0, 0.0
0, 2, 1, 3, 2, 0, 0, 0.0, 0.0, 0.0, 0.0, 0.0
0, 2, 1, 3, 2, 0, 1, 0.0, 0.0, 0.0, 0.0, 0.0
0, 2, 1, 3, 2, 1, 0, 0.0, 0.0, 0.0, 0.0, 0.0
0, 2, 1, 3, 2, 1, 1, 0.0, 0.0, 0.0, 0.0, 0.0
0, 2, 1, 4, 0, 0, 0, 0.0, 0.0, 0.0, 0.0, 0.0
0, 2, 1, 4, 0, 0, 1, 0.0, 0.0, 0.0, 0.0, 0.0
0, 2, 1, 4, 0, 1, 0, 0.0, 0.0, 0.0, 0.0, 0.0
0, 2, 1, 4, 0, 1, 1, 0.0, 0.0, 0.0, 0.0, 0.0
0, 2, 1, 4, 1, 0, 0, 0.0, 0.0, 0.0, 0.0, 0.0
0, 2, 1, 4, 1, 0, 1, 0.0, 0.0, 0.0, 0.0, 0.0
0, 2, 1, 4, 1, 1, 0, 0.0, 0.0, 0.0, 0.0, 0.0
0, 2, 1, 4, 1, 1, 1, 0.0, 0.0, 0.0, 0.0, 0.0
0, 2, 1, 4, 2, 0, 0, 0.0, 0.0, 0.0, 0.0, 0.0
0, 2, 1, 4, 2, 0, 1, 0.0, 0.0, 0.0, 0.0, 0.0
0, 2, 1, 4, 2, 1, 0, 0.0, 0.0, 0.0, 0.0, 0.0
0, 2, 1, 4, 2, 1, 1, 0.0, 0.0, 0.0, 0.0, 0.0
1, 0, 0, 0, 0, 0, 0, -0.4, 1.6949122056537067, 0.0, 0.0, 0.0
1, 0, 0, 0, 0, 0, 1, -0.4, 0.36000000000000004, 0.0, 0.0, 0.0
1, 0, 0, 0, 0, 1, 0, -0.030818686188106667, 0.5156425144963984, 0.0, 0.0, 0.0
1, 0, 0, 0, 0, 1, 1, -0.4, 0.236, 0.0, 0.0, 0.0
1, 0, 0, 0, 1, 0, 0, -0.033406086969379134, 0.3960907571873411, 0.0, 0.0, 0.0
1, 0, 0, 0, 1, 0, 1, 0.0012237614444214453, 0.0, 0.0, 0.0, 0.0
1, 0, 0, 0, 1, 1, 0, 0.0, 0.0, 0.0, 0.0, 0.0
1, 0, 0, 0, 1, 1, 1, 0.0, 0.0, 0.0, 0.0, 0.0
1, 0, 0, 0, 2, 0, 0, -0.83796673536, 1.6712062797945315, -0.792, -0.792, -0.792
1, 0, 0, 0, 2, 0, 1, 0.0, 0.0, 0.0, 0.0, 0.0
1, 0, 0, 0, 2, 1, 0, 0.0, 0.0, 0.0, 0.0, 0.0
1, 0, 0, 0, 2, 1, 1, 0.0, 0.0, 0.0, 0.0, 0.0
1, 0, 0, 1, 0, 0, 0, -0.4, 5.690652224188467, 0.0, 0.0, 0.0
1, 0, 0, 1, 0, 0, 1, -0.4, 3.4274763519418836, -0.472, -0.4, -0.4
1, 0, 0, 1, 0, 1, 0, 0.0, 0.0, 0.0, 0.0, 0.0
1, 0, 0, 1, 0, 1, 1, 0.0, 0.0, 0.0, 0.0, 0.0
1, 0, 0, 1, 1, 0, 0, -0.306976, 6.102124957332694, 0.0, 0.0, 0.0
1, 0, 0, 1, 1, 0, 1, -0.4, -0.4, 7.8389265737582825, 0.0, 0.0
1, 0, 0, 1, 1, 1, 0, 0.0, 0.0, 0.0, 0.0, 0.0
1, 0, 0, 1, 1, 1, 1, 0.0, 0.0, 0.0, 0.0, 0.0
1, 0, 0, 1, 2, 0, 0, -0.4, 5.611071878330627, -0.4, -0.4, -0.4
1, 0, 0, 1, 2, 0, 1, 6.117593763927385, -0.6264000000000001, -0.792, -0.8502043957238588, -0.792
1, 0, 0, 1, 2, 1, 0, 0.0, 0.0, 0.0, 0.0, 0.0
1, 0, 0, 1, 2, 1, 1, 0.0, 0.0, 0.0, 0.0, 0.0
1, 0, 0, 2, 0, 0, 0, -0.4, 6.4468828441785355, -0.4, -0.4, -0.4
1, 0, 0, 2, 0, 0, 1, -0.4, 3.2834751352333265, -0.4, -0.4, -0.4
1, 0, 0, 2, 0, 1, 0, 0.0, 0.0, 0.0, 0.0, 0.0
1, 0, 0, 2, 0, 1, 1, 0.0, 0.0, 0.0, 0.0, 0.0
1, 0, 0, 2, 1, 0, 0, -0.04433879014397493, 6.377150938592299, 0.0, 0.0, 0.0
1, 0, 0, 2, 1, 0, 1, -0.4, -0.4, 6.879118346932956, 0.0, 0.0
1, 0, 0, 2, 1, 1, 0, 0.0, 0.0, 0.0, 0.0, 0.0
1, 0, 0, 2, 1, 1, 1, 0.0, 0.0, 0.0, 0.0, 0.0
1, 0, 0, 2, 2, 0, 0, -0.4, 6.116997870276808, -0.3058696192, -0.4, -0.4
1, 0, 0, 2, 2, 0, 1, 2.7275207789450677, -0.6264000000000001, -0.4, -0.4, -0.4
1, 0, 0, 2, 2, 1, 0, 0.0, 0.0, 0.0, 0.0, 0.0
1, 0, 0, 2, 2, 1, 1, 0.0, 0.0, 0.0, 0.0, 0.0
1, 0, 0, 3, 0, 0, 0, -0.7373052659237156, 7.005075766509249, -0.792, -0.792, -0.9724862064684822
1, 0, 0, 3, 0, 0, 1, -0.4, 3.781021014580952, -0.4, -0.4, -0.33025947351629326
1, 0, 0, 3, 0, 1, 0, -0.7918744393280712, 5.226527672240829, -0.792, -1.0420960000000001, -0.792
1, 0, 0, 3, 0, 1, 1, -0.1883515665613545, 5.744791955311778, 0.0, 0.0, 0.0
1, 0, 0, 3, 1, 0, 0, -0.1692676281841019, 6.798063403178378, 0.0, 0.0, 0.0
1, 0, 0, 3, 1, 0, 1, -0.4, -0.4, 7.252967723373841, 0.0, 0.0
1, 0, 0, 3, 1, 1, 0, -0.472, 6.9031476425964335, 0.0, 0.0, 0.0
1, 0, 0, 3, 1, 1, 1, -0.09452080664032403, 7.231686952447429, 0.0, 0.0, 0.0
1, 0, 0, 3, 2, 0, 0, -0.4, 7.328706422176543, -0.4, -0.4, -0.4
1, 0, 0, 3, 2, 0, 1, 4.934498545220177, 0.0, 0.0, 0.0, 0.0
1, 0, 0, 3, 2, 1, 0, -0.4, 7.0820835203669805, 0.0, 0.0, 0.0
1, 0, 0, 3, 2, 1, 1, -0.4, 6.821553294656651, 0.0, 0.0, 0.0
1, 0, 0, 4, 0, 0, 0, 0.0, 0.0, 0.0, 0.0, 0.0
1, 0, 0, 4, 0, 0, 1, 0.0, 0.0, 0.0, 0.0, 0.0
1, 0, 0, 4, 0, 1, 0, 0.0, 0.0, 0.0, 0.0, 0.0
1, 0, 0, 4, 0, 1, 1, 0.0, 0.0, 0.0, 0.0, 0.0
1, 0, 0, 4, 1, 0, 0, 0.0, 0.0, 0.0, 0.0, 0.0
1, 0, 0, 4, 1, 0, 1, 0.0, 0.0, 0.0, 0.0, 0.0
1, 0, 0, 4, 1, 1, 0, 0.0, 0.0, 0.0, 0.0, 0.0
1, 0, 0, 4, 1, 1, 1, 0.0, 0.0, 0.0, 0.0, 0.0
1, 0, 0, 4, 2, 0, 0, 0.0, 0.0, 0.0, 0.0, 0.0
1, 0, 0, 4, 2, 0, 1, 0.0, 0.0, 0.0, 0.0, 0.0
1, 0, 0, 4, 2, 1, 0, -0.4, 0.38088893254837375, 0.0, 0.0, 0.0
1, 0, 0, 4, 2, 1, 1, 0.0, 0.0, 0.0, 0.0, 0.0
1, 0, 1, 0, 0, 0, 0, 0.0, 0.0, 0.0, 0.0, 0.0
1, 0, 1, 0, 0, 0, 1, 0.0, 0.0, 0.0, 0.0, 0.0
1, 0, 1, 0, 0, 1, 0, 0.0, 0.0, 0.0, 0.0, 0.0
1, 0, 1, 0, 0, 1, 1, 0.0, 0.0, 0.0, 0.0, 0.0
1, 0, 1, 0, 1, 0, 0, 0.0, 0.0, 0.0, 0.0, 0.0
1, 0, 1, 0, 1, 0, 1, 0.0, 0.0, 0.0, 0.0, 0.0
1, 0, 1, 0, 1, 1, 0, 0.0, 0.0, 0.0, 0.0, 0.0
1, 0, 1, 0, 1, 1, 1, 0.0, 0.0, 0.0, 0.0, 0.0
1, 0, 1, 0, 2, 0, 0, 0.0, 0.0, 0.0, 0.0, 0.0
1, 0, 1, 0, 2, 0, 1, 0.0, 0.0, 0.0, 0.0, 0.0
1, 0, 1, 0, 2, 1, 0, 0.0, 0.0, 0.0, 0.0, 0.0
1, 0, 1, 0, 2, 1, 1, 0.0, 0.0, 0.0, 0.0, 0.0
1, 0, 1, 1, 0, 0, 0, 0.0, 0.0, 0.0, 0.0, 0.0
1, 0, 1, 1, 0, 0, 1, 0.0, 0.0, 0.0, 0.0, 0.0
1, 0, 1, 1, 0, 1, 0, 0.0, 0.0, 0.0, 0.0, 0.0
1, 0, 1, 1, 0, 1, 1, 0.0, 0.0, 0.0, 0.0, 0.0
1, 0, 1, 1, 1, 0, 0, 0.0, 0.0, 0.0, 0.0, 0.0
1, 0, 1, 1, 1, 0, 1, 0.0, 0.0, 0.0, 0.0, 0.0
1, 0, 1, 1, 1, 1, 0, 0.0, 0.0, 0.0, 0.0, 0.0
1, 0, 1, 1, 1, 1, 1, 0.0, 0.0, 0.0, 0.0, 0.0
1, 0, 1, 1, 2, 0, 0, 0.0, 0.0, 0.0, 0.0, 0.0
1, 0, 1, 1, 2, 0, 1, 0.0, 0.0, 0.0, 0.0, 0.0
1, 0, 1, 1, 2, 1, 0, 0.0, 0.0, 0.0, 0.0, 0.0
1, 0, 1, 1, 2, 1, 1, 0.0, 0.0, 0.0, 0.0, 0.0
1, 0, 1, 2, 0, 0, 0, 0.0, 0.0, 0.0, 0.0, 0.0
1, 0, 1, 2, 0, 0, 1, 0.0, 0.0, 0.0, 0.0, 0.0
1, 0, 1, 2, 0, 1, 0, 0.0, 0.0, 0.0, 0.0, 0.0
1, 0, 1, 2, 0, 1, 1, 0.0, 0.0, 0.0, 0.0, 0.0
1, 0, 1, 2, 1, 0, 0, 0.0, 0.0, 0.0, 0.0, 0.0
1, 0, 1, 2, 1, 0, 1, 0.0, 0.0, 0.0, 0.0, 0.0
1, 0, 1, 2, 1, 1, 0, 0.0, 0.0, 0.0, 0.0, 0.0
1, 0, 1, 2, 1, 1, 1, 0.0, 0.0, 0.0, 0.0, 0.0
1, 0, 1, 2, 2, 0, 0, 0.0, 0.0, 0.0, 0.0, 0.0
1, 0, 1, 2, 2, 0, 1, 0.0, 0.0, 0.0, 0.0, 0.0
1, 0, 1, 2, 2, 1, 0, 0.0, 0.0, 0.0, 0.0, 0.0
1, 0, 1, 2, 2, 1, 1, 0.0, 0.0, 0.0, 0.0, 0.0
1, 0, 1, 3, 0, 0, 0, 0.0, 0.0, 0.0, 0.0, 0.0
1, 0, 1, 3, 0, 0, 1, 0.0, 0.0, 0.0, 0.0, 0.0
1, 0, 1, 3, 0, 1, 0, 0.0, 0.0, 0.0, 0.0, 0.0
1, 0, 1, 3, 0, 1, 1, 0.0, 0.0, 0.0, 0.0, 0.0
1, 0, 1, 3, 1, 0, 0, 0.0, 0.0, 0.0, 0.0, 0.0
1, 0, 1, 3, 1, 0, 1, 0.0, 0.0, 0.0, 0.0, 0.0
1, 0, 1, 3, 1, 1, 0, 0.0, 0.0, 0.0, 0.0, 0.0
1, 0, 1, 3, 1, 1, 1, 0.0, 0.0, 0.0, 0.0, 0.0
1, 0, 1, 3, 2, 0, 0, 0.0, 0.0, 0.0, 0.0, 0.0
1, 0, 1, 3, 2, 0, 1, 0.0, 0.0, 0.0, 0.0, 0.0
1, 0, 1, 3, 2, 1, 0, 0.0, 0.0, 0.0, 0.0, 0.0
1, 0, 1, 3, 2, 1, 1, 0.0, 0.0, 0.0, 0.0, 0.0
1, 0, 1, 4, 0, 0, 0, 0.0, 0.0, 0.0, 0.0, 0.0
1, 0, 1, 4, 0, 0, 1, 0.0, 0.0, 0.0, 0.0, 0.0
1, 0, 1, 4, 0, 1, 0, 0.0, 0.0, 0.0, 0.0, 0.0
1, 0, 1, 4, 0, 1, 1, 0.0, 0.0, 0.0, 0.0, 0.0
1, 0, 1, 4, 1, 0, 0, 0.0, 0.0, 0.0, 0.0, 0.0
1, 0, 1, 4, 1, 0, 1, 0.0, 0.0, 0.0, 0.0, 0.0
1, 0, 1, 4, 1, 1, 0, 0.0, 0.0, 0.0, 0.0, 0.0
1, 0, 1, 4, 1, 1, 1, 0.0, 0.0, 0.0, 0.0, 0.0
1, 0, 1, 4, 2, 0, 0, 0.0, 0.0, 0.0, 0.0, 0.0
1, 0, 1, 4, 2, 0, 1, 0.0, 0.0, 0.0, 0.0, 0.0
1, 0, 1, 4, 2, 1, 0, 0.0, 0.0, 0.0, 0.0, 0.0
1, 0, 1, 4, 2, 1, 1, 0.0, 0.0, 0.0, 0.0, 0.0
1, 1, 0, 0, 0, 0, 0, -0.4, -0.4, 6.989667592676658, 0.0, 0.0
1, 1, 0, 0, 0, 0, 1, -0.4, 0.8759643394581468, 0.0, 0.0, 0.0
1, 1, 0, 0, 0, 1, 0, -0.4, -0.3451678462843678, 2.0035074088225957, 0.0, 0.0
1, 1, 0, 0, 0, 1, 1, -0.4, 0.0, 0.0, 0.0, 0.0
1, 1, 0, 0, 1, 0, 0, 0.0, 0.0, 0.0, 0.0, 0.0
1, 1, 0, 0, 1, 0, 1, 0.0, 0.0, 0.0, 0.0, 0.0
1, 1, 0, 0, 1, 1, 0, 0.0, 0.0, 0.0, 0.0, 0.0
1, 1, 0, 0, 1, 1, 1, 0.0, 0.0, 0.0, 0.0, 0.0
1, 1, 0, 0, 2, 0, 0, -0.7472816411008707, -0.7694209026657619, 5.847831095680556, -0.4, -0.4
1, 1, 0, 0, 2, 0, 1, 0.0, 0.0, 0.0, 0.0, 0.0
1, 1, 0, 0, 2, 1, 0, 0.0, 0.0, 0.0, 0.0, 0.0
1, 1, 0, 0, 2, 1, 1, 0.0, 0.0, 0.0, 0.0, 0.0
1, 1, 0, 1, 0, 0, 0, -0.2570987525177712, -0.4, 7.461544148367482, 0.0, 0.0
1, 1, 0, 1, 0, 0, 1, -0.4, 5.6674211484896935, 0.0, 0.0, 0.0
1, 1, 0, 1, 0, 1, 0, 0.0, 0.0, 0.0, 0.0, 0.0
1, 1, 0, 1, 0, 1, 1, 0.0, 0.0, 0.0, 0.0, 0.0
1, 1, 0, 1, 1, 0, 0, 0.0, 0.0, 0.0, 0.0, 0.0
1, 1, 0, 1, 1, 0, 1, 0.0, 0.0, 0.0, 0.0, 0.0
1, 1, 0, 1, 1, 1, 0, 0.0, 0.0, 0.0, 0.0, 0.0
1, 1, 0, 1, 1, 1, 1, 0.0, 0.0, 0.0, 0.0, 0.0
1, 1, 0, 1, 2, 0, 0, -0.38245993082756313, -0.4, 7.274972182348357, 0.0, 0.0
1, 1, 0, 1, 2, 0, 1, 6.088850240925985, 0.0, 0.0, 0.0, 0.0
1, 1, 0, 1, 2, 1, 0, 0.0, 0.0, 0.0, 0.0, 0.0
1, 1, 0, 1, 2, 1, 1, 0.0, 0.0, 0.0, 0.0, 0.0
1, 1, 0, 2, 0, 0, 0, -0.4, -0.4, 8.30592107346855, 0.0, 0.0
1, 1, 0, 2, 0, 0, 1, -0.32252568489238254, 4.118866359506023, 0.0, 0.0, 0.0
1, 1, 0, 2, 0, 1, 0, 0.0, 0.0, 0.0, 0.0, 0.0
1, 1, 0, 2, 0, 1, 1, 0.0, 0.0, 0.0, 0.0, 0.0
1, 1, 0, 2, 1, 0, 0, -0.28468189705644115, -0.2696391955822453, 9.03410706869822, 0.0, 0.0
1, 1, 0, 2, 1, 0, 1, -0.302020547913906, -0.17335868834933638, 2.4328392834125556, 0.0, 0.0
1, 1, 0, 2, 1, 1, 0, 0.0, 0.0, 0.0, 0.0, 0.0
1, 1, 0, 2, 1, 1, 1, 0.0, 0.0, 0.0, 0.0, 0.0
1, 1, 0, 2, 2, 0, 0, -0.4, -0.2746787251345581, 8.920974870067084, 0.0, 0.0
1, 1, 0, 2, 2, 0, 1, 4.236823348169482, 0.0, 0.0, 0.0, 0.0
1, 1, 0, 2, 2, 1, 0, 0.0, 0.0, 0.0, 0.0, 0.0
1, 1, 0, 2, 2, 1, 1, 0.0, 0.0, 0.0, 0.0, 0.0
1, 1, 0, 3, 0, 0, 0, -0.4, -0.18328061430022138, 8.391632249520459, 0.0, 0.0
1, 1, 0, 3, 0, 0, 1, -0.44907961140284886, 3.929068988953023, 0.0, 0.0, 0.0
1, 1, 0, 3, 0, 1, 0, -0.3038977224343552, -0.4, 6.679303841615467, 0.0, 0.0
1, 1, 0, 3, 0, 1, 1, 0.7587271056055486, 0.0, 0.0, 0.0, 0.0
1, 1, 0, 3, 1, 0, 0, -0.4, -0.0059568794620293635, 9.110513552921253, 0.0, 0.0
1, 1, 0, 3, 1, 0, 1, -0.4, -0.30486931641843096, 0.7147165585001249, 0.0, 0.0
1, 1, 0, 3, 1, 1, 0, -0.4, -0.4, 9.524369115569476, 0.0, 0.0
1, 1, 0, 3, 1, 1, 1, 1.5102727725501088, 0.0, 0.0, 0.0, 0.0
1, 1, 0, 3, 2, 0, 0, -0.4, -0.30761302844416, 8.841084374653668, 0.0, 0.0
1, 1, 0, 3, 2, 0, 1, 4.424311338725553, -0.472, -0.4, -0.4, -0.4
1, 1, 0, 3, 2, 1, 0, -0.4, -0.1158581322528911, 8.676197455668715, 0.0, 0.0
1, 1, 0, 3, 2, 1, 1, 1.4185406123515807, 0.0, 0.0, 0.0, 0.0
1, 1, 0, 4, 0, 0, 0, -0.2554285585912872, 0.0, 0.0, 0.0, 0.0
1, 1, 0, 4, 0, 0, 1, 0.0, 0.0, 0.0, 0.0, 0.0
1, 1, 0, 4, 0, 1, 0, -0.3794511341250295, -0.4, 6.603079619487113, 0.0, 0.0
1, 1, 0, 4, 0, 1, 1, 0.0, 0.0, 0.0, 0.0, 0.0
1, 1, 0, 4, 1, 0, 0, 0.0, 0.0, 0.0, 0.0, 0.0
1, 1, 0, 4, 1, 0, 1, 0.0, 0.0, 0.0, 0.0, 0.0
1, 1, 0, 4, 1, 1, 0, 0.0, 0.0, 0.0, 0.0, 0.0
1, 1, 0, 4, 1, 1, 1, 0.0, 0.0, 0.0, 0.0, 0.0
1, 1, 0, 4, 2, 0, 0, 0.0, 0.0, 0.0, 0.0, 0.0
1, 1, 0, 4, 2, 0, 1, 0.0, 0.0, 0.0, 0.0, 0.0
1, 1, 0, 4, 2, 1, 0, -0.4, -0.1567655035696235, 7.919580431934168, 0.0, 0.0
1, 1, 0, 4, 2, 1, 1, 0.0, 0.0, 0.0, 0.0, 0.0
1, 1, 1, 0, 0, 0, 0, 0.0, 0.0, 0.0, 0.0, 0.0
1, 1, 1, 0, 0, 0, 1, 0.0, 0.0, 0.0, 0.0, 0.0
1, 1, 1, 0, 0, 1, 0, 0.0, 0.0, 0.0, 0.0, 0.0
1, 1, 1, 0, 0, 1, 1, 0.0, 0.0, 0.0, 0.0, 0.0
1, 1, 1, 0, 1, 0, 0, 0.0, 0.0, 0.0, 0.0, 0.0
1, 1, 1, 0, 1, 0, 1, 0.0, 0.0, 0.0, 0.0, 0.0
1, 1, 1, 0, 1, 1, 0, 0.0, 0.0, 0.0, 0.0, 0.0
1, 1, 1, 0, 1, 1, 1, 0.0, 0.0, 0.0, 0.0, 0.0
1, 1, 1, 0, 2, 0, 0, 0.0, 0.0, 0.0, 0.0, 0.0
1, 1, 1, 0, 2, 0, 1, 0.0, 0.0, 0.0, 0.0, 0.0
1, 1, 1, 0, 2, 1, 0, 0.0, 0.0, 0.0, 0.0, 0.0
1, 1, 1, 0, 2, 1, 1, 0.0, 0.0, 0.0, 0.0, 0.0
1, 1, 1, 1, 0, 0, 0, 0.0, 0.0, 0.0, 0.0, 0.0
1, 1, 1, 1, 0, 0, 1, 0.0, 0.0, 0.0, 0.0, 0.0
1, 1, 1, 1, 0, 1, 0, 0.0, 0.0, 0.0, 0.0, 0.0
1, 1, 1, 1, 0, 1, 1, 0.0, 0.0, 0.0, 0.0, 0.0
1, 1, 1, 1, 1, 0, 0, 0.0, 0.0, 0.0, 0.0, 0.0
1, 1, 1, 1, 1, 0, 1, 0.0, 0.0, 0.0, 0.0, 0.0
1, 1, 1, 1, 1, 1, 0, 0.0, 0.0, 0.0, 0.0, 0.0
1, 1, 1, 1, 1, 1, 1, 0.0, 0.0, 0.0, 0.0, 0.0
1, 1, 1, 1, 2, 0, 0, 0.0, 0.0, 0.0, 0.0, 0.0
1, 1, 1, 1, 2, 0, 1, 0.0, 0.0, 0.0, 0.0, 0.0
1, 1, 1, 1, 2, 1, 0, 0.0, 0.0, 0.0, 0.0, 0.0
1, 1, 1, 1, 2, 1, 1, 0.0, 0.0, 0.0, 0.0, 0.0
1, 1, 1, 2, 0, 0, 0, 0.0, 0.0, 0.0, 0.0, 0.0
1, 1, 1, 2, 0, 0, 1, 0.0, 0.0, 0.0, 0.0, 0.0
1, 1, 1, 2, 0, 1, 0, 0.0, 0.0, 0.0, 0.0, 0.0
1, 1, 1, 2, 0, 1, 1, 0.0, 0.0, 0.0, 0.0, 0.0
1, 1, 1, 2, 1, 0, 0, 0.0, 0.0, 0.0, 0.0, 0.0
1, 1, 1, 2, 1, 0, 1, 0.0, 0.0, 0.0, 0.0, 0.0
1, 1, 1, 2, 1, 1, 0, 0.0, 0.0, 0.0, 0.0, 0.0
1, 1, 1, 2, 1, 1, 1, 0.0, 0.0, 0.0, 0.0, 0.0
1, 1, 1, 2, 2, 0, 0, 0.0, 0.0, 0.0, 0.0, 0.0
1, 1, 1, 2, 2, 0, 1, 0.0, 0.0, 0.0, 0.0, 0.0
1, 1, 1, 2, 2, 1, 0, 0.0, 0.0, 0.0, 0.0, 0.0
1, 1, 1, 2, 2, 1, 1, 0.0, 0.0, 0.0, 0.0, 0.0
1, 1, 1, 3, 0, 0, 0, 0.0, 0.0, 0.0, 0.0, 0.0
1, 1, 1, 3, 0, 0, 1, 0.0, 0.0, 0.0, 0.0, 0.0
1, 1, 1, 3, 0, 1, 0, 0.0, 0.0, 0.0, 0.0, 0.0
1, 1, 1, 3, 0, 1, 1, 0.0, 0.0, 0.0, 0.0, 0.0
1, 1, 1, 3, 1, 0, 0, 0.0, 0.0, 0.0, 0.0, 0.0
1, 1, 1, 3, 1, 0, 1, 0.0, 0.0, 0.0, 0.0, 0.0
1, 1, 1, 3, 1, 1, 0, 0.0, 0.0, 0.0, 0.0, 0.0
1, 1, 1, 3, 1, 1, 1, 0.0, 0.0, 0.0, 0.0, 0.0
1, 1, 1, 3, 2, 0, 0, 0.0, 0.0, 0.0, 0.0, 0.0
1, 1, 1, 3, 2, 0, 1, 0.0, 0.0, 0.0, 0.0, 0.0
1, 1, 1, 3, 2, 1, 0, 0.0, 0.0, 0.0, 0.0, 0.0
1, 1, 1, 3, 2, 1, 1, 0.0, 0.0, 0.0, 0.0, 0.0
1, 1, 1, 4, 0, 0, 0, 0.0, 0.0, 0.0, 0.0, 0.0
1, 1, 1, 4, 0, 0, 1, 0.0, 0.0, 0.0, 0.0, 0.0
1, 1, 1, 4, 0, 1, 0, 0.0, 0.0, 0.0, 0.0, 0.0
1, 1, 1, 4, 0, 1, 1, 0.0, 0.0, 0.0, 0.0, 0.0
1, 1, 1, 4, 1, 0, 0, 0.0, 0.0, 0.0, 0.0, 0.0
1, 1, 1, 4, 1, 0, 1, 0.0, 0.0, 0.0, 0.0, 0.0
1, 1, 1, 4, 1, 1, 0, 0.0, 0.0, 0.0, 0.0, 0.0
1, 1, 1, 4, 1, 1, 1, 0.0, 0.0, 0.0, 0.0, 0.0
1, 1, 1, 4, 2, 0, 0, 0.0, 0.0, 0.0, 0.0, 0.0
1, 1, 1, 4, 2, 0, 1, 0.0, 0.0, 0.0, 0.0, 0.0
1, 1, 1, 4, 2, 1, 0, 0.0, 0.0, 0.0, 0.0, 0.0
1, 1, 1, 4, 2, 1, 1, 0.0, 0.0, 0.0, 0.0, 0.0
1, 2, 0, 0, 0, 0, 0, 2.6069212194860736, -0.17549085711336052, -0.4, -0.4, -0.4
1, 2, 0, 0, 0, 0, 1, -0.36400000000000005, 3.0717752307412987, 0.0, 0.0, 0.0
1, 2, 0, 0, 0, 1, 0, 0.0, 0.0, 0.0, 0.0, 0.0
1, 2, 0, 0, 0, 1, 1, 0.0, 0.0, 0.0, 0.0, 0.0
1, 2, 0, 0, 1, 0, 0, 0.43877347950105944, 0.0, 0.0, 0.0, 0.0
1, 2, 0, 0, 1, 0, 1, 0.0, 0.0, 0.0, 0.0, 0.0
1, 2, 0, 0, 1, 1, 0, 0.0, 0.0, 0.0, 0.0, 0.0
1, 2, 0, 0, 1, 1, 1, 0.0, 0.0, 0.0, 0.0, 0.0
1, 2, 0, 0, 2, 0, 0, 2.785484176245864, -0.4, -0.4, -0.4, -0.4
1, 2, 0, 0, 2, 0, 1, 0.0, 0.0, 0.0, 0.0, 0.0
1, 2, 0, 0, 2, 1, 0, 0.0, 0.0, 0.0, 0.0, 0.0
1, 2, 0, 0, 2, 1, 1, 0.0, 0.0, 0.0, 0.0, 0.0
1, 2, 0, 1, 0, 0, 0, 6.68281898424809, -0.715297111142048, -0.4, -0.4, -0.4
1, 2, 0, 1, 0, 0, 1, -0.4, 5.61458999437698, -0.4, -0.34757935002215556, -0.4
1, 2, 0, 1, 0, 1, 0, 0.0, 0.0, 0.0, 0.0, 0.0
1, 2, 0, 1, 0, 1, 1, 0.0, 0.0, 0.0, 0.0, 0.0
1, 2, 0, 1, 1, 0, 0, 6.268014337732996, 0.0, 0.0, 0.0, 0.0
1, 2, 0, 1, 1, 0, 1, -0.4, -0.4, 8.279668123161446, 0.0, 0.0
1, 2, 0, 1, 1, 1, 0, 0.0, 0.0, 0.0, 0.0, 0.0
1, 2, 0, 1, 1, 1, 1, 0.0, 0.0, 0.0, 0.0, 0.0
1, 2, 0, 1, 2, 0, 0, 6.408616042687793, -0.4, -0.4, -0.4, -0.4
1, 2, 0, 1, 2, 0, 1, 3.987131248460169, -0.4, -0.4, -0.4, -0.4
1, 2, 0, 1, 2, 1, 0, 0.0, 0.0, 0.0, 0.0, 0.0
1, 2, 0, 1, 2, 1, 1, 0.0, 0.0, 0.0, 0.0, 0.0
1, 2, 0, 2, 0, 0, 0, 5.777582993696479, -0.4, -0.4, -0.4, -0.4
1, 2, 0, 2, 0, 0, 1, -0.4, 3.794740922407666, -0.4, -0.4, -0.49485593885983903
1, 2, 0, 2, 0, 1, 0, 0.0, 0.0, 0.0, 0.0, 0.0
1, 2, 0, 2, 0, 1, 1, 0.0, 0.0, 0.0, 0.0, 0.0
1, 2, 0, 2, 1, 0, 0, 6.169838393021277, 0.0, 0.0, 0.0, 0.0
1, 2, 0, 2, 1, 0, 1, -0.4, -0.4, 5.352815759893021, 0.0, 0.0
1, 2, 0, 2, 1, 1, 0, 0.0, 0.0, 0.0, 0.0, 0.0
1, 2, 0, 2, 1, 1, 1, 0.0, 0.0, 0.0, 0.0, 0.0
1, 2, 0, 2, 2, 0, 0, 6.103748114012895, -0.4, -0.4, -0.4, -0.4
1, 2, 0, 2, 2, 0, 1, 3.1870567196862414, -0.4, -0.4, -0.4, -0.4
1, 2, 0, 2, 2, 1, 0, 0.0, 0.0, 0.0, 0.0, 0.0
1, 2, 0, 2, 2, 1, 1, 0.0, 0.0, 0.0, 0.0, 0.0
1, 2, 0, 3, 0, 0, 0, 6.41118275675997, 0.0, 0.0, 0.0, 0.0
1, 2, 0, 3, 0, 0, 1, -1.1141615705832848, 4.923885378150562, -0.792, -0.792, -1.09364552998824
1, 2, 0, 3, 0, 1, 0, 6.7083807180998845, 0.0, 0.0, 0.0, 0.0
1, 2, 0, 3, 0, 1, 1, 6.052901189204054, 0.0, 0.0, 0.0, 0.0
1, 2, 0, 3, 1, 0, 0, 6.961424110762431, -0.5408996302237198, -0.4, -0.4, -0.4
1, 2, 0, 3, 1, 0, 1, -0.4, -0.4, 7.121268079982727, 0.0, 0.0
1, 2, 0, 3, 1, 1, 0, 6.609355901466868, -0.3690688, -0.4, -0.4, -0.4
1, 2, 0, 3, 1, 1, 1, 6.496597242743732, 0.0, 0.0, 0.0, 0.0
1, 2, 0, 3, 2, 0, 0, 7.181114105381132, -0.4, -0.4, -0.4, -0.4
1, 2, 0, 3, 2, 0, 1, 3.6860272317784766, -0.792, -0.792, -0.792, -0.7567200000000001
1, 2, 0, 3, 2, 1, 0, 6.5869817720139014, -0.35835282372618155, -0.4, -0.4, -0.4
1, 2, 0, 3, 2, 1, 1, 4.59743478000879, 0.0, 0.0, 0.0, 0.0
1, 2, 0, 4, 0, 0, 0, 0.0, 0.0, 0.0, 0.0, 0.0
1, 2, 0, 4, 0, 0, 1, 0.0, 0.0, 0.0, 0.0, 0.0
1, 2, 0, 4, 0, 1, 0, 0.9506596117908223, 0.0, 0.0, 0.0, 0.0
1, 2, 0, 4, 0, 1, 1, 0.0, 0.0, 0.0, 0.0, 0.0
1, 2, 0, 4, 1, 0, 0, 0.0, 0.0, 0.0, 0.0, 0.0
1, 2, 0, 4, 1, 0, 1, 0.0, 0.0, 0.0, 0.0, 0.0
1, 2, 0, 4, 1, 1, 0, 0.0, 0.0, 0.0, 0.0, 0.0
1, 2, 0, 4, 1, 1, 1, 0.0, 0.0, 0.0, 0.0, 0.0
1, 2, 0, 4, 2, 0, 0, 0.0, 0.0, 0.0, 0.0, 0.0
1, 2, 0, 4, 2, 0, 1, 0.0, 0.0, 0.0, 0.0, 0.0
1, 2, 0, 4, 2, 1, 0, 0.0, 0.0, 0.0, 0.0, 0.0
1, 2, 0, 4, 2, 1, 1, 0.0, 0.0, 0.0, 0.0, 0.0
1, 2, 1, 0, 0, 0, 0, 0.0, 0.0, 0.0, 0.0, 0.0
1, 2, 1, 0, 0, 0, 1, 0.0, 0.0, 0.0, 0.0, 0.0
1, 2, 1, 0, 0, 1, 0, 0.0, 0.0, 0.0, 0.0, 0.0
1, 2, 1, 0, 0, 1, 1, 0.0, 0.0, 0.0, 0.0, 0.0
1, 2, 1, 0, 1, 0, 0, 0.0, 0.0, 0.0, 0.0, 0.0
1, 2, 1, 0, 1, 0, 1, 0.0, 0.0, 0.0, 0.0, 0.0
1, 2, 1, 0, 1, 1, 0, 0.0, 0.0, 0.0, 0.0, 0.0
1, 2, 1, 0, 1, 1, 1, 0.0, 0.0, 0.0, 0.0, 0.0
1, 2, 1, 0, 2, 0, 0, 0.0, 0.0, 0.0, 0.0, 0.0
1, 2, 1, 0, 2, 0, 1, 0.0, 0.0, 0.0, 0.0, 0.0
1, 2, 1, 0, 2, 1, 0, 0.0, 0.0, 0.0, 0.0, 0.0
1, 2, 1, 0, 2, 1, 1, 0.0, 0.0, 0.0, 0.0, 0.0
1, 2, 1, 1, 0, 0, 0, 0.0, 0.0, 0.0, 0.0, 0.0
1, 2, 1, 1, 0, 0, 1, 0.0, 0.0, 0.0, 0.0, 0.0
1, 2, 1, 1, 0, 1, 0, 0.0, 0.0, 0.0, 0.0, 0.0
1, 2, 1, 1, 0, 1, 1, 0.0, 0.0, 0.0, 0.0, 0.0
1, 2, 1, 1, 1, 0, 0, 0.0, 0.0, 0.0, 0.0, 0.0
1, 2, 1, 1, 1, 0, 1, 0.0, 0.0, 0.0, 0.0, 0.0
1, 2, 1, 1, 1, 1, 0, 0.0, 0.0, 0.0, 0.0, 0.0
1, 2, 1, 1, 1, 1, 1, 0.0, 0.0, 0.0, 0.0, 0.0
1, 2, 1, 1, 2, 0, 0, 0.0, 0.0, 0.0, 0.0, 0.0
1, 2, 1, 1, 2, 0, 1, 0.0, 0.0, 0.0, 0.0, 0.0
1, 2, 1, 1, 2, 1, 0, 0.0, 0.0, 0.0, 0.0, 0.0
1, 2, 1, 1, 2, 1, 1, 0.0, 0.0, 0.0, 0.0, 0.0
1, 2, 1, 2, 0, 0, 0, 0.0, 0.0, 0.0, 0.0, 0.0
1, 2, 1, 2, 0, 0, 1, 0.0, 0.0, 0.0, 0.0, 0.0
1, 2, 1, 2, 0, 1, 0, 0.0, 0.0, 0.0, 0.0, 0.0
1, 2, 1, 2, 0, 1, 1, 0.0, 0.0, 0.0, 0.0, 0.0
1, 2, 1, 2, 1, 0, 0, 0.0, 0.0, 0.0, 0.0, 0.0
1, 2, 1, 2, 1, 0, 1, 0.0, 0.0, 0.0, 0.0, 0.0
1, 2, 1, 2, 1, 1, 0, 0.0, 0.0, 0.0, 0.0, 0.0
1, 2, 1, 2, 1, 1, 1, 0.0, 0.0, 0.0, 0.0, 0.0
1, 2, 1, 2, 2, 0, 0, 0.0, 0.0, 0.0, 0.0, 0.0
1, 2, 1, 2, 2, 0, 1, 0.0, 0.0, 0.0, 0.0, 0.0
1, 2, 1, 2, 2, 1, 0, 0.0, 0.0, 0.0, 0.0, 0.0
1, 2, 1, 2, 2, 1, 1, 0.0, 0.0, 0.0, 0.0, 0.0
1, 2, 1, 3, 0, 0, 0, 0.0, 0.0, 0.0, 0.0, 0.0
1, 2, 1, 3, 0, 0, 1, 0.0, 0.0, 0.0, 0.0, 0.0
1, 2, 1, 3, 0, 1, 0, 0.0, 0.0, 0.0, 0.0, 0.0
1, 2, 1, 3, 0, 1, 1, 0.0, 0.0, 0.0, 0.0, 0.0
1, 2, 1, 3, 1, 0, 0, 0.0, 0.0, 0.0, 0.0, 0.0
1, 2, 1, 3, 1, 0, 1, 0.0, 0.0, 0.0, 0.0, 0.0
1, 2, 1, 3, 1, 1, 0, 0.0, 0.0, 0.0, 0.0, 0.0
1, 2, 1, 3, 1, 1, 1, 0.0, 0.0, 0.0, 0.0, 0.0
1, 2, 1, 3, 2, 0, 0, 0.0, 0.0, 0.0, 0.0, 0.0
1, 2, 1, 3, 2, 0, 1, 0.0, 0.0, 0.0, 0.0, 0.0
1, 2, 1, 3, 2, 1, 0, 0.0, 0.0, 0.0, 0.0, 0.0
1, 2, 1, 3, 2, 1, 1, 0.0, 0.0, 0.0, 0.0, 0.0
1, 2, 1, 4, 0, 0, 0, 0.0, 0.0, 0.0, 0.0, 0.0
1, 2, 1, 4, 0, 0, 1, 0.0, 0.0, 0.0, 0.0, 0.0
1, 2, 1, 4, 0, 1, 0, 0.0, 0.0, 0.0, 0.0, 0.0
1, 2, 1, 4, 0, 1, 1, 0.0, 0.0, 0.0, 0.0, 0.0
1, 2, 1, 4, 1, 0, 0, 0.0, 0.0, 0.0, 0.0, 0.0
1, 2, 1, 4, 1, 0, 1, 0.0, 0.0, 0.0, 0.0, 0.0
1, 2, 1, 4, 1, 1, 0, 0.0, 0.0, 0.0, 0.0, 0.0
1, 2, 1, 4, 1, 1, 1, 0.0, 0.0, 0.0, 0.0, 0.0
1, 2, 1, 4, 2, 0, 0, 0.0, 0.0, 0.0, 0.0, 0.0
1, 2, 1, 4, 2, 0, 1, 0.0, 0.0, 0.0, 0.0, 0.0
1, 2, 1, 4, 2, 1, 0, 0.0, 0.0, 0.0, 0.0, 0.0
1, 2, 1, 4, 2, 1, 1, 0.0, 0.0, 0.0, 0.0, 0.0
2, 0, 0, 0, 0, 0, 0, -0.37197338828800003, 0.5165642893517981, -0.4, -0.4, -0.4
2, 0, 0, 0, 0, 0, 1, -0.4, 1.5673323926060525, 0.0, 0.0, 0.0
2, 0, 0, 0, 0, 1, 0, 0.0, 0.0, 0.0, 0.0, 0.0
2, 0, 0, 0, 0, 1, 1, 0.0, 0.0, 0.0, 0.0, 0.0
2, 0, 0, 0, 1, 0, 0, 0.0, 0.0, 0.0, 0.0, 0.0
2, 0, 0, 0, 1, 0, 1, -0.4, -0.23259677746741572, 7.007306448592317, 0.0, 0.0
2, 0, 0, 0, 1, 1, 0, 0.0, 0.0, 0.0, 0.0, 0.0
2, 0, 0, 0, 1, 1, 1, 0.0, 0.0, 0.0, 0.0, 0.0
2, 0, 0, 0, 2, 0, 0, -0.792, 0.7437395353411712, -0.792, -0.792, -0.792
2, 0, 0, 0, 2, 0, 1, 5.789704402406015, 0.0, 0.0, 0.0, 0.0
2, 0, 0, 0, 2, 1, 0, 0.0, 0.0, 0.0, 0.0, 0.0
2, 0, 0, 0, 2, 1, 1, 0.0, 0.0, 0.0, 0.0, 0.0
2, 0, 0, 1, 0, 0, 0, -0.4, 3.144174685972173, -0.4, -0.4, -0.4
2, 0, 0, 1, 0, 0, 1, -0.792, 3.9513507840336093, -0.792, -0.792, -0.792
2, 0, 0, 1, 0, 1, 0, 0.0, 0.0, 0.0, 0.0, 0.0
2, 0, 0, 1, 0, 1, 1, 0.0, 0.0, 0.0, 0.0, 0.0
2, 0, 0, 1, 1, 0, 0, -0.027260820645139402, 3.5882573273365597, 0.0, 0.0, 0.0
2, 0, 0, 1, 1, 0, 1, -0.4, -0.23259677746741572, 8.637363711357917, 0.0, 0.0
2, 0, 0, 1, 1, 1, 0, 0.0, 0.0, 0.0, 0.0, 0.0
2, 0, 0, 1, 1, 1, 1, 0.0, 0.0, 0.0, 0.0, 0.0
2, 0, 0, 1, 2, 0, 0, -0.4, 3.3747422877008924, -0.4, -0.4, -0.4
2, 0, 0, 1, 2, 0, 1, 6.603874284061428, 0.0, 0.0, 0.0, 0.0
2, 0, 0, 1, 2, 1, 0, 0.0, 0.0, 0.0, 0.0, 0.0
2, 0, 0, 1, 2, 1, 1, 0.0, 0.0, 0.0, 0.0, 0.0
2, 0, 0, 2, 0, 0, 0, -0.4, 3.582863167694595, 0.0, 0.0, 0.0
2, 0, 0, 2, 0, 0, 1, -0.792, 3.0396042096625893, -0.792, -0.792, -0.792
2, 0, 0, 2, 0, 1, 0, 0.0, 0.0, 0.0, 0.0, 0.0
2, 0, 0, 2, 0, 1, 1, 0.0, 0.0, 0.0, 0.0, 0.0
2, 0, 0, 2, 1, 0, 0, -0.04407116987135354, 3.047425092261901, 0.0, 0.0, 0.0
2, 0, 0, 2, 1, 0, 1, -0.4, -0.4, 7.316916194972068, 0.0, 0.0
2, 0, 0, 2, 1, 1, 0, 0.0, 0.0, 0.0, 0.0, 0.0
2, 0, 0, 2, 1, 1, 1, 0.0, 0.0, 0.0, 0.0, 0.0
2, 0, 0, 2, 2, 0, 0, -0.7051179380244481, 4.660159225196313, -0.792, -0.792, -0.792
2, 0, 0, 2, 2, 0, 1, 4.560562113412702, -0.7753556689887892, -0.8833482151044972, -0.792, -0.792
2, 0, 0, 2, 2, 1, 0, 0.0, 0.0, 0.0, 0.0, 0.0
2, 0, 0, 2, 2, 1, 1, 0.0, 0.0, 0.0, 0.0, 0.0
2, 0, 0, 3, 0, 0, 0, -0.792, 2.638231473495557, -0.792, -0.792, -0.792
2, 0, 0, 3, 0, 0, 1, -0.4, 3.314685567115089, -0.4, -0.4, -0.4
2, 0, 0, 3, 0, 1, 0, -0.472, 2.6080163757423866, 0.0, 0.0, 0.0
2, 0, 0, 3, 0, 1, 1, -0.1600673927233931, 4.826534902835837, 0.0, 0.0, 0.0
2, 0, 0, 3, 1, 0, 0, -0.008156166191760267, 1.103190231678055, 0.0, 0.0, 0.0
2, 0, 0, 3, 1, 0, 1, -0.4, -0.44320000000000004, 5.610390597979149, 0.0, 0.0
2, 0, 0, 3, 1, 1, 0, -0.4, 5.906977676294254, 0.0, 0.0, 0.0
2, 0, 0, 3, 1, 1, 1, -0.4, 6.046116146791507, 0.0, 0.0, 0.0
2, 0, 0, 3, 2, 0, 0, -0.6681600000000001, 5.903293263706276, -0.7200000000000001, -0.792, -0.792
2, 0, 0, 3, 2, 0, 1, 4.417936019545777, -0.6317778650308796, -0.792, -0.9542261616347164, -0.792
2, 0, 0, 3, 2, 1, 0, -0.36400000000000005, 5.452829717170938, 0.0, 0.0, 0.0
2, 0, 0, 3, 2, 1, 1, -0.37696, 5.778127080752695, 0.0, 0.0, 0.0
2, 0, 0, 4, 0, 0, 0, 0.0, 0.0, 0.0, 0.0, 0.0
2, 0, 0, 4, 0, 0, 1, 0.0, 0.0, 0.0, 0.0, 0.0
2, 0, 0, 4, 0, 1, 0, 0.0, 0.0, 0.0, 0.0, 0.0
2, 0, 0, 4, 0, 1, 1, 0.0, 0.0, 0.0, 0.0, 0.0
2, 0, 0, 4, 1, 0, 0, 0.0, 0.0, 0.0, 0.0, 0.0
2, 0, 0, 4, 1, 0, 1, 0.0, 0.0, 0.0, 0.0, 0.0
2, 0, 0, 4, 1, 1, 0, 0.0, 0.0, 0.0, 0.0, 0.0
2, 0, 0, 4, 1, 1, 1, 0.0, 0.0, 0.0, 0.0, 0.0
2, 0, 0, 4, 2, 0, 0, 0.0, 0.0, 0.0, 0.0, 0.0
2, 0, 0, 4, 2, 0, 1, 0.0, 0.0, 0.0, 0.0, 0.0
2, 0, 0, 4, 2, 1, 0, -0.4, 0.8406502887932679, 0.0, 0.0, 0.0
2, 0, 0, 4, 2, 1, 1, 0.0, 0.0, 0.0, 0.0, 0.0
2, 0, 1, 0, 0, 0, 0, 0.0, 0.0, 0.0, 0.0, 0.0
2, 0, 1, 0, 0, 0, 1, 0.0, 0.0, 0.0, 0.0, 0.0
2, 0, 1, 0, 0, 1, 0, 0.0, 0.0, 0.0, 0.0, 0.0
2, 0, 1, 0, 0, 1, 1, 0.0, 0.0, 0.0, 0.0, 0.0
2, 0, 1, 0, 1, 0, 0, 0.0, 0.0, 0.0, 0.0, 0.0
2, 0, 1, 0, 1, 0, 1, 0.0, 0.0, 0.0, 0.0, 0.0
2, 0, 1, 0, 1, 1, 0, 0.0, 0.0, 0.0, 0.0, 0.0
2, 0, 1, 0, 1, 1, 1, 0.0, 0.0, 0.0, 0.0, 0.0
2, 0, 1, 0, 2, 0, 0, 0.0, 0.0, 0.0, 0.0, 0.0
2, 0, 1, 0, 2, 0, 1, 0.0, 0.0, 0.0, 0.0, 0.0
2, 0, 1, 0, 2, 1, 0, 0.0, 0.0, 0.0, 0.0, 0.0
2, 0, 1, 0, 2, 1, 1, 0.0, 0.0, 0.0, 0.0, 0.0
2, 0, 1, 1, 0, 0, 0, 0.0, 0.0, 0.0, 0.0, 0.0
2, 0, 1, 1, 0, 0, 1, 0.0, 0.0, 0.0, 0.0, 0.0
2, 0, 1, 1, 0, 1, 0, 0.0, 0.0, 0.0, 0.0, 0.0
2, 0, 1, 1, 0, 1, 1, 0.0, 0.0, 0.0, 0.0, 0.0
2, 0, 1, 1, 1, 0, 0, 0.0, 0.0, 0.0, 0.0, 0.0
2, 0, 1, 1, 1, 0, 1, 0.0, 0.0, 0.0, 0.0, 0.0
2, 0, 1, 1, 1, 1, 0, 0.0, 0.0, 0.0, 0.0, 0.0
2, 0, 1, 1, 1, 1, 1, 0.0, 0.0, 0.0, 0.0, 0.0
2, 0, 1, 1, 2, 0, 0, 0.0, 0.0, 0.0, 0.0, 0.0
2, 0, 1, 1, 2, 0, 1, 0.0, 0.0, 0.0, 0.0, 0.0
2, 0, 1, 1, 2, 1, 0, 0.0, 0.0, 0.0, 0.0, 0.0
2, 0, 1, 1, 2, 1, 1, 0.0, 0.0, 0.0, 0.0, 0.0
2, 0, 1, 2, 0, 0, 0, 0.0, 0.0, 0.0, 0.0, 0.0
2, 0, 1, 2, 0, 0, 1, 0.0, 0.0, 0.0, 0.0, 0.0
2, 0, 1, 2, 0, 1, 0, 0.0, 0.0, 0.0, 0.0, 0.0
2, 0, 1, 2, 0, 1, 1, 0.0, 0.0, 0.0, 0.0, 0.0
2, 0, 1, 2, 1, 0, 0, 0.0, 0.0, 0.0, 0.0, 0.0
2, 0, 1, 2, 1, 0, 1, 0.0, 0.0, 0.0, 0.0, 0.0
2, 0, 1, 2, 1, 1, 0, 0.0, 0.0, 0.0, 0.0, 0.0
2, 0, 1, 2, 1, 1, 1, 0.0, 0.0, 0.0, 0.0, 0.0
2, 0, 1, 2, 2, 0, 0, 0.0, 0.0, 0.0, 0.0, 0.0
2, 0, 1, 2, 2, 0, 1, 0.0, 0.0, 0.0, 0.0, 0.0
2, 0, 1, 2, 2, 1, 0, 0.0, 0.0, 0.0, 0.0, 0.0
2, 0, 1, 2, 2, 1, 1, 0.0, 0.0, 0.0, 0.0, 0.0
2, 0, 1, 3, 0, 0, 0, 0.0, 0.0, 0.0, 0.0, 0.0
2, 0, 1, 3, 0, 0, 1, 0.0, 0.0, 0.0, 0.0, 0.0
2, 0, 1, 3, 0, 1, 0, 0.0, 0.0, 0.0, 0.0, 0.0
2, 0, 1, 3, 0, 1, 1, 0.0, 0.0, 0.0, 0.0, 0.0
2, 0, 1, 3, 1, 0, 0, 0.0, 0.0, 0.0, 0.0, 0.0
2, 0, 1, 3, 1, 0, 1, 0.0, 0.0, 0.0, 0.0, 0.0
2, 0, 1, 3, 1, 1, 0, 0.0, 0.0, 0.0, 0.0, 0.0
2, 0, 1, 3, 1, 1, 1, 0.0, 0.0, 0.0, 0.0, 0.0
2, 0, 1, 3, 2, 0, 0, 0.0, 0.0, 0.0, 0.0, 0.0
2, 0, 1, 3, 2, 0, 1, 0.0, 0.0, 0.0, 0.0, 0.0
2, 0, 1, 3, 2, 1, 0, 0.0, 0.0, 0.0, 0.0, 0.0
2, 0, 1, 3, 2, 1, 1, 0.0, 0.0, 0.0, 0.0, 0.0
2, 0, 1, 4, 0, 0, 0, 0.0, 0.0, 0.0, 0.0, 0.0
2, 0, 1, 4, 0, 0, 1, 0.0, 0.0, 0.0, 0.0, 0.0
2, 0, 1, 4, 0, 1, 0, 0.0, 0.0, 0.0, 0.0, 0.0
2, 0, 1, 4, 0, 1, 1, 0.0, 0.0, 0.0, 0.0, 0.0
2, 0, 1, 4, 1, 0, 0, 0.0, 0.0, 0.0, 0.0, 0.0
2, 0, 1, 4, 1, 0, 1, 0.0, 0.0, 0.0, 0.0, 0.0
2, 0, 1, 4, 1, 1, 0, 0.0, 0.0, 0.0, 0.0, 0.0
2, 0, 1, 4, 1, 1, 1, 0.0, 0.0, 0.0, 0.0, 0.0
2, 0, 1, 4, 2, 0, 0, 0.0, 0.0, 0.0, 0.0, 0.0
2, 0, 1, 4, 2, 0, 1, 0.0, 0.0, 0.0, 0.0, 0.0
2, 0, 1, 4, 2, 1, 0, 0.0, 0.0, 0.0, 0.0, 0.0
2, 0, 1, 4, 2, 1, 1, 0.0, 0.0, 0.0, 0.0, 0.0
2, 1, 0, 0, 0, 0, 0, -0.4, -0.4, 4.638234967606973, 0.0, 0.0
2, 1, 0, 0, 0, 0, 1, -0.3019671583282376, 3.064761146939335, 0.0, 0.0, 0.0
2, 1, 0, 0, 0, 1, 0, 0.0, 0.0, 0.0, 0.0, 0.0
2, 1, 0, 0, 0, 1, 1, 0.0, 0.0, 0.0, 0.0, 0.0
2, 1, 0, 0, 1, 0, 0, -0.4, 0.0, 0.0, 0.0, 0.0
2, 1, 0, 0, 1, 0, 1, 0.0, 0.0, 0.0, 0.0, 0.0
2, 1, 0, 0, 1, 1, 0, 0.0, 0.0, 0.0, 0.0, 0.0
2, 1, 0, 0, 1, 1, 1, 0.0, 0.0, 0.0, 0.0, 0.0
2, 1, 0, 0, 2, 0, 0, -0.472, -0.4, 4.062039031823745, 0.0, 0.0
2, 1, 0, 0, 2, 0, 1, 2.705296399089333, 0.0, 0.0, 0.0, 0.0
2, 1, 0, 0, 2, 1, 0, 0.0, 0.0, 0.0, 0.0, 0.0
2, 1, 0, 0, 2, 1, 1, 0.0, 0.0, 0.0, 0.0, 0.0
2, 1, 0, 1, 0, 0, 0, -0.4, -0.4, 5.2924173142239335, 0.0, 0.0
2, 1, 0, 1, 0, 0, 1, -0.2217508175929892, 5.549830132167985, 0.0, 0.0, 0.0
2, 1, 0, 1, 0, 1, 0, 0.0, 0.0, 0.0, 0.0, 0.0
2, 1, 0, 1, 0, 1, 1, 0.0, 0.0, 0.0, 0.0, 0.0
2, 1, 0, 1, 1, 0, 0, 0.0, 0.0, 0.0, 0.0, 0.0
2, 1, 0, 1, 1, 0, 1, -0.12010234788955196, -0.04558245679140699, 7.416865193311665, 0.0, 0.0
2, 1, 0, 1, 1, 1, 0, 0.0, 0.0, 0.0, 0.0, 0.0
2, 1, 0, 1, 1, 1, 1, 0.0, 0.0, 0.0, 0.0, 0.0
2, 1, 0, 1, 2, 0, 0, -0.4, -0.4, 5.857041621107222, 0.0, 0.0
2, 1, 0, 1, 2, 0, 1, 5.969070474600491, 0.0, 0.0, 0.0, 0.0
2, 1, 0, 1, 2, 1, 0, 0.0, 0.0, 0.0, 0.0, 0.0
2, 1, 0, 1, 2, 1, 1, 0.0, 0.0, 0.0, 0.0, 0.0
2, 1, 0, 2, 0, 0, 0, -0.44816742400000004, -0.4, 6.121608426786952, 0.0, 0.0
2, 1, 0, 2, 0, 0, 1, -0.28176943943989724, 3.988864802169542, 0.0, 0.0, 0.0
2, 1, 0, 2, 0, 1, 0, 0.0, 0.0, 0.0, 0.0, 0.0
2, 1, 0, 2, 0, 1, 1, 0.0, 0.0, 0.0, 0.0, 0.0
2, 1, 0, 2, 1, 0, 0, 0.0, 0.0, 0.0, 0.0, 0.0
2, 1, 0, 2, 1, 0, 1, 0.0, 0.0, 0.0, 0.0, 0.0
2, 1, 0, 2, 1, 1, 0, 0.0, 0.0, 0.0, 0.0, 0.0
2, 1, 0, 2, 1, 1, 1, 0.0, 0.0, 0.0, 0.0, 0.0
2, 1, 0, 2, 2, 0, 0, -0.4, -0.4, 5.976772288090331, -0.4, -0.4
2, 1, 0, 2, 2, 0, 1, 3.994046701451526, 0.0, 0.0, 0.0, 0.0
2, 1, 0, 2, 2, 1, 0, 0.0, 0.0, 0.0, 0.0, 0.0
2, 1, 0, 2, 2, 1, 1, 0.0, 0.0, 0.0, 0.0, 0.0
2, 1, 0, 3, 0, 0, 0, -0.36597807270011323, -0.4, 6.7009668801314515, 0.0, 0.0
2, 1, 0, 3, 0, 0, 1, -0.4, 3.0312243312809026, 0.0, 0.0, 0.0
2, 1, 0, 3, 0, 1, 0, -0.4, -0.36400000000000005, 7.194347216984182, 0.0, 0.0
2, 1, 0, 3, 0, 1, 1, 0.0, 0.0, 0.0, 0.0, 0.0
2, 1, 0, 3, 1, 0, 0, 0.0, 0.0, 0.0, 0.0, 0.0
2, 1, 0, 3, 1, 0, 1, 0.0, 0.0, 0.0, 0.0, 0.0
2, 1, 0, 3, 1, 1, 0, 0.0, 0.0, 0.0, 0.0, 0.0
2, 1, 0, 3, 1, 1, 1, 0.0, 0.0, 0.0, 0.0, 0.0
2, 1, 0, 3, 2, 0, 0, -0.4, -0.4, 6.669399162031201, 0.0, 0.0
2, 1, 0, 3, 2, 0, 1, 0.36568207750795884, 0.0, 0.0, 0.0, 0.0
2, 1, 0, 3, 2, 1, 0, -0.059746130278561176, -0.33178831663123226, 6.57331185006067, 0.0, 0.0
2, 1, 0, 3, 2, 1, 1, 0.0, 0.0, 0.0, 0.0, 0.0
2, 1, 0, 4, 0, 0, 0, -0.11099360694837263, -0.21438842050798948, 0.0, 0.0, 0.0
2, 1, 0, 4, 0, 0, 1, 0.0, 0.0, 0.0, 0.0, 0.0
2, 1, 0, 4, 0, 1, 0, -0.1720539141787145, -0.4, 2.7192971355940294, 0.0, 0.0
2, 1, 0, 4, 0, 1, 1, 0.0, 0.0, 0.0, 0.0, 0.0
2, 1, 0, 4, 1, 0, 0, 0.0, 0.0, 0.0, 0.0, 0.0
2, 1, 0, 4, 1, 0, 1, 0.0, 0.0, 0.0, 0.0, 0.0
2, 1, 0, 4, 1, 1, 0, 0.0, 0.0, 0.0, 0.0, 0.0
2, 1, 0, 4, 1, 1, 1, 0.0, 0.0, 0.0, 0.0, 0.0
2, 1, 0, 4, 2, 0, 0, 0.0, 0.0, 0.0, 0.0, 0.0
2, 1, 0, 4, 2, 0, 1, 0.0, 0.0, 0.0, 0.0, 0.0
2, 1, 0, 4, 2, 1, 0, -0.4, -0.11322489086455884, 3.979795354716612, 0.0, 0.0
2, 1, 0, 4, 2, 1, 1, 0.0, 0.0, 0.0, 0.0, 0.0
2, 1, 1, 0, 0, 0, 0, 0.0, 0.0, 0.0, 0.0, 0.0
2, 1, 1, 0, 0, 0, 1, 0.0, 0.0, 0.0, 0.0, 0.0
2, 1, 1, 0, 0, 1, 0, 0.0, 0.0, 0.0, 0.0, 0.0
2, 1, 1, 0, 0, 1, 1, 0.0, 0.0, 0.0, 0.0, 0.0
2, 1, 1, 0, 1, 0, 0, 0.0, 0.0, 0.0, 0.0, 0.0
2, 1, 1, 0, 1, 0, 1, 0.0, 0.0, 0.0, 0.0, 0.0
2, 1, 1, 0, 1, 1, 0, 0.0, 0.0, 0.0, 0.0, 0.0
2, 1, 1, 0, 1, 1, 1, 0.0, 0.0, 0.0, 0.0, 0.0
2, 1, 1, 0, 2, 0, 0, 0.0, 0.0, 0.0, 0.0, 0.0
2, 1, 1, 0, 2, 0, 1, 0.0, 0.0, 0.0, 0.0, 0.0
2, 1, 1, 0, 2, 1, 0, 0.0, 0.0, 0.0, 0.0, 0.0
2, 1, 1, 0, 2, 1, 1, 0.0, 0.0, 0.0, 0.0, 0.0
2, 1, 1, 1, 0, 0, 0, 0.0, 0.0, 0.0, 0.0, 0.0
2, 1, 1, 1, 0, 0, 1, 0.0, 0.0, 0.0, 0.0, 0.0
2, 1, 1, 1, 0, 1, 0, 0.0, 0.0, 0.0, 0.0, 0.0
2, 1, 1, 1, 0, 1, 1, 0.0, 0.0, 0.0, 0.0, 0.0
2, 1, 1, 1, 1, 0, 0, 0.0, 0.0, 0.0, 0.0, 0.0
2, 1, 1, 1, 1, 0, 1, 0.0, 0.0, 0.0, 0.0, 0.0
2, 1, 1, 1, 1, 1, 0, 0.0, 0.0, 0.0, 0.0, 0.0
2, 1, 1, 1, 1, 1, 1, 0.0, 0.0, 0.0, 0.0, 0.0
2, 1, 1, 1, 2, 0, 0, 0.0, 0.0, 0.0, 0.0, 0.0
2, 1, 1, 1, 2, 0, 1, 0.0, 0.0, 0.0, 0.0, 0.0
2, 1, 1, 1, 2, 1, 0, 0.0, 0.0, 0.0, 0.0, 0.0
2, 1, 1, 1, 2, 1, 1, 0.0, 0.0, 0.0, 0.0, 0.0
2, 1, 1, 2, 0, 0, 0, 0.0, 0.0, 0.0, 0.0, 0.0
2, 1, 1, 2, 0, 0, 1, 0.0, 0.0, 0.0, 0.0, 0.0
2, 1, 1, 2, 0, 1, 0, 0.0, 0.0, 0.0, 0.0, 0.0
2, 1, 1, 2, 0, 1, 1, 0.0, 0.0, 0.0, 0.0, 0.0
2, 1, 1, 2, 1, 0, 0, 0.0, 0.0, 0.0, 0.0, 0.0
2, 1, 1, 2, 1, 0, 1, 0.0, 0.0, 0.0, 0.0, 0.0
2, 1, 1, 2, 1, 1, 0, 0.0, 0.0, 0.0, 0.0, 0.0
2, 1, 1, 2, 1, 1, 1, 0.0, 0.0, 0.0, 0.0, 0.0
2, 1, 1, 2, 2, 0, 0, 0.0, 0.0, 0.0, 0.0, 0.0
2, 1, 1, 2, 2, 0, 1, 0.0, 0.0, 0.0, 0.0, 0.0
2, 1, 1, 2, 2, 1, 0, 0.0, 0.0, 0.0, 0.0, 0.0
2, 1, 1, 2, 2, 1, 1, 0.0, 0.0, 0.0, 0.0, 0.0
2, 1, 1, 3, 0, 0, 0, 0.0, 0.0, 0.0, 0.0, 0.0
2, 1, 1, 3, 0, 0, 1, 0.0, 0.0, 0.0, 0.0, 0.0
2, 1, 1, 3, 0, 1, 0, 0.0, 0.0, 0.0, 0.0, 0.0
2, 1, 1, 3, 0, 1, 1, 0.0, 0.0, 0.0, 0.0, 0.0
2, 1, 1, 3, 1, 0, 0, 0.0, 0.0, 0.0, 0.0, 0.0
2, 1, 1, 3, 1, 0, 1, 0.0, 0.0, 0.0, 0.0, 0.0
2, 1, 1, 3, 1, 1, 0, 0.0, 0.0, 0.0, 0.0, 0.0
2, 1, 1, 3, 1, 1, 1, 0.0, 0.0, 0.0, 0.0, 0.0
2, 1, 1, 3, 2, 0, 0, 0.0, 0.0, 0.0, 0.0, 0.0
2, 1, 1, 3, 2, 0, 1, 0.0, 0.0, 0.0, 0.0, 0.0
2, 1, 1, 3, 2, 1, 0, 0.0, 0.0, 0.0, 0.0, 0.0
2, 1, 1, 3, 2, 1, 1, 0.0, 0.0, 0.0, 0.0, 0.0
2, 1, 1, 4, 0, 0, 0, 0.0, 0.0, 0.0, 0.0, 0.0
2, 1, 1, 4, 0, 0, 1, 0.0, 0.0, 0.0, 0.0, 0.0
2, 1, 1, 4, 0, 1, 0, 0.0, 0.0, 0.0, 0.0, 0.0
2, 1, 1, 4, 0, 1, 1, 0.0, 0.0, 0.0, 0.0, 0.0
2, 1, 1, 4, 1, 0, 0, 0.0, 0.0, 0.0, 0.0, 0.0
2, 1, 1, 4, 1, 0, 1, 0.0, 0.0, 0.0, 0.0, 0.0
2, 1, 1, 4, 1, 1, 0, 0.0, 0.0, 0.0, 0.0, 0.0
2, 1, 1, 4, 1, 1, 1, 0.0, 0.0, 0.0, 0.0, 0.0
2, 1, 1, 4, 2, 0, 0, 0.0, 0.0, 0.0, 0.0, 0.0
2, 1, 1, 4, 2, 0, 1, 0.0, 0.0, 0.0, 0.0, 0.0
2, 1, 1, 4, 2, 1, 0, 0.0, 0.0, 0.0, 0.0, 0.0
2, 1, 1, 4, 2, 1, 1, 0.0, 0.0, 0.0, 0.0, 0.0
2, 2, 0, 0, 0, 0, 0, 2.007508564518645, -0.4, -0.54256, -0.4, -0.4
2, 2, 0, 0, 0, 0, 1, -0.36400000000000005, 5.790078452971739, 0.0, 0.0, 0.0
2, 2, 0, 0, 0, 1, 0, 0.0, 0.0, 0.0, 0.0, 0.0
2, 2, 0, 0, 0, 1, 1, 0.0, 0.0, 0.0, 0.0, 0.0
2, 2, 0, 0, 1, 0, 0, 0.0, 0.0, 0.0, 0.0, 0.0
2, 2, 0, 0, 1, 0, 1, -0.01583963456040909, -0.4, 8.003500424784999, 0.0, 0.0
2, 2, 0, 0, 1, 1, 0, 0.0, 0.0, 0.0, 0.0, 0.0
2, 2, 0, 0, 1, 1, 1, 0.0, 0.0, 0.0, 0.0, 0.0
2, 2, 0, 0, 2, 0, 0, 1.7077530200807647, -1.1056000000000001, -0.792, -0.792, -0.792
2, 2, 0, 0, 2, 0, 1, 1.1009672813895741, -0.46153493930396733, -0.4, -0.4, -0.4
2, 2, 0, 0, 2, 1, 0, 0.0, 0.0, 0.0, 0.0, 0.0
2, 2, 0, 0, 2, 1, 1, 0.0, 0.0, 0.0, 0.0, 0.0
2, 2, 0, 1, 0, 0, 0, 3.691879239205956, -0.4, -0.4, -0.5989565465742707, -0.4
2, 2, 0, 1, 0, 0, 1, -0.4, 5.812717635740986, -0.4, -0.4, -0.4
2, 2, 0, 1, 0, 1, 0, 0.0, 0.0, 0.0, 0.0, 0.0
2, 2, 0, 1, 0, 1, 1, 0.0, 0.0, 0.0, 0.0, 0.0
2, 2, 0, 1, 1, 0, 0, 2.6550176071979674, 0.0, 0.0, 0.0, 0.0
2, 2, 0, 1, 1, 0, 1, -0.4, -0.4, 7.95594544051443, 0.0, 0.0
2, 2, 0, 1, 1, 1, 0, 0.0, 0.0, 0.0, 0.0, 0.0
2, 2, 0, 1, 1, 1, 1, 0.0, 0.0, 0.0, 0.0, 0.0
2, 2, 0, 1, 2, 0, 0, 2.866868028674948, -0.4, -0.4, -0.4, -0.4
2, 2, 0, 1, 2, 0, 1, 3.796709542681012, -0.792, -0.792, -0.792, -0.792
2, 2, 0, 1, 2, 1, 0, 0.0, 0.0, 0.0, 0.0, 0.0
2, 2, 0, 1, 2, 1, 1, 0.0, 0.0, 0.0, 0.0, 0.0
2, 2, 0, 2, 0, 0, 0, 3.882183787853169, -0.4518974791793804, -0.4, -0.4, -0.4
2, 2, 0, 2, 0, 0, 1, -0.8782992841805655, 3.610552955385958, -0.792, -0.792, -0.792
2, 2, 0, 2, 0, 1, 0, 0.0, 0.0, 0.0, 0.0, 0.0
2, 2, 0, 2, 0, 1, 1, 0.0, 0.0, 0.0, 0.0, 0.0
2, 2, 0, 2, 1, 0, 0, 3.8076180797820034, 0.0, 0.0, 0.0, 0.0
2, 2, 0, 2, 1, 0, 1, -0.4, -0.4, 5.110941327458759, 0.0, 0.0
2, 2, 0, 2, 1, 1, 0, 0.0, 0.0, 0.0, 0.0, 0.0
2, 2, 0, 2, 1, 1, 1, 0.0, 0.0, 0.0, 0.0, 0.0
2, 2, 0, 2, 2, 0, 0, 2.9100177360046304, -0.4595512593530228, -0.4, -0.4, -0.4
2, 2, 0, 2, 2, 0, 1, 2.485216016437954, -0.4, -0.4, -0.4, -0.4
2, 2, 0, 2, 2, 1, 0, 0.0, 0.0, 0.0, 0.0, 0.0
2, 2, 0, 2, 2, 1, 1, 0.0, 0.0, 0.0, 0.0, 0.0
2, 2, 0, 3, 0, 0, 0, 5.036668348742217, 0.0, 0.0, 0.0, 0.0
2, 2, 0, 3, 0, 0, 1, -0.792, 4.3621417056935705, -0.792, -0.792, -0.789687649479712
2, 2, 0, 3, 0, 1, 0, 5.611215561299435, -0.4, -0.4, -0.4, -0.4
2, 2, 0, 3, 0, 1, 1, 5.178000276173987, 0.0, 0.0, 0.0, 0.0
2, 2, 0, 3, 1, 0, 0, 2.076854806385847, 0.0, 0.0, 0.0, 0.0
2, 2, 0, 3, 1, 0, 1, -0.4, -0.4, 5.73915263651951, -0.27792046091637557, -0.25106643482649654
2, 2, 0, 3, 1, 1, 0, 5.524603749608485, 0.0, 0.0, 0.0, 0.0
2, 2, 0, 3, 1, 1, 1, 5.416840503892541, 0.0, 0.0, 0.0, 0.0
2, 2, 0, 3, 2, 0, 0, 3.662796737230603, -0.4, -0.4, -0.4, -0.4
2, 2, 0, 3, 2, 0, 1, 2.7631230633957378, -0.4, -0.4, -0.42958238245851255, -0.38766590596681
2, 2, 0, 3, 2, 1, 0, 0.9487260842442468, -0.35470209928071605, -0.59140396014768, -0.6640319267342818, -0.4
2, 2, 0, 3, 2, 1, 1, 4.876188639299464, 0.0, 0.0, 0.0, 0.0
2, 2, 0, 4, 0, 0, 0, 0.0, 0.0, 0.0, 0.0, 0.0
2, 2, 0, 4, 0, 0, 1, 0.0, 0.0, 0.0, 0.0, 0.0
2, 2, 0, 4, 0, 1, 0, 1.8119964159380597, 0.0, 0.0, 0.0, 0.0
2, 2, 0, 4, 0, 1, 1, 0.0, 0.0, 0.0, 0.0, 0.0
2, 2, 0, 4, 1, 0, 0, 0.0, 0.0, 0.0, 0.0, 0.0
2, 2, 0, 4, 1, 0, 1, 0.0, 0.0, 0.0, 0.0, 0.0
2, 2, 0, 4, 1, 1, 0, 0.0, 0.0, 0.0, 0.0, 0.0
2, 2, 0, 4, 1, 1, 1, 0.0, 0.0, 0.0, 0.0, 0.0
2, 2, 0, 4, 2, 0, 0, 0.0, 0.0, 0.0, 0.0, 0.0
2, 2, 0, 4, 2, 0, 1, 0.0, 0.0, 0.0, 0.0, 0.0
2, 2, 0, 4, 2, 1, 0, 0.0, 0.0, 0.0, 0.0, 0.0
2, 2, 0, 4, 2, 1, 1, 0.0, 0.0, 0.0, 0.0, 0.0
2, 2, 1, 0, 0, 0, 0, 0.0, 0.0, 0.0, 0.0, 0.0
2, 2, 1, 0, 0, 0, 1, 0.0, 0.0, 0.0, 0.0, 0.0
2, 2, 1, 0, 0, 1, 0, 0.0, 0.0, 0.0, 0.0, 0.0
2, 2, 1, 0, 0, 1, 1, 0.0, 0.0, 0.0, 0.0, 0.0
2, 2, 1, 0, 1, 0, 0, 0.0, 0.0, 0.0, 0.0, 0.0
2, 2, 1, 0, 1, 0, 1, 0.0, 0.0, 0.0, 0.0, 0.0
2, 2, 1, 0, 1, 1, 0, 0.0, 0.0, 0.0, 0.0, 0.0
2, 2, 1, 0, 1, 1, 1, 0.0, 0.0, 0.0, 0.0, 0.0
2, 2, 1, 0, 2, 0, 0, 0.0, 0.0, 0.0, 0.0, 0.0
2, 2, 1, 0, 2, 0, 1, 0.0, 0.0, 0.0, 0.0, 0.0
2, 2, 1, 0, 2, 1, 0, 0.0, 0.0, 0.0, 0.0, 0.0
2, 2, 1, 0, 2, 1, 1, 0.0, 0.0, 0.0, 0.0, 0.0
2, 2, 1, 1, 0, 0, 0, 0.0, 0.0, 0.0, 0.0, 0.0
2, 2, 1, 1, 0, 0, 1, 0.0, 0.0, 0.0, 0.0, 0.0
2, 2, 1, 1, 0, 1, 0, 0.0, 0.0, 0.0, 0.0, 0.0
2, 2, 1, 1, 0, 1, 1, 0.0, 0.0, 0.0, 0.0, 0.0
2, 2, 1, 1, 1, 0, 0, 0.0, 0.0, 0.0, 0.0, 0.0
2, 2, 1, 1, 1, 0, 1, 0.0, 0.0, 0.0, 0.0, 0.0
2, 2, 1, 1, 1, 1, 0, 0.0, 0.0, 0.0, 0.0, 0.0
2, 2, 1, 1, 1, 1, 1, 0.0, 0.0, 0.0, 0.0, 0.0
2, 2, 1, 1, 2, 0, 0, 0.0, 0.0, 0.0, 0.0, 0.0
2, 2, 1, 1, 2, 0, 1, 0.0, 0.0, 0.0, 0.0, 0.0
2, 2, 1, 1, 2, 1, 0, 0.0, 0.0, 0.0, 0.0, 0.0
2, 2, 1, 1, 2, 1, 1, 0.0, 0.0, 0.0, 0.0, 0.0
2, 2, 1, 2, 0, 0, 0, 0.0, 0.0, 0.0, 0.0, 0.0
2, 2, 1, 2, 0, 0, 1, 0.0, 0.0, 0.0, 0.0, 0.0
2, 2, 1, 2, 0, 1, 0, 0.0, 0.0, 0.0, 0.0, 0.0
2, 2, 1, 2, 0, 1, 1, 0.0, 0.0, 0.0, 0.0, 0.0
2, 2, 1, 2, 1, 0, 0, 0.0, 0.0, 0.0, 0.0, 0.0
2, 2, 1, 2, 1, 0, 1, 0.0, 0.0, 0.0, 0.0, 0.0
2, 2, 1, 2, 1, 1, 0, 0.0, 0.0, 0.0, 0.0, 0.0
2, 2, 1, 2, 1, 1, 1, 0.0, 0.0, 0.0, 0.0, 0.0
2, 2, 1, 2, 2, 0, 0, 0.0, 0.0, 0.0, 0.0, 0.0
2, 2, 1, 2, 2, 0, 1, 0.0, 0.0, 0.0, 0.0, 0.0
2, 2, 1, 2, 2, 1, 0, 0.0, 0.0, 0.0, 0.0, 0.0
2, 2, 1, 2, 2, 1, 1, 0.0, 0.0, 0.0, 0.0, 0.0
2, 2, 1, 3, 0, 0, 0, 0.0, 0.0, 0.0, 0.0, 0.0
2, 2, 1, 3, 0, 0, 1, 0.0, 0.0, 0.0, 0.0, 0.0
2, 2, 1, 3, 0, 1, 0, 0.0, 0.0, 0.0, 0.0, 0.0
2, 2, 1, 3, 0, 1, 1, 0.0, 0.0, 0.0, 0.0, 0.0
2, 2, 1, 3, 1, 0, 0, 0.0, 0.0, 0.0, 0.0, 0.0
2, 2, 1, 3, 1, 0, 1, 0.0, 0.0, 0.0, 0.0, 0.0
2, 2, 1, 3, 1, 1, 0, 0.0, 0.0, 0.0, 0.0, 0.0
2, 2, 1, 3, 1, 1, 1, 0.0, 0.0, 0.0, 0.0, 0.0
2, 2, 1, 3, 2, 0, 0, 0.0, 0.0, 0.0, 0.0, 0.0
2, 2, 1, 3, 2, 0, 1, 0.0, 0.0, 0.0, 0.0, 0.0
2, 2, 1, 3, 2, 1, 0, 0.0, 0.0, 0.0, 0.0, 0.0
2, 2, 1, 3, 2, 1, 1, 0.0, 0.0, 0.0, 0.0, 0.0
2, 2, 1, 4, 0, 0, 0, 0.0, 0.0, 0.0, 0.0, 0.0
2, 2, 1, 4, 0, 0, 1, 0.0, 0.0, 0.0, 0.0, 0.0
2, 2, 1, 4, 0, 1, 0, 0.0, 0.0, 0.0, 0.0, 0.0
2, 2, 1, 4, 0, 1, 1, 0.0, 0.0, 0.0, 0.0, 0.0
2, 2, 1, 4, 1, 0, 0, 0.0, 0.0, 0.0, 0.0, 0.0
2, 2, 1, 4, 1, 0, 1, 0.0, 0.0, 0.0, 0.0, 0.0
2, 2, 1, 4, 1, 1, 0, 0.0, 0.0, 0.0, 0.0, 0.0
2, 2, 1, 4, 1, 1, 1, 0.0, 0.0, 0.0, 0.0, 0.0
2, 2, 1, 4, 2, 0, 0, 0.0, 0.0, 0.0, 0.0, 0.0
2, 2, 1, 4, 2, 0, 1, 0.0, 0.0, 0.0, 0.0, 0.0
2, 2, 1, 4, 2, 1, 0, 0.0, 0.0, 0.0, 0.0, 0.0
2, 2, 1, 4, 2, 1, 1, 0.0, 0.0, 0.0, 0.0, 0.0
3, 0, 0, 0, 0, 0, 0, -2.928485013809901, 0.0463338723942152, -2.984739548364289, -2.984739548364289, -2.984739548364289
3, 0, 0, 0, 0, 0, 1, -0.4, 3.5383492137330457, -0.4, -0.4, -0.4
3, 0, 0, 0, 0, 1, 0, 0.0, 0.0, 0.0, 0.0, 0.0
3, 0, 0, 0, 0, 1, 1, 0.0, 0.0, 0.0, 0.0, 0.0
3, 0, 0, 0, 1, 0, 0, -1.2681009968325916, -0.5805732679397396, -0.792, -0.792, -0.8332289718941848
3, 0, 0, 0, 1, 0, 1, -0.4, -0.30761302844416, 6.73948597376617, 0.0, 0.0
3, 0, 0, 0, 1, 1, 0, 0.0, 0.0, 0.0, 0.0, 0.0
3, 0, 0, 0, 1, 1, 1, 0.0, 0.0, 0.0, 0.0, 0.0
3, 0, 0, 0, 2, 0, 0, -2.6374893350656006, 0.4737797816214092, -2.6374893350656006, -2.6374893350656006, -2.6374893350656006
3, 0, 0, 0, 2, 0, 1, 5.072614762977941, 0.0, 0.0, 0.0, 0.0
3, 0, 0, 0, 2, 1, 0, 0.0, 0.0, 0.0, 0.0, 0.0
3, 0, 0, 0, 2, 1, 1, 0.0, 0.0, 0.0, 0.0, 0.0
3, 0, 0, 1, 0, 0, 0, -3.1879454981437365, -0.18429906126514017, -2.984739548364289, -2.984739548364289, -3.1642919716373323
3, 0, 0, 1, 0, 0, 1, -0.4, 4.804469403796121, -0.4, -0.4, -0.4
3, 0, 0, 1, 0, 1, 0, 0.0, 0.0, 0.0, 0.0, 0.0
3, 0, 0, 1, 0, 1, 1, 0.0, 0.0, 0.0, 0.0, 0.0
3, 0, 0, 1, 1, 0, 0, -1.284809875449157, 0.618574097115024, -1.17616, -1.17616, -1.17616
3, 0, 0, 1, 1, 0, 1, -0.3878438073128363, -0.33807742197393265, 7.555775190439044, 0.0, 0.0
3, 0, 0, 1, 1, 1, 0, 0.0, 0.0, 0.0, 0.0, 0.0
3, 0, 0, 1, 1, 1, 1, 0.0, 0.0, 0.0, 0.0, 0.0
3, 0, 0, 1, 2, 0, 0, -2.034786932142149, 0.43686447229800723, -1.9215840640000001, -1.9215840640000001, -1.9215840640000001
3, 0, 0, 1, 2, 0, 1, 6.333228296163873, -0.4, -0.3352, -0.4, -0.4
3, 0, 0, 1, 2, 1, 0, 0.0, 0.0, 0.0, 0.0, 0.0
3, 0, 0, 1, 2, 1, 1, 0.0, 0.0, 0.0, 0.0, 0.0
3, 0, 0, 2, 0, 0, 0, -1.5526368000000002, 1.1091054608364865, -1.5526368000000002, -1.5526368000000002, -1.5526368000000002
3, 0, 0, 2, 0, 0, 1, -0.4, 3.6111824509960186, -0.4, -0.4, -0.4
3, 0, 0, 2, 0, 1, 0, 0.0, 0.0, 0.0, 0.0, 0.0
3, 0, 0, 2, 0, 1, 1, 0.0, 0.0, 0.0, 0.0, 0.0
3, 0, 0, 2, 1, 0, 0, -0.4357396917005577, 1.8195568922068746, 0.0, 0.0, 0.0
3, 0, 0, 2, 1, 0, 1, -0.4, -0.38731648, 7.211225040450287, 0.0, 0.0
3, 0, 0, 2, 1, 1, 0, 0.0, 0.0, 0.0, 0.0, 0.0
3, 0, 0, 2, 1, 1, 1, 0.0, 0.0, 0.0, 0.0, 0.0
3, 0, 0, 2, 2, 0, 0, -0.792, 0.6420656535859234, -0.792, -0.792, -0.792
3, 0, 0, 2, 2, 0, 1, 4.382417188651146, -0.4, -0.4, -0.4, -0.4
3, 0, 0, 2, 2, 1, 0, 0.0, 0.0, 0.0, 0.0, 0.0
3, 0, 0, 2, 2, 1, 1, 0.0, 0.0, 0.0, 0.0, 0.0
3, 0, 0, 3, 0, 0, 0, -0.4, 1.1519708841524978, 0.0, 0.0, 0.0
3, 0, 0, 3, 0, 0, 1, -0.4, 2.2314646691899487, -0.4, -0.4, -0.4
3, 0, 0, 3, 0, 1, 0, -0.3869824, 0.6084514142695145, 0.0, 0.0, 0.0
3, 0, 0, 3, 0, 1, 1, -0.08679056297583974, 2.9556339343280422, 0.0, 0.0, 0.0
3, 0, 0, 3, 1, 0, 0, -0.31216, 1.016735015893238, 0.0, 0.0, 0.0
3, 0, 0, 3, 1, 0, 1, -0.4, -0.4, 4.5260593429608456, 0.0, 0.0
3, 0, 0, 3, 1, 1, 0, -0.3352, 4.7402398555659655, 0.0, 0.0, 0.0
3, 0, 0, 3, 1, 1, 1, -0.4, 5.195953146171642, 0.0, 0.0, 0.0
3, 0, 0, 3, 2, 0, 0, -0.3352, 2.7301490110624576, 0.0, 0.0, 0.0
3, 0, 0, 3, 2, 0, 1, 4.979920298332655, -0.7456586325859629, -0.4, -0.4, -0.4
3, 0, 0, 3, 2, 1, 0, -0.4, 5.00560836179392, 0.0, 0.0, 0.0
3, 0, 0, 3, 2, 1, 1, -0.2859923077747905, 2.694081251678094, 0.0, 0.0, 0.0
3, 0, 0, 4, 0, 0, 0, 0.0, 0.0, 0.0, 0.0, 0.0
3, 0, 0, 4, 0, 0, 1, 0.0, 0.0, 0.0, 0.0, 0.0
3, 0, 0, 4, 0, 1, 0, 0.0, 0.0, 0.0, 0.0, 0.0
3, 0, 0, 4, 0, 1, 1, 0.0, 0.0, 0.0, 0.0, 0.0
3, 0, 0, 4, 1, 0, 0, 0.0, 0.0, 0.0, 0.0, 0.0
3, 0, 0, 4, 1, 0, 1, 0.0, 0.0, 0.0, 0.0, 0.0
3, 0, 0, 4, 1, 1, 0, 0.0, 0.0, 0.0, 0.0, 0.0
3, 0, 0, 4, 1, 1, 1, 0.0, 0.0, 0.0, 0.0, 0.0
3, 0, 0, 4, 2, 0, 0, 0.0, 0.0, 0.0, 0.0, 0.0
3, 0, 0, 4, 2, 0, 1, 0.0, 0.0, 0.0, 0.0, 0.0
3, 0, 0, 4, 2, 1, 0, 0.0, 0.0, 0.0, 0.0, 0.0
3, 0, 0, 4, 2, 1, 1, 0.0, 0.0, 0.0, 0.0, 0.0
3, 0, 1, 0, 0, 0, 0, -2.0425029221790383, -0.00029429573653354593, -2.0119937540064745, -2.153634471844258, -1.9579452046752888
3, 0, 1, 0, 0, 0, 1, -0.4, -0.4, -0.4, 0.16316319528450274, 0.0
3, 0, 1, 0, 0, 1, 0, 0.0, 0.0, 0.0, 0.0, 0.0
3, 0, 1, 0, 0, 1, 1, 0.0, 0.0, 0.0, 0.0, 0.0
3, 0, 1, 0, 1, 0, 0, -0.8109674288896, -0.019825181373765544, -0.4, -0.4, -0.5266548866312821
3, 0, 1, 0, 1, 0, 1, -0.379581952, -0.363656276095959, 5.217839968763446, 0.0, 0.0
3, 0, 1, 0, 1, 1, 0, 0.0, 0.0, 0.0, 0.0, 0.0
3, 0, 1, 0, 1, 1, 1, 0.0, 0.0, 0.0, 0.0, 0.0
3, 0, 1, 0, 2, 0, 0, -1.0658851315200002, 1.1052634443361606, -0.792, -0.8699320908586397, -0.8189350283700126
3, 0, 1, 0, 2, 0, 1, 4.335856830196594, 0.0, 0.0, 0.0, 0.0
3, 0, 1, 0, 2, 1, 0, 0.0, 0.0, 0.0, 0.0, 0.0
3, 0, 1, 0, 2, 1, 1, 0.0, 0.0, 0.0, 0.0, 0.0
3, 0, 1, 1, 0, 0, 0, -1.9949608118293614, 0.354566478813021, -1.91050055489472, -1.9879945715200003, -1.8737874693856535
3, 0, 1, 1, 0, 0, 1, -0.10581759836856673, 3.0379799464594814, 0.0, 0.0, 0.0
3, 0, 1, 1, 0, 1, 0, 0.0, 0.0, 0.0, 0.0, 0.0
3, 0, 1, 1, 0, 1, 1, 0.0, 0.0, 0.0, 0.0, 0.0
3, 0, 1, 1, 1, 0, 0, -0.8530185392727715, -0.007819308656062673, -0.4, -0.3458475895782171, -0.006135207928558095
3, 0, 1, 1, 1, 0, 1, -0.2520695380141421, -0.18865187653359292, 8.454229595826924, 0.0, 0.0
3, 0, 1, 1, 1, 1, 0, 0.0, 0.0, 0.0, 0.0, 0.0
3, 0, 1, 1, 1, 1, 1, 0.0, 0.0, 0.0, 0.0, 0.0
3, 0, 1, 1, 2, 0, 0, -1.0673890777743773, -0.9318398951273761, -0.792, -0.792, 2.063672392080111
3, 0, 1, 1, 2, 0, 1, 6.503629144109631, 0.0, 0.0, 0.0, 0.0
3, 0, 1, 1, 2, 1, 0, 0.0, 0.0, 0.0, 0.0, 0.0
3, 0, 1, 1, 2, 1, 1, 0.0, 0.0, 0.0, 0.0, 0.0
3, 0, 1, 2, 0, 0, 0, -0.8692225877884301, 1.9293608460000837, -0.8482732033796792, -0.7616018824404418, -0.6298438704121567
3, 0, 1, 2, 0, 0, 1, -0.21574241238912384, 0.8491284861830646, 0.0, 0.0, 0.0
3, 0, 1, 2, 0, 1, 0, 0.0, 0.0, 0.0, 0.0, 0.0
3, 0, 1, 2, 0, 1, 1, 0.0, 0.0, 0.0, 0.0, 0.0
3, 0, 1, 2, 1, 0, 0, -0.27642312290648813, 1.6428952613958994, 0.0, 0.0, 0.0
3, 0, 1, 2, 1, 0, 1, -0.14761396083240444, -0.472, 6.0807451255295595, 0.0, 0.0
3, 0, 1, 2, 1, 1, 0, 0.0, 0.0, 0.0, 0.0, 0.0
3, 0, 1, 2, 1, 1, 1, 0.0, 0.0, 0.0, 0.0, 0.0
3, 0, 1, 2, 2, 0, 0, -0.37899443200000005, 1.443848882115202, -0.26768084831061867, -0.4, -0.31499833722609777
3, 0, 1, 2, 2, 0, 1, 4.522041715849753, 0.0, 0.0, 0.0, 0.0
3, 0, 1, 2, 2, 1, 0, 0.0, 0.0, 0.0, 0.0, 0.0
3, 0, 1, 2, 2, 1, 1, 0.0, 0.0, 0.0, 0.0, 0.0
3, 0, 1, 3, 0, 0, 0, -0.35358592, 2.296051599214588, 0.0, 0.0, 0.0
3, 0, 1, 3, 0, 0, 1, -0.4364618619272929, 0.0, 0.0, 0.0, 0.0
3, 0, 1, 3, 0, 1, 0, 0.0, 0.0, 0.0, 0.0, 0.0
3, 0, 1, 3, 0, 1, 1, 0.0, 0.0, 0.0, 0.0, 0.0
3, 0, 1, 3, 1, 0, 0, 0.0, 0.0, 0.0, 0.0, 0.0
3, 0, 1, 3, 1, 0, 1, 0.0, 0.0, 0.0, 0.0, 0.0
3, 0, 1, 3, 1, 1, 0, 0.0, 0.0, 0.0, 0.0, 0.0
3, 0, 1, 3, 1, 1, 1, 0.0, 0.0, 0.0, 0.0, 0.0
3, 0, 1, 3, 2, 0, 0, -0.16158152436570414, -0.16199208217811192, -0.4, -0.4, 4.041626949738129
3, 0, 1, 3, 2, 0, 1, 0.3331198793540331, 0.0, 0.0, 0.0, 0.0
3, 0, 1, 3, 2, 1, 0, 1.9170618093046847, 0.0, 0.0, 0.0, 0.0
3, 0, 1, 3, 2, 1, 1, 0.0, 0.0, 0.0, 0.0, 0.0
3, 0, 1, 4, 0, 0, 0, 0.0, 0.0, 0.0, 0.0, 0.0
3, 0, 1, 4, 0, 0, 1, 0.0, 0.0, 0.0, 0.0, 0.0
3, 0, 1, 4, 0, 1, 0, 0.0, 0.0, 0.0, 0.0, 0.0
3, 0, 1, 4, 0, 1, 1, 0.0, 0.0, 0.0, 0.0, 0.0
3, 0, 1, 4, 1, 0, 0, 0.0, 0.0, 0.0, 0.0, 0.0
3, 0, 1, 4, 1, 0, 1, 0.0, 0.0, 0.0, 0.0, 0.0
3, 0, 1, 4, 1, 1, 0, 0.0, 0.0, 0.0, 0.0, 0.0
3, 0, 1, 4, 1, 1, 1, 0.0, 0.0, 0.0, 0.0, 0.0
3, 0, 1, 4, 2, 0, 0, 0.0, 0.0, 0.0, 0.0, 0.0
3, 0, 1, 4, 2, 0, 1, 0.0, 0.0, 0.0, 0.0, 0.0
3, 0, 1, 4, 2, 1, 0, 0.0, 0.0, 0.0, 0.0, 0.0
3, 0, 1, 4, 2, 1, 1, 0.0, 0.0, 0.0, 0.0, 0.0
3, 1, 0, 0, 0, 0, 0, -1.5536052266126785, -1.4968828395369558, 4.1663279730911436, -1.5526368000000002, -1.4926403471187326
3, 1, 0, 0, 0, 0, 1, -0.7941122517508097, 5.79644245590021, -0.7200000000000001, -0.792, -1.069050865002742
3, 1, 0, 0, 0, 1, 0, 0.0, 0.0, 0.0, 0.0, 0.0
3, 1, 0, 0, 0, 1, 1, 0.0, 0.0, 0.0, 0.0, 0.0
3, 1, 0, 0, 1, 0, 0, -0.7608841668874833, -0.7293260227976914, 2.735340652354114, -0.4, -0.4
3, 1, 0, 0, 1, 0, 1, -0.3477730902435955, -0.325739864326144, 3.116636483274507, 0.0, 0.0
3, 1, 0, 0, 1, 1, 0, 0.0, 0.0, 0.0, 0.0, 0.0
3, 1, 0, 0, 1, 1, 1, 0.0, 0.0, 0.0, 0.0, 0.0
3, 1, 0, 0, 2, 0, 0, -2.335781277038192, -2.510029775627293, 3.325672925713332, -2.4171540755517635, -2.6374893350656006
3, 1, 0, 0, 2, 0, 1, 5.85740366415958, 0.0, 0.0, 0.0, 0.0
3, 1, 0, 0, 2, 1, 0, 0.0, 0.0, 0.0, 0.0, 0.0
3, 1, 0, 0, 2, 1, 1, 0.0, 0.0, 0.0, 0.0, 0.0
3, 1, 0, 1, 0, 0, 0, -2.535027244937055, -2.375254043298991, 3.306907446457005, -2.2831523827200004, -2.3875975807832983
3, 1, 0, 1, 0, 0, 1, -0.4, 6.261621263222317, 0.0, 0.0, 0.0
3, 1, 0, 1, 0, 1, 0, 0.0, 0.0, 0.0, 0.0, 0.0
3, 1, 0, 1, 0, 1, 1, 0.0, 0.0, 0.0, 0.0, 0.0
3, 1, 0, 1, 1, 0, 0, -0.6117088000000002, -0.40679697902441947, 3.534832413496381, -0.4, -0.5265627117159102
3, 1, 0, 1, 1, 0, 1, -0.3819481334921897, -0.30759292511157454, 7.92684951611539, 0.0, 0.0
3, 1, 0, 1, 1, 1, 0, 0.0, 0.0, 0.0, 0.0, 0.0
3, 1, 0, 1, 1, 1, 1, 0.0, 0.0, 0.0, 0.0, 0.0
3, 1, 0, 1, 2, 0, 0, -2.0134040279491603, -2.009596967635619, 2.7915000720715937, -2.2831523827200004, -2.0530768688896
3, 1, 0, 1, 2, 0, 1, 6.430936165565495, 0.0, 0.0, 0.0, 0.0
3, 1, 0, 1, 2, 1, 0, 0.0, 0.0, 0.0, 0.0, 0.0
3, 1, 0, 1, 2, 1, 1, 0.0, 0.0, 0.0, 0.0, 0.0
3, 1, 0, 2, 0, 0, 0, -1.2722875866916175, -1.2196753816902084, 4.120755955666609, -1.120617304473897, -1.17616
3, 1, 0, 2, 0, 0, 1, -0.31216, 5.268181271090008, 0.0, 0.0, 0.0
3, 1, 0, 2, 0, 1, 0, 0.0, 0.0, 0.0, 0.0, 0.0
3, 1, 0, 2, 0, 1, 1, 0.0, 0.0, 0.0, 0.0, 0.0
3, 1, 0, 2, 1, 0, 0, -0.6937143167898008, -0.5037385331157344, 4.906425785194105, 0.0, 0.0
3, 1, 0, 2, 1, 0, 1, 0.0, 0.0, 0.0, 0.0, 0.0
3, 1, 0, 2, 1, 1, 0, 0.0, 0.0, 0.0, 0.0, 0.0
3, 1, 0, 2, 1, 1, 1, 0.0, 0.0, 0.0, 0.0, 0.0
3, 1, 0, 2, 2, 0, 0, -0.4, -0.4, 4.375539735690825, -0.5733049022511232, -0.4
3, 1, 0, 2, 2, 0, 1, 5.7729953791325554, 0.0, 0.0, 0.0, 0.0
3, 1, 0, 2, 2, 1, 0, 0.0, 0.0, 0.0, 0.0, 0.0
3, 1, 0, 2, 2, 1, 1, 0.0, 0.0, 0.0, 0.0, 0.0
3, 1, 0, 3, 0, 0, 0, -0.293728, -0.4, 4.28128743674535, 0.0, 0.0
3, 1, 0, 3, 0, 0, 1, 0.0, 0.0, 0.0, 0.0, 0.0
3, 1, 0, 3, 0, 1, 0, 0.0, 0.0, 0.0, 0.0, 0.0
3, 1, 0, 3, 0, 1, 1, 0.0, 0.0, 0.0, 0.0, 0.0
3, 1, 0, 3, 1, 0, 0, 0.0, 0.0, 0.0, 0.0, 0.0
3, 1, 0, 3, 1, 0, 1, 0.0, 0.0, 0.0, 0.0, 0.0
3, 1, 0, 3, 1, 1, 0, 0.0, 0.0, 0.0, 0.0, 0.0
3, 1, 0, 3, 1, 1, 1, 0.0, 0.0, 0.0, 0.0, 0.0
3, 1, 0, 3, 2, 0, 0, -0.4, -0.3229900783081044, 5.303132837984755, 0.0, 0.0
3, 1, 0, 3, 2, 0, 1, 0.0, 0.0, 0.0, 0.0, 0.0
3, 1, 0, 3, 2, 1, 0, 0.0, 0.0, 0.0, 0.0, 0.0
3, 1, 0, 3, 2, 1, 1, 0.0, 0.0, 0.0, 0.0, 0.0
3, 1, 0, 4, 0, 0, 0, 0.0, 0.0, 0.0, 0.0, 0.0
3, 1, 0, 4, 0, 0, 1, 0.0, 0.0, 0.0, 0.0, 0.0
3, 1, 0, 4, 0, 1, 0, 0.0, 0.0, 0.0, 0.0, 0.0
3, 1, 0, 4, 0, 1, 1, 0.0, 0.0, 0.0, 0.0, 0.0
3, 1, 0, 4, 1, 0, 0, 0.0, 0.0, 0.0, 0.0, 0.0
3, 1, 0, 4, 1, 0, 1, 0.0, 0.0, 0.0, 0.0, 0.0
3, 1, 0, 4, 1, 1, 0, 0.0, 0.0, 0.0, 0.0, 0.0
3, 1, 0, 4, 1, 1, 1, 0.0, 0.0, 0.0, 0.0, 0.0
3, 1, 0, 4, 2, 0, 0, 0.0, 0.0, 0.0, 0.0, 0.0
3, 1, 0, 4, 2, 0, 1, 0.0, 0.0, 0.0, 0.0, 0.0
3, 1, 0, 4, 2, 1, 0, 0.0, 0.0, 0.0, 0.0, 0.0
3, 1, 0, 4, 2, 1, 1, 0.0, 0.0, 0.0, 0.0, 0.0
3, 1, 1, 0, 0, 0, 0, -1.1010903505752065, -1.1698549159309448, -1.100143594514699, -1.17616, 4.776728017280229
3, 1, 1, 0, 0, 0, 1, -0.4, 5.632259345717259, -0.4, -0.4, -0.472
3, 1, 1, 0, 0, 1, 0, 0.0, 0.0, 0.0, 0.0, 0.0
3, 1, 1, 0, 0, 1, 1, 0.0, 0.0, 0.0, 0.0, 0.0
3, 1, 1, 0, 1, 0, 0, -0.7607073335099868, -0.7216575284971143, 3.6607133185452376, 0.0, 0.0
3, 1, 1, 0, 1, 0, 1, -0.4, -0.41259189146091524, 6.173946634461949, 0.0, 0.0
3, 1, 1, 0, 1, 1, 0, 0.0, 0.0, 0.0, 0.0, 0.0
3, 1, 1, 0, 1, 1, 1, 0.0, 0.0, 0.0, 0.0, 0.0
3, 1, 1, 0, 2, 0, 0, -1.3618601607911724, -1.3595010977897966, -1.3588580811042887, -1.3000104284790983, 3.8862507814940725
3, 1, 1, 0, 2, 0, 1, 6.014564725914463, 0.0, 0.0, 0.0, 0.0
3, 1, 1, 0, 2, 1, 0, 0.0, 0.0, 0.0, 0.0, 0.0
3, 1, 1, 0, 2, 1, 1, 0.0, 0.0, 0.0, 0.0, 0.0
3, 1, 1, 1, 0, 0, 0, -1.357248147766026, -1.4346355457695759, -1.3007352035901034, -1.4834880000000004, 3.4655079187770763
3, 1, 1, 1, 0, 0, 1, -0.05282725255848342, 5.809211334791307, 0.0, 0.0, 0.0
3, 1, 1, 1, 0, 1, 0, 0.0, 0.0, 0.0, 0.0, 0.0
3, 1, 1, 1, 0, 1, 1, 0.0, 0.0, 0.0, 0.0, 0.0
3, 1, 1, 1, 1, 0, 0, -0.6105922533787226, -0.44199888815934724, -0.4, -0.4, 1.6346847533257478
3, 1, 1, 1, 1, 0, 1, -0.2874351668652371, -0.2598592786470128, 8.973613973748822, 0.0, 0.0
3, 1, 1, 1, 1, 1, 0, 0.0, 0.0, 0.0, 0.0, 0.0
3, 1, 1, 1, 1, 1, 1, 0.0, 0.0, 0.0, 0.0, 0.0
3, 1, 1, 1, 2, 0, 0, -1.30338750299677, -1.6353452502899293, 4.207700760692693, -1.4883422749190134, -1.2180586535972644
3, 1, 1, 1, 2, 0, 1, 6.29486962969919, 0.0, 0.0, 0.0, 0.0
3, 1, 1, 1, 2, 1, 0, 0.0, 0.0, 0.0, 0.0, 0.0
3, 1, 1, 1, 2, 1, 1, 0.0, 0.0, 0.0, 0.0, 0.0
3, 1, 1, 2, 0, 0, 0, -0.4, -0.4, -0.27091782392482333, -0.4, 4.507353238392179
3, 1, 1, 2, 0, 0, 1, -0.4, 5.702881265468276, 0.0, 0.0, 0.0
3, 1, 1, 2, 0, 1, 0, 0.0, 0.0, 0.0, 0.0, 0.0
3, 1, 1, 2, 0, 1, 1, 0.0, 0.0, 0.0, 0.0, 0.0
3, 1, 1, 2, 1, 0, 0, -0.6771428959872509, -0.48059474202734453, 3.5435010365279176, 0.0, 0.0
3, 1, 1, 2, 1, 0, 1, -0.010171062566082564, 0.13237234603313425, 0.0, 0.0, 0.0
3, 1, 1, 2, 1, 1, 0, 0.0, 0.0, 0.0, 0.0, 0.0
3, 1, 1, 2, 1, 1, 1, 0.0, 0.0, 0.0, 0.0, 0.0
3, 1, 1, 2, 2, 0, 0, -0.472, -0.4, -0.4, -0.4, 7.752899293737229
3, 1, 1, 2, 2, 0, 1, 5.375454417617606, 0.0, 0.0, 0.0, 0.0
3, 1, 1, 2, 2, 1, 0, 0.0, 0.0, 0.0, 0.0, 0.0
3, 1, 1, 2, 2, 1, 1, 0.0, 0.0, 0.0, 0.0, 0.0
3, 1, 1, 3, 0, 0, 0, -0.3074219051493529, -0.3256638198200104, 5.293513073237332, 0.0, 0.0
3, 1, 1, 3, 0, 0, 1, -0.4, 2.1909119539245925, 0.0, 0.0, 0.0
3, 1, 1, 3, 0, 1, 0, 0.0, 0.0, 0.0, 0.0, 0.0
3, 1, 1, 3, 0, 1, 1, 0.0, 0.0, 0.0, 0.0, 0.0
3, 1, 1, 3, 1, 0, 0, 0.0, 0.0, 0.0, 0.0, 0.0
3, 1, 1, 3, 1, 0, 1, 0.0, 0.0, 0.0, 0.0, 0.0
3, 1, 1, 3, 1, 1, 0, 0.0, 0.0, 0.0, 0.0, 0.0
3, 1, 1, 3, 1, 1, 1, 0.0, 0.0, 0.0, 0.0, 0.0
3, 1, 1, 3, 2, 0, 0, -0.256279915102712, -0.07624451650774239, 4.541620963780445, 0.0, 0.0
3, 1, 1, 3, 2, 0, 1, 0.892254023765146, 0.0, 0.0, 0.0, 0.0
3, 1, 1, 3, 2, 1, 0, 0.0, 0.0, 0.0, 0.0, 0.0
3, 1, 1, 3, 2, 1, 1, 0.0, 0.0, 0.0, 0.0, 0.0
3, 1, 1, 4, 0, 0, 0, 0.0, 0.0, 0.0, 0.0, 0.0
3, 1, 1, 4, 0, 0, 1, 0.0, 0.0, 0.0, 0.0, 0.0
3, 1, 1, 4, 0, 1, 0, 0.0, 0.0, 0.0, 0.0, 0.0
3, 1, 1, 4, 0, 1, 1, 0.0, 0.0, 0.0, 0.0, 0.0
3, 1, 1, 4, 1, 0, 0, 0.0, 0.0, 0.0, 0.0, 0.0
3, 1, 1, 4, 1, 0, 1, 0.0, 0.0, 0.0, 0.0, 0.0
3, 1, 1, 4, 1, 1, 0, 0.0, 0.0, 0.0, 0.0, 0.0
3, 1, 1, 4, 1, 1, 1, 0.0, 0.0, 0.0, 0.0, 0.0
3, 1, 1, 4, 2, 0, 0, 0.0, 0.0, 0.0, 0.0, 0.0
3, 1, 1, 4, 2, 0, 1, 0.0, 0.0, 0.0, 0.0, 0.0
3, 1, 1, 4, 2, 1, 0, 0.0, 0.0, 0.0, 0.0, 0.0
3, 1, 1, 4, 2, 1, 1, 0.0, 0.0, 0.0, 0.0, 0.0
3, 2, 0, 0, 0, 0, 0, 0.26852104893836026, -1.791058606392561, -1.9215840640000001, -1.9215840640000001, -1.9215840640000001
3, 2, 0, 0, 0, 0, 1, -0.4, 5.945377435994477, -0.4, -0.4, -0.4
3, 2, 0, 0, 0, 1, 0, 0.0, 0.0, 0.0, 0.0, 0.0
3, 2, 0, 0, 0, 1, 1, 0.0, 0.0, 0.0, 0.0, 0.0
3, 2, 0, 0, 1, 0, 0, 0.29695317802304966, -0.47679750575040525, -0.4, -0.4, -0.4
3, 2, 0, 0, 1, 0, 1, -0.4, -0.4, 8.23641097592056, 0.0, 0.0
3, 2, 0, 0, 1, 1, 0, 0.0, 0.0, 0.0, 0.0, 0.0
3, 2, 0, 0, 1, 1, 1, 0.0, 0.0, 0.0, 0.0, 0.0
3, 2, 0, 0, 2, 0, 0, 0.11431624920914094, -2.984739548364289, -2.9641759036579844, -3.2835036825268706, -3.03406100893143
3, 2, 0, 0, 2, 0, 1, 3.374333650364768, -0.792, -0.792, -0.792, -0.792
3, 2, 0, 0, 2, 1, 0, 0.0, 0.0, 0.0, 0.0, 0.0
3, 2, 0, 0, 2, 1, 1, 0.0, 0.0, 0.0, 0.0, 0.0
3, 2, 0, 1, 0, 0, 0, -0.005296673474848038, -2.2831523827200004, -2.2831523827200004, -2.2831523827200004, -2.2831523827200004
3, 2, 0, 1, 0, 0, 1, -0.7200000000000001, 6.227608340528388, -0.792, -0.7200000000000001, -0.792
3, 2, 0, 1, 0, 1, 0, 0.0, 0.0, 0.0, 0.0, 0.0
3, 2, 0, 1, 0, 1, 1, 0.0, 0.0, 0.0, 0.0, 0.0
3, 2, 0, 1, 1, 0, 0, 0.2660616595298243, -1.1215707680868527, -1.1692715913991787, -1.17616, -1.17616
3, 2, 0, 1, 1, 0, 1, -0.4, -0.4, 7.001048748789062, 0.0, 0.0
3, 2, 0, 1, 1, 1, 0, 0.0, 0.0, 0.0, 0.0, 0.0
3, 2, 0, 1, 1, 1, 1, 0.0, 0.0, 0.0, 0.0, 0.0
3, 2, 0, 1, 2, 0, 0, 0.48327974714228966, -2.984739548364289, -2.984739548364289, -2.984739548364289, -2.984739548364289
3, 2, 0, 1, 2, 0, 1, 4.352607376559372, -0.4, -0.4, -0.4, -0.4
3, 2, 0, 1, 2, 1, 0, 0.0, 0.0, 0.0, 0.0, 0.0
3, 2, 0, 1, 2, 1, 1, 0.0, 0.0, 0.0, 0.0, 0.0
3, 2, 0, 2, 0, 0, 0, 2.187312127200393, -1.17616, -1.17616, -1.17616, -1.17616
3, 2, 0, 2, 0, 0, 1, -0.3352, 5.009664415453183, 0.0, 0.0, 0.0
3, 2, 0, 2, 0, 1, 0, 0.0, 0.0, 0.0, 0.0, 0.0
3, 2, 0, 2, 0, 1, 1, 0.0, 0.0, 0.0, 0.0, 0.0
3, 2, 0, 2, 1, 0, 0, 1.2352971809696969, -0.30120332414953466, -0.4, -0.4, -0.4
3, 2, 0, 2, 1, 0, 1, -0.17028993627304956, -0.4, 6.847540661526716, 0.0, 0.0
3, 2, 0, 2, 1, 1, 0, 0.0, 0.0, 0.0, 0.0, 0.0
3, 2, 0, 2, 1, 1, 1, 0.0, 0.0, 0.0, 0.0, 0.0
3, 2, 0, 2, 2, 0, 0, 0.8063524066488643, -1.17616, -1.17616, -1.17616, -1.17616
3, 2, 0, 2, 2, 0, 1, 3.1407158930506203, -0.4, -0.4, -0.4, -0.4
3, 2, 0, 2, 2, 1, 0, 0.0, 0.0, 0.0, 0.0, 0.0
3, 2, 0, 2, 2, 1, 1, 0.0, 0.0, 0.0, 0.0, 0.0
3, 2, 0, 3, 0, 0, 0, 3.1631824054560993, -0.4, -0.728496, -0.4, -0.4
3, 2, 0, 3, 0, 0, 1, -0.4, 3.724111466921091, -0.4, -0.4, -0.4
3, 2, 0, 3, 0, 1, 0, 3.564178282740598, 0.0, 0.0, 0.0, 0.0
3, 2, 0, 3, 0, 1, 1, 2.4187001603702307, 0.0, 0.0, 0.0, 0.0
3, 2, 0, 3, 1, 0, 0, 0.5625642089182049, 0.0, 0.0, 0.0, 0.0
3, 2, 0, 3, 1, 0, 1, -0.4, -0.3690487344645468, 4.643601120519405, 0.0, 0.0
3, 2, 0, 3, 1, 1, 0, 1.6927489601923162, 0.0, 0.0, 0.0, 0.0
3, 2, 0, 3, 1, 1, 1, 3.8282305522358375, 0.0, 0.0, 0.0, 0.0
3, 2, 0, 3, 2, 0, 0, 2.2191628704118176, -0.4, -0.32395791223524983, -0.4, -0.3031663297881999
3, 2, 0, 3, 2, 0, 1, 0.8086967277379853, -0.4, -0.4, -0.1855154515369679, -0.4
3, 2, 0, 3, 2, 1, 0, 0.0, 0.0, 0.0, 0.0, 0.0
3, 2, 0, 3, 2, 1, 1, 0.644849761795987, 0.0, 0.0, 0.0, 0.0
3, 2, 0, 4, 0, 0, 0, 0.0, 0.0, 0.0, 0.0, 0.0
3, 2, 0, 4, 0, 0, 1, 0.0, 0.0, 0.0, 0.0, 0.0
3, 2, 0, 4, 0, 1, 0, 0.0, 0.0, 0.0, 0.0, 0.0
3, 2, 0, 4, 0, 1, 1, 0.0, 0.0, 0.0, 0.0, 0.0
3, 2, 0, 4, 1, 0, 0, 0.0, 0.0, 0.0, 0.0, 0.0
3, 2, 0, 4, 1, 0, 1, 0.0, 0.0, 0.0, 0.0, 0.0
3, 2, 0, 4, 1, 1, 0, 0.0, 0.0, 0.0, 0.0, 0.0
3, 2, 0, 4, 1, 1, 1, 0.0, 0.0, 0.0, 0.0, 0.0
3, 2, 0, 4, 2, 0, 0, 0.0, 0.0, 0.0, 0.0, 0.0
3, 2, 0, 4, 2, 0, 1, 0.0, 0.0, 0.0, 0.0, 0.0
3, 2, 0, 4, 2, 1, 0, 0.0, 0.0, 0.0, 0.0, 0.0
3, 2, 0, 4, 2, 1, 1, 0.0, 0.0, 0.0, 0.0, 0.0
3, 2, 1, 0, 0, 0, 0, -0.9956930653323413, -1.1277528919002133, -1.17616, -1.1336321459220318, 4.367054944062339
3, 2, 1, 0, 0, 0, 1, -0.4, 4.374726066229307, 0.0, 0.0, 0.0
3, 2, 1, 0, 0, 1, 0, 0.0, 0.0, 0.0, 0.0, 0.0
3, 2, 1, 0, 0, 1, 1, 0.0, 0.0, 0.0, 0.0, 0.0
3, 2, 1, 0, 1, 0, 0, 0.2758829049986648, -0.9792301333719157, -0.792, -0.8096411637580863, -0.7489087443443758
3, 2, 1, 0, 1, 0, 1, -0.36400000000000005, -0.4, 8.002854441205741, 0.0, 0.0
3, 2, 1, 0, 1, 1, 0, 0.0, 0.0, 0.0, 0.0, 0.0
3, 2, 1, 0, 1, 1, 1, 0.0, 0.0, 0.0, 0.0, 0.0
3, 2, 1, 0, 2, 0, 0, 0.9330872020674601, -2.1066862572347325, -1.8925244606955753, -1.9215840640000001, -1.9627044375607592
3, 2, 1, 0, 2, 0, 1, -0.00835037775728944, -0.08469034614252427, 0.0, 0.0, 0.0
3, 2, 1, 0, 2, 1, 0, 0.0, 0.0, 0.0, 0.0, 0.0
3, 2, 1, 0, 2, 1, 1, 0.0, 0.0, 0.0, 0.0, 0.0
3, 2, 1, 1, 0, 0, 0, 0.883801004344737, -1.4507403499204279, -1.2749210226884529, -1.1643565411009988, -1.2914662593031696
3, 2, 1, 1, 0, 0, 1, -0.4, 4.76706300247039, 0.0, 0.0, 0.0
3, 2, 1, 1, 0, 1, 0, 0.0, 0.0, 0.0, 0.0, 0.0
3, 2, 1, 1, 0, 1, 1, 0.0, 0.0, 0.0, 0.0, 0.0
3, 2, 1, 1, 1, 0, 0, 1.2501116306358733, -0.8892220675618487, -0.792, -0.792, -0.8524712177076705
3, 2, 1, 1, 1, 0, 1, -0.18258744800367321, -0.3980743400892597, 6.507136026739355, 0.0, 0.0
3, 2, 1, 1, 1, 1, 0, 0.0, 0.0, 0.0, 0.0, 0.0
3, 2, 1, 1, 1, 1, 1, 0.0, 0.0, 0.0, 0.0, 0.0
3, 2, 1, 1, 2, 0, 0, 0.39505257394770044, -1.8297254807378738, -1.8883788102400003, -1.926210363372998, -1.8436908253797295
3, 2, 1, 1, 2, 0, 1, 6.097313254829119, 0.0, 0.0, 0.0, 0.0
3, 2, 1, 1, 2, 1, 0, 0.0, 0.0, 0.0, 0.0, 0.0
3, 2, 1, 1, 2, 1, 1, 0.0, 0.0, 0.0, 0.0, 0.0
3, 2, 1, 2, 0, 0, 0, -0.333645947392, -0.43768726608531233, -0.4, -0.4, 1.0526961423056067
3, 2, 1, 2, 0, 0, 1, -0.3352, 4.298120932409979, 0.0, 0.0, 0.0
3, 2, 1, 2, 0, 1, 0, 0.0, 0.0, 0.0, 0.0, 0.0
3, 2, 1, 2, 0, 1, 1, 0.0, 0.0, 0.0, 0.0, 0.0
3, 2, 1, 2, 1, 0, 0, 1.8688069066416948, 0.0, 0.0, 0.0, 0.0
3, 2, 1, 2, 1, 0, 1, -0.44320000000000004, -0.13774997213739404, 2.985646932564035, 0.0, 0.0
3, 2, 1, 2, 1, 1, 0, 0.0, 0.0, 0.0, 0.0, 0.0
3, 2, 1, 2, 1, 1, 1, 0.0, 0.0, 0.0, 0.0, 0.0
3, 2, 1, 2, 2, 0, 0, 1.132387479448003, -1.048847146436144, -1.17616, -1.115894572938756, -1.2021295547730828
3, 2, 1, 2, 2, 0, 1, 0.0, 0.0, 0.0, 0.0, 0.0
3, 2, 1, 2, 2, 1, 0, 0.0, 0.0, 0.0, 0.0, 0.0
3, 2, 1, 2, 2, 1, 1, 0.0, 0.0, 0.0, 0.0, 0.0
3, 2, 1, 3, 0, 0, 0, -0.31244025378739226, -0.03534667599598784, -0.4, -0.4, 2.9355762420870617
3, 2, 1, 3, 0, 0, 1, 0.0, 0.0, 0.0, 0.0, 0.0
3, 2, 1, 3, 0, 1, 0, 0.0, 0.0, 0.0, 0.0, 0.0
3, 2, 1, 3, 0, 1, 1, 0.0, 0.0, 0.0, 0.0, 0.0
3, 2, 1, 3, 1, 0, 0, 0.0, 0.0, 0.0, 0.0, 0.0
3, 2, 1, 3, 1, 0, 1, 0.0, 0.0, 0.0, 0.0, 0.0
3, 2, 1, 3, 1, 1, 0, 0.0, 0.0, 0.0, 0.0, 0.0
3, 2, 1, 3, 1, 1, 1, 0.0, 0.0, 0.0, 0.0, 0.0
3, 2, 1, 3, 2, 0, 0, -0.03258882385837234, -0.4, -0.4, -0.4, 2.3080347580702454
3, 2, 1, 3, 2, 0, 1, 0.0, 0.0, 0.0, 0.0, 0.0
3, 2, 1, 3, 2, 1, 0, 0.0, 0.0, 0.0, 0.0, 0.0
3, 2, 1, 3, 2, 1, 1, 0.0, 0.0, 0.0, 0.0, 0.0
3, 2, 1, 4, 0, 0, 0, 0.0, 0.0, 0.0, 0.0, 0.0
3, 2, 1, 4, 0, 0, 1, 0.0, 0.0, 0.0, 0.0, 0.0
3, 2, 1, 4, 0, 1, 0, 0.0, 0.0, 0.0, 0.0, 0.0
3, 2, 1, 4, 0, 1, 1, 0.0, 0.0, 0.0, 0.0, 0.0
3, 2, 1, 4, 1, 0, 0, 0.0, 0.0, 0.0, 0.0, 0.0
3, 2, 1, 4, 1, 0, 1, 0.0, 0.0, 0.0, 0.0, 0.0
3, 2, 1, 4, 1, 1, 0, 0.0, 0.0, 0.0, 0.0, 0.0
3, 2, 1, 4, 1, 1, 1, 0.0, 0.0, 0.0, 0.0, 0.0
3, 2, 1, 4, 2, 0, 0, 0.0, 0.0, 0.0, 0.0, 0.0
3, 2, 1, 4, 2, 0, 1, 0.0, 0.0, 0.0, 0.0, 0.0
3, 2, 1, 4, 2, 1, 0, 0.0, 0.0, 0.0, 0.0, 0.0
3, 2, 1, 4, 2, 1, 1, 0.0, 0.0, 0.0, 0.0, 0.0
4, 0, 0, 0, 0, 0, 0, 0.0, 0.0, 0.0, 0.0, 0.0
4, 0, 0, 0, 0, 0, 1, 0.0, 0.0, 0.0, 0.0, 0.0
4, 0, 0, 0, 0, 1, 0, 0.0, 0.0, 0.0, 0.0, 0.0
4, 0, 0, 0, 0, 1, 1, 0.0, 0.0, 0.0, 0.0, 0.0
4, 0, 0, 0, 1, 0, 0, 0.0, 0.0, 0.0, 0.0, 0.0
4, 0, 0, 0, 1, 0, 1, -0.28447743999999997, -0.4, 6.734194238515349, 0.0, 0.0
4, 0, 0, 0, 1, 1, 0, 0.0, 0.0, 0.0, 0.0, 0.0
4, 0, 0, 0, 1, 1, 1, 0.0, 0.0, 0.0, 0.0, 0.0
4, 0, 0, 0, 2, 0, 0, 0.0, 0.0, 0.0, 0.0, 0.0
4, 0, 0, 0, 2, 0, 1, 1.0341049862663332, -0.4, -0.4, -0.4, -0.4
4, 0, 0, 0, 2, 1, 0, 0.0, 0.0, 0.0, 0.0, 0.0
4, 0, 0, 0, 2, 1, 1, 0.0, 0.0, 0.0, 0.0, 0.0
4, 0, 0, 1, 0, 0, 0, -0.4, 0.7713458603861396, 0.0, 0.0, 0.0
4, 0, 0, 1, 0, 0, 1, -0.4, 1.6827699385799308, -0.4, -0.4, -0.4
4, 0, 0, 1, 0, 1, 0, 0.0, 0.0, 0.0, 0.0, 0.0
4, 0, 0, 1, 0, 1, 1, 0.0, 0.0, 0.0, 0.0, 0.0
4, 0, 0, 1, 1, 0, 0, -0.4235662312932214, 0.0, 0.0, 0.0, 0.0
4, 0, 0, 1, 1, 0, 1, -0.4, -0.4, 8.051361224046946, 0.0, 0.0
4, 0, 0, 1, 1, 1, 0, 0.0, 0.0, 0.0, 0.0, 0.0
4, 0, 0, 1, 1, 1, 1, 0.0, 0.0, 0.0, 0.0, 0.0
4, 0, 0, 1, 2, 0, 0, -0.2699223956428377, 2.3610647893898142, 0.0, 0.0, 0.0
4, 0, 0, 1, 2, 0, 1, 2.9988729546089896, -0.472, -0.4, -0.4, -0.4
4, 0, 0, 1, 2, 1, 0, 0.0, 0.0, 0.0, 0.0, 0.0
4, 0, 0, 1, 2, 1, 1, 0.0, 0.0, 0.0, 0.0, 0.0
4, 0, 0, 2, 0, 0, 0, -0.36400000000000005, 0.598464, 0.0, 0.0, 0.0
4, 0, 0, 2, 0, 0, 1, -0.7039112769650291, 2.7707884688356037, -0.4, -0.4, -0.4
4, 0, 0, 2, 0, 1, 0, 0.0, 0.0, 0.0, 0.0, 0.0
4, 0, 0, 2, 0, 1, 1, 0.0, 0.0, 0.0, 0.0, 0.0
4, 0, 0, 2, 1, 0, 0, 0.0, 0.0, 0.0, 0.0, 0.0
4, 0, 0, 2, 1, 0, 1, -0.4, -0.4, 7.089433661309051, 0.0, 0.0
4, 0, 0, 2, 1, 1, 0, 0.0, 0.0, 0.0, 0.0, 0.0
4, 0, 0, 2, 1, 1, 1, 0.0, 0.0, 0.0, 0.0, 0.0
4, 0, 0, 2, 2, 0, 0, -0.41874304000000007, 2.545305174507287, 0.0, 0.0, 0.0
4, 0, 0, 2, 2, 0, 1, 3.249773065489533, 0.0, 0.0, 0.0, 0.0
4, 0, 0, 2, 2, 1, 0, 0.0, 0.0, 0.0, 0.0, 0.0
4, 0, 0, 2, 2, 1, 1, 0.0, 0.0, 0.0, 0.0, 0.0
4, 0, 0, 3, 0, 0, 0, 0.0, 0.0, 0.0, 0.0, 0.0
4, 0, 0, 3, 0, 0, 1, -0.3637860997509976, 0.0, 0.0, 0.0, 0.0
4, 0, 0, 3, 0, 1, 0, 0.0, 0.0, 0.0, 0.0, 0.0
4, 0, 0, 3, 0, 1, 1, 0.0, 0.0, 0.0, 0.0, 0.0
4, 0, 0, 3, 1, 0, 0, 0.0, 0.0, 0.0, 0.0, 0.0
4, 0, 0, 3, 1, 0, 1, -0.4, -0.4, 0.0, 0.0, 0.0
4, 0, 0, 3, 1, 1, 0, -0.4, 0.0, 0.0, 0.0, 0.0
4, 0, 0, 3, 1, 1, 1, 0.0, 0.0, 0.0, 0.0, 0.0
4, 0, 0, 3, 2, 0, 0, -0.3352, 3.5837277663588867, 0.0, 0.0, 0.0
4, 0, 0, 3, 2, 0, 1, 0.3221273247422201, 0.0, 0.0, 0.0, 0.0
4, 0, 0, 3, 2, 1, 0, 0.07471731202582825, 0.0, 0.0, 0.0, 0.0
4, 0, 0, 3, 2, 1, 1, 0.0, 0.0, 0.0, 0.0, 0.0
4, 0, 0, 4, 0, 0, 0, 0.0, 0.0, 0.0, 0.0, 0.0
4, 0, 0, 4, 0, 0, 1, 0.0, 0.0, 0.0, 0.0, 0.0
4, 0, 0, 4, 0, 1, 0, 0.0, 0.0, 0.0, 0.0, 0.0
4, 0, 0, 4, 0, 1, 1, 0.0, 0.0, 0.0, 0.0, 0.0
4, 0, 0, 4, 1, 0, 0, 0.0, 0.0, 0.0, 0.0, 0.0
4, 0, 0, 4, 1, 0, 1, 0.0, 0.0, 0.0, 0.0, 0.0
4, 0, 0, 4, 1, 1, 0, 0.0, 0.0, 0.0, 0.0, 0.0
4, 0, 0, 4, 1, 1, 1, 0.0, 0.0, 0.0, 0.0, 0.0
4, 0, 0, 4, 2, 0, 0, 0.0, 0.0, 0.0, 0.0, 0.0
4, 0, 0, 4, 2, 0, 1, 0.0, 0.0, 0.0, 0.0, 0.0
4, 0, 0, 4, 2, 1, 0, 0.0, 0.0, 0.0, 0.0, 0.0
4, 0, 0, 4, 2, 1, 1, 0.0, 0.0, 0.0, 0.0, 0.0
4, 0, 1, 0, 0, 0, 0, -0.5667164421781712, 0.0, 0.0, 0.0, 0.0
4, 0, 1, 0, 0, 0, 1, 0.0, 0.0, 0.0, 0.0, 0.0
4, 0, 1, 0, 0, 1, 0, 0.0, 0.0, 0.0, 0.0, 0.0
4, 0, 1, 0, 0, 1, 1, 0.0, 0.0, 0.0, 0.0, 0.0
4, 0, 1, 0, 1, 0, 0, 0.0, 0.0, 0.0, 0.0, 0.0
4, 0, 1, 0, 1, 0, 1, 0.20908656979174867, 0.0, 0.0, 0.0, 0.0
4, 0, 1, 0, 1, 1, 0, 0.0, 0.0, 0.0, 0.0, 0.0
4, 0, 1, 0, 1, 1, 1, 0.0, 0.0, 0.0, 0.0, 0.0
4, 0, 1, 0, 2, 0, 0, 0.0, 0.0, 0.0, 0.0, 0.0
4, 0, 1, 0, 2, 0, 1, 0.2, 0.0, 0.0, 0.0, 0.0
4, 0, 1, 0, 2, 1, 0, 0.0, 0.0, 0.0, 0.0, 0.0
4, 0, 1, 0, 2, 1, 1, 0.0, 0.0, 0.0, 0.0, 0.0
4, 0, 1, 1, 0, 0, 0, -0.6151990187007597, 0.763640175105589, -0.4, -0.31216, -0.38738049988063117
4, 0, 1, 1, 0, 0, 1, -0.040622471608101486, 0.0, 0.0, 0.0, 0.0
4, 0, 1, 1, 0, 1, 0, 0.0, 0.0, 0.0, 0.0, 0.0
4, 0, 1, 1, 0, 1, 1, 0.0, 0.0, 0.0, 0.0, 0.0
4, 0, 1, 1, 1, 0, 0, -0.4744577891165267, -0.4, 0.0, 0.0, 0.0
4, 0, 1, 1, 1, 0, 1, -0.4, -0.4, 7.210429909520881, 0.0, 0.0
4, 0, 1, 1, 1, 1, 0, 0.0, 0.0, 0.0, 0.0, 0.0
4, 0, 1, 1, 1, 1, 1, 0.0, 0.0, 0.0, 0.0, 0.0
4, 0, 1, 1, 2, 0, 0, -0.10744459092516881, -0.08443135446624268, -0.14181102213737798, -0.06769715566403245, 3.676651595306426
4, 0, 1, 1, 2, 0, 1, 0.37776281420639035, -0.792, -0.792, -0.792, -0.792
4, 0, 1, 1, 2, 1, 0, 0.0, 0.0, 0.0, 0.0, 0.0
4, 0, 1, 1, 2, 1, 1, 0.0, 0.0, 0.0, 0.0, 0.0
4, 0, 1, 2, 0, 0, 0, -0.4, 0.4128079053624033, -0.4, -0.4, -0.146976
4, 0, 1, 2, 0, 0, 1, -0.3367359376233587, 0.39820494240304677, 0.0, 0.0, 0.0
4, 0, 1, 2, 0, 1, 0, 0.0, 0.0, 0.0, 0.0, 0.0
4, 0, 1, 2, 0, 1, 1, 0.0, 0.0, 0.0, 0.0, 0.0
4, 0, 1, 2, 1, 0, 0, 0.0, 0.0, 0.0, 0.0, 0.0
4, 0, 1, 2, 1, 0, 1, -0.4, -0.4, 6.49253960846368, 0.0, 0.0
4, 0, 1, 2, 1, 1, 0, 0.0, 0.0, 0.0, 0.0, 0.0
4, 0, 1, 2, 1, 1, 1, 0.0, 0.0, 0.0, 0.0, 0.0
4, 0, 1, 2, 2, 0, 0, -0.25718886399999996, 2.3820923293950353, 0.0, 0.0, 0.0
4, 0, 1, 2, 2, 0, 1, -0.5900911686659236, -0.4, -0.4, -0.4, -0.4
4, 0, 1, 2, 2, 1, 0, 0.0, 0.0, 0.0, 0.0, 0.0
4, 0, 1, 2, 2, 1, 1, 0.0, 0.0, 0.0, 0.0, 0.0
4, 0, 1, 3, 0, 0, 0, 0.0, 0.0, 0.0, 0.0, 0.0
4, 0, 1, 3, 0, 0, 1, 0.0, 0.0, 0.0, 0.0, 0.0
4, 0, 1, 3, 0, 1, 0, 0.0, 0.0, 0.0, 0.0, 0.0
4, 0, 1, 3, 0, 1, 1, 0.0, 0.0, 0.0, 0.0, 0.0
4, 0, 1, 3, 1, 0, 0, 0.0, 0.0, 0.0, 0.0, 0.0
4, 0, 1, 3, 1, 0, 1, 0.0, 0.0, 0.0, 0.0, 0.0
4, 0, 1, 3, 1, 1, 0, 0.0, 0.0, 0.0, 0.0, 0.0
4, 0, 1, 3, 1, 1, 1, 0.0, 0.0, 0.0, 0.0, 0.0
4, 0, 1, 3, 2, 0, 0, -0.0411558171415054, -0.0832, -0.4, -0.4, 4.204211867161843
4, 0, 1, 3, 2, 0, 1, 0.0, 0.0, 0.0, 0.0, 0.0
4, 0, 1, 3, 2, 1, 0, 0.0, 0.0, 0.0, 0.0, 0.0
4, 0, 1, 3, 2, 1, 1, 0.0, 0.0, 0.0, 0.0, 0.0
4, 0, 1, 4, 0, 0, 0, 0.0, 0.0, 0.0, 0.0, 0.0
4, 0, 1, 4, 0, 0, 1, 0.0, 0.0, 0.0, 0.0, 0.0
4, 0, 1, 4, 0, 1, 0, 0.0, 0.0, 0.0, 0.0, 0.0
4, 0, 1, 4, 0, 1, 1, 0.0, 0.0, 0.0, 0.0, 0.0
4, 0, 1, 4, 1, 0, 0, 0.0, 0.0, 0.0, 0.0, 0.0
4, 0, 1, 4, 1, 0, 1, 0.0, 0.0, 0.0, 0.0, 0.0
4, 0, 1, 4, 1, 1, 0, 0.0, 0.0, 0.0, 0.0, 0.0
4, 0, 1, 4, 1, 1, 1, 0.0, 0.0, 0.0, 0.0, 0.0
4, 0, 1, 4, 2, 0, 0, 0.0, 0.0, 0.0, 0.0, 0.0
4, 0, 1, 4, 2, 0, 1, 0.0, 0.0, 0.0, 0.0, 0.0
4, 0, 1, 4, 2, 1, 0, 0.0, 0.0, 0.0, 0.0, 0.0
4, 0, 1, 4, 2, 1, 1, 0.0, 0.0, 0.0, 0.0, 0.0
4, 1, 0, 0, 0, 0, 0, 0.0, 0.0, 0.0, 0.0, 0.0
4, 1, 0, 0, 0, 0, 1, 0.0, 0.0, 0.0, 0.0, 0.0
4, 1, 0, 0, 0, 1, 0, 0.0, 0.0, 0.0, 0.0, 0.0
4, 1, 0, 0, 0, 1, 1, 0.0, 0.0, 0.0, 0.0, 0.0
4, 1, 0, 0, 1, 0, 0, 0.0, 0.0, 0.0, 0.0, 0.0
4, 1, 0, 0, 1, 0, 1, 0.0, 0.0, 0.0, 0.0, 0.0
4, 1, 0, 0, 1, 1, 0, 0.0, 0.0, 0.0, 0.0, 0.0
4, 1, 0, 0, 1, 1, 1, 0.0, 0.0, 0.0, 0.0, 0.0
4, 1, 0, 0, 2, 0, 0, 0.0, 0.0, 0.0, 0.0, 0.0
4, 1, 0, 0, 2, 0, 1, 0.0, 0.0, 0.0, 0.0, 0.0
4, 1, 0, 0, 2, 1, 0, 0.0, 0.0, 0.0, 0.0, 0.0
4, 1, 0, 0, 2, 1, 1, 0.0, 0.0, 0.0, 0.0, 0.0
4, 1, 0, 1, 0, 0, 0, 0.0, 0.0, 0.0, 0.0, 0.0
4, 1, 0, 1, 0, 0, 1, 0.0, 0.0, 0.0, 0.0, 0.0
4, 1, 0, 1, 0, 1, 0, 0.0, 0.0, 0.0, 0.0, 0.0
4, 1, 0, 1, 0, 1, 1, 0.0, 0.0, 0.0, 0.0, 0.0
4, 1, 0, 1, 1, 0, 0, 0.0, 0.0, 0.0, 0.0, 0.0
4, 1, 0, 1, 1, 0, 1, 0.0, 0.0, 0.0, 0.0, 0.0
4, 1, 0, 1, 1, 1, 0, 0.0, 0.0, 0.0, 0.0, 0.0
4, 1, 0, 1, 1, 1, 1, 0.0, 0.0, 0.0, 0.0, 0.0
4, 1, 0, 1, 2, 0, 0, -0.24363583117486887, 0.0, 0.0, 0.0, 0.0
4, 1, 0, 1, 2, 0, 1, 0.0, 0.0, 0.0, 0.0, 0.0
4, 1, 0, 1, 2, 1, 0, 0.0, 0.0, 0.0, 0.0, 0.0
4, 1, 0, 1, 2, 1, 1, 0.0, 0.0, 0.0, 0.0, 0.0
4, 1, 0, 2, 0, 0, 0, 0.0, 0.0, 0.0, 0.0, 0.0
4, 1, 0, 2, 0, 0, 1, 0.0, 0.0, 0.0, 0.0, 0.0
4, 1, 0, 2, 0, 1, 0, 0.0, 0.0, 0.0, 0.0, 0.0
4, 1, 0, 2, 0, 1, 1, 0.0, 0.0, 0.0, 0.0, 0.0
4, 1, 0, 2, 1, 0, 0, 0.0, 0.0, 0.0, 0.0, 0.0
4, 1, 0, 2, 1, 0, 1, 0.0, 0.0, 0.0, 0.0, 0.0
4, 1, 0, 2, 1, 1, 0, 0.0, 0.0, 0.0, 0.0, 0.0
4, 1, 0, 2, 1, 1, 1, 0.0, 0.0, 0.0, 0.0, 0.0
4, 1, 0, 2, 2, 0, 0, 0.0, 0.0, 0.0, 0.0, 0.0
4, 1, 0, 2, 2, 0, 1, 0.0, 0.0, 0.0, 0.0, 0.0
4, 1, 0, 2, 2, 1, 0, 0.0, 0.0, 0.0, 0.0, 0.0
4, 1, 0, 2, 2, 1, 1, 0.0, 0.0, 0.0, 0.0, 0.0
4, 1, 0, 3, 0, 0, 0, 0.0, 0.0, 0.0, 0.0, 0.0
4, 1, 0, 3, 0, 0, 1, 0.0, 0.0, 0.0, 0.0, 0.0
4, 1, 0, 3, 0, 1, 0, 0.0, 0.0, 0.0, 0.0, 0.0
4, 1, 0, 3, 0, 1, 1, 0.0, 0.0, 0.0, 0.0, 0.0
4, 1, 0, 3, 1, 0, 0, 0.0, 0.0, 0.0, 0.0, 0.0
4, 1, 0, 3, 1, 0, 1, 0.0, 0.0, 0.0, 0.0, 0.0
4, 1, 0, 3, 1, 1, 0, 0.0, 0.0, 0.0, 0.0, 0.0
4, 1, 0, 3, 1, 1, 1, 0.0, 0.0, 0.0, 0.0, 0.0
4, 1, 0, 3, 2, 0, 0, 0.0, 0.0, 0.0, 0.0, 0.0
4, 1, 0, 3, 2, 0, 1, 0.0, 0.0, 0.0, 0.0, 0.0
4, 1, 0, 3, 2, 1, 0, 0.0, 0.0, 0.0, 0.0, 0.0
4, 1, 0, 3, 2, 1, 1, 0.0, 0.0, 0.0, 0.0, 0.0
4, 1, 0, 4, 0, 0, 0, 0.0, 0.0, 0.0, 0.0, 0.0
4, 1, 0, 4, 0, 0, 1, 0.0, 0.0, 0.0, 0.0, 0.0
4, 1, 0, 4, 0, 1, 0, 0.0, 0.0, 0.0, 0.0, 0.0
4, 1, 0, 4, 0, 1, 1, 0.0, 0.0, 0.0, 0.0, 0.0
4, 1, 0, 4, 1, 0, 0, 0.0, 0.0, 0.0, 0.0, 0.0
4, 1, 0, 4, 1, 0, 1, 0.0, 0.0, 0.0, 0.0, 0.0
4, 1, 0, 4, 1, 1, 0, 0.0, 0.0, 0.0, 0.0, 0.0
4, 1, 0, 4, 1, 1, 1, 0.0, 0.0, 0.0, 0.0, 0.0
4, 1, 0, 4, 2, 0, 0, 0.0, 0.0, 0.0, 0.0, 0.0
4, 1, 0, 4, 2, 0, 1, 0.0, 0.0, 0.0, 0.0, 0.0
4, 1, 0, 4, 2, 1, 0, 0.0, 0.0, 0.0, 0.0, 0.0
4, 1, 0, 4, 2, 1, 1, 0.0, 0.0, 0.0, 0.0, 0.0
4, 1, 1, 0, 0, 0, 0, -0.11365467654023892, -0.4132413732562949, 2.931585306782491, 0.0, 0.0
4, 1, 1, 0, 0, 0, 1, -0.4, 0.2, 0.0, 0.0, 0.0
4, 1, 1, 0, 0, 1, 0, 0.0, 0.0, 0.0, 0.0, 0.0
4, 1, 1, 0, 0, 1, 1, 0.0, 0.0, 0.0, 0.0, 0.0
4, 1, 1, 0, 1, 0, 0, 0.0, 0.0, 0.0, 0.0, 0.0
4, 1, 1, 0, 1, 0, 1, 0.0, 0.0, 0.0, 0.0, 0.0
4, 1, 1, 0, 1, 1, 0, 0.0, 0.0, 0.0, 0.0, 0.0
4, 1, 1, 0, 1, 1, 1, 0.0, 0.0, 0.0, 0.0, 0.0
4, 1, 1, 0, 2, 0, 0, -0.4, -0.4, -0.35956030476522294, -0.32422616590766906, 4.111600751280419
4, 1, 1, 0, 2, 0, 1, 0.0, 0.0, 0.0, 0.0, 0.0
4, 1, 1, 0, 2, 1, 0, 0.0, 0.0, 0.0, 0.0, 0.0
4, 1, 1, 0, 2, 1, 1, 0.0, 0.0, 0.0, 0.0, 0.0
4, 1, 1, 1, 0, 0, 0, -0.3502823880276617, -0.5561365481150417, 4.033967191797778, 0.0, 0.0
4, 1, 1, 1, 0, 0, 1, -0.07918392096378093, 0.0, 0.0, 0.0, 0.0
4, 1, 1, 1, 0, 1, 0, 0.0, 0.0, 0.0, 0.0, 0.0
4, 1, 1, 1, 0, 1, 1, 0.0, 0.0, 0.0, 0.0, 0.0
4, 1, 1, 1, 1, 0, 0, -0.54256, 0.0, 0.0, 0.0, 0.0
4, 1, 1, 1, 1, 0, 1, -0.008755728681384856, 0.0, 0.0, 0.0, 0.0
4, 1, 1, 1, 1, 1, 0, 0.0, 0.0, 0.0, 0.0, 0.0
4, 1, 1, 1, 1, 1, 1, 0.0, 0.0, 0.0, 0.0, 0.0
4, 1, 1, 1, 2, 0, 0, -0.4, -0.3352, -0.4, -0.472, 3.5192960171331324
4, 1, 1, 1, 2, 0, 1, 0.2, 0.0, 0.0, 0.0, 0.0
4, 1, 1, 1, 2, 1, 0, 0.0, 0.0, 0.0, 0.0, 0.0
4, 1, 1, 1, 2, 1, 1, 0.0, 0.0, 0.0, 0.0, 0.0
4, 1, 1, 2, 0, 0, 0, -0.20030670966709302, -0.4062605260230586, 2.0348441682296077, 0.0, 0.0
4, 1, 1, 2, 0, 0, 1, -0.1202793536626671, 0.5737425963197132, 0.0, 0.0, 0.0
4, 1, 1, 2, 0, 1, 0, 0.0, 0.0, 0.0, 0.0, 0.0
4, 1, 1, 2, 0, 1, 1, 0.0, 0.0, 0.0, 0.0, 0.0
4, 1, 1, 2, 1, 0, 0, 0.0, 0.0, 0.0, 0.0, 0.0
4, 1, 1, 2, 1, 0, 1, 0.0, 0.0, 0.0, 0.0, 0.0
4, 1, 1, 2, 1, 1, 0, 0.0, 0.0, 0.0, 0.0, 0.0
4, 1, 1, 2, 1, 1, 1, 0.0, 0.0, 0.0, 0.0, 0.0
4, 1, 1, 2, 2, 0, 0, -0.08140616127592121, -0.06714010922021184, 3.4612309404093446, 0.0, 0.0
4, 1, 1, 2, 2, 0, 1, 0.0, 0.0, 0.0, 0.0, 0.0
4, 1, 1, 2, 2, 1, 0, 0.0, 0.0, 0.0, 0.0, 0.0
4, 1, 1, 2, 2, 1, 1, 0.0, 0.0, 0.0, 0.0, 0.0
4, 1, 1, 3, 0, 0, 0, -0.2420376755670846, 0.0, 0.0, 0.0, 0.0
4, 1, 1, 3, 0, 0, 1, 0.0, 0.0, 0.0, 0.0, 0.0
4, 1, 1, 3, 0, 1, 0, 0.0, 0.0, 0.0, 0.0, 0.0
4, 1, 1, 3, 0, 1, 1, 0.0, 0.0, 0.0, 0.0, 0.0
4, 1, 1, 3, 1, 0, 0, 0.0, 0.0, 0.0, 0.0, 0.0
4, 1, 1, 3, 1, 0, 1, 0.0, 0.0, 0.0, 0.0, 0.0
4, 1, 1, 3, 1, 1, 0, 0.0, 0.0, 0.0, 0.0, 0.0
4, 1, 1, 3, 1, 1, 1, 0.0, 0.0, 0.0, 0.0, 0.0
4, 1, 1, 3, 2, 0, 0, 1.241340194319756, 0.0, 0.0, 0.0, 0.0
4, 1, 1, 3, 2, 0, 1, 0.0, 0.0, 0.0, 0.0, 0.0
4, 1, 1, 3, 2, 1, 0, 0.0, 0.0, 0.0, 0.0, 0.0
4, 1, 1, 3, 2, 1, 1, 0.0, 0.0, 0.0, 0.0, 0.0
4, 1, 1, 4, 0, 0, 0, 0.0, 0.0, 0.0, 0.0, 0.0
4, 1, 1, 4, 0, 0, 1, 0.0, 0.0, 0.0, 0.0, 0.0
4, 1, 1, 4, 0, 1, 0, 0.0, 0.0, 0.0, 0.0, 0.0
4, 1, 1, 4, 0, 1, 1, 0.0, 0.0, 0.0, 0.0, 0.0
4, 1, 1, 4, 1, 0, 0, 0.0, 0.0, 0.0, 0.0, 0.0
4, 1, 1, 4, 1, 0, 1, 0.0, 0.0, 0.0, 0.0, 0.0
4, 1, 1, 4, 1, 1, 0, 0.0, 0.0, 0.0, 0.0, 0.0
4, 1, 1, 4, 1, 1, 1, 0.0, 0.0, 0.0, 0.0, 0.0
4, 1, 1, 4, 2, 0, 0, 0.0, 0.0, 0.0, 0.0, 0.0
4, 1, 1, 4, 2, 0, 1, 0.0, 0.0, 0.0, 0.0, 0.0
4, 1, 1, 4, 2, 1, 0, 0.0, 0.0, 0.0, 0.0, 0.0
4, 1, 1, 4, 2, 1, 1, 0.0, 0.0, 0.0, 0.0, 0.0
4, 2, 0, 0, 0, 0, 0, -0.09238096930644013, 0.0, 0.0, 0.0, 0.0
4, 2, 0, 0, 0, 0, 1, -0.4, 3.0335817772192755, 0.0, 0.0, 0.0
4, 2, 0, 0, 0, 1, 0, 0.0, 0.0, 0.0, 0.0, 0.0
4, 2, 0, 0, 0, 1, 1, 0.0, 0.0, 0.0, 0.0, 0.0
4, 2, 0, 0, 1, 0, 0, 0.0, 0.0, 0.0, 0.0, 0.0
4, 2, 0, 0, 1, 0, 1, -0.4, -0.48207351316873215, 6.381027396000864, 0.0, 0.0
4, 2, 0, 0, 1, 1, 0, 0.0, 0.0, 0.0, 0.0, 0.0
4, 2, 0, 0, 1, 1, 1, 0.0, 0.0, 0.0, 0.0, 0.0
4, 2, 0, 0, 2, 0, 0, 0.6223058266427841, 0.0, 0.0, 0.0, 0.0
4, 2, 0, 0, 2, 0, 1, -0.4, 0.0, 0.0, 0.0, 0.0
4, 2, 0, 0, 2, 1, 0, 0.0, 0.0, 0.0, 0.0, 0.0
4, 2, 0, 0, 2, 1, 1, 0.0, 0.0, 0.0, 0.0, 0.0
4, 2, 0, 1, 0, 0, 0, 1.754499029003557, 0.0, 0.0, 0.0, 0.0
4, 2, 0, 1, 0, 0, 1, -0.36400000000000005, 2.7190401132225936, 0.0, 0.0, 0.0
4, 2, 0, 1, 0, 1, 0, 0.0, 0.0, 0.0, 0.0, 0.0
4, 2, 0, 1, 0, 1, 1, 0.0, 0.0, 0.0, 0.0, 0.0
4, 2, 0, 1, 1, 0, 0, 0.0, 0.0, 0.0, 0.0, 0.0
4, 2, 0, 1, 1, 0, 1, -0.4, -0.22988156105549154, 7.693673278835824, 0.0, 0.0
4, 2, 0, 1, 1, 1, 0, 0.0, 0.0, 0.0, 0.0, 0.0
4, 2, 0, 1, 1, 1, 1, 0.0, 0.0, 0.0, 0.0, 0.0
4, 2, 0, 1, 2, 0, 0, 0.2324598532829184, -0.31648667293505994, -0.4, -0.4, -0.4
4, 2, 0, 1, 2, 0, 1, -0.4, -0.4, -0.0403352508707191, -0.4, 0.34531229974390354
4, 2, 0, 1, 2, 1, 0, 0.0, 0.0, 0.0, 0.0, 0.0
4, 2, 0, 1, 2, 1, 1, 0.0, 0.0, 0.0, 0.0, 0.0
4, 2, 0, 2, 0, 0, 0, 2.753759767559145, -0.15107892749982693, -0.4, -0.4, -0.4
4, 2, 0, 2, 0, 0, 1, -0.4, 4.23057978244673, 0.0, 0.0, 0.0
4, 2, 0, 2, 0, 1, 0, 0.0, 0.0, 0.0, 0.0, 0.0
4, 2, 0, 2, 0, 1, 1, 0.0, 0.0, 0.0, 0.0, 0.0
4, 2, 0, 2, 1, 0, 0, 0.0, 0.0, 0.0, 0.0, 0.0
4, 2, 0, 2, 1, 0, 1, -0.36400000000000005, -0.4, 5.801291530059095, 0.0, 0.0
4, 2, 0, 2, 1, 1, 0, 0.0, 0.0, 0.0, 0.0, 0.0
4, 2, 0, 2, 1, 1, 1, 0.0, 0.0, 0.0, 0.0, 0.0
4, 2, 0, 2, 2, 0, 0, 0.7401350710007406, 0.0, 0.0, 0.0, 0.0
4, 2, 0, 2, 2, 0, 1, 1.5922984659343637, -0.4, -0.4, -0.4, -0.4
4, 2, 0, 2, 2, 1, 0, 0.0, 0.0, 0.0, 0.0, 0.0
4, 2, 0, 2, 2, 1, 1, 0.0, 0.0, 0.0, 0.0, 0.0
4, 2, 0, 3, 0, 0, 0, 1.1696679013066373, 0.0, 0.0, 0.0, 0.0
4, 2, 0, 3, 0, 0, 1, 0.0, 0.0, 0.0, 0.0, 0.0
4, 2, 0, 3, 0, 1, 0, 0.0, 0.0, 0.0, 0.0, 0.0
4, 2, 0, 3, 0, 1, 1, 0.0, 0.0, 0.0, 0.0, 0.0
4, 2, 0, 3, 1, 0, 0, 0.0, 0.0, 0.0, 0.0, 0.0
4, 2, 0, 3, 1, 0, 1, 0.0, 0.0, 0.0, 0.0, 0.0
4, 2, 0, 3, 1, 1, 0, 0.0, 0.0, 0.0, 0.0, 0.0
4, 2, 0, 3, 1, 1, 1, 0.0, 0.0, 0.0, 0.0, 0.0
4, 2, 0, 3, 2, 0, 0, 0.0, 0.0, 0.0, 0.0, 0.0
4, 2, 0, 3, 2, 0, 1, 0.0, 0.0, 0.0, 0.0, 0.0
4, 2, 0, 3, 2, 1, 0, 0.0, 0.0, 0.0, 0.0, 0.0
4, 2, 0, 3, 2, 1, 1, 0.0, 0.0, 0.0, 0.0, 0.0
4, 2, 0, 4, 0, 0, 0, 0.0, 0.0, 0.0, 0.0, 0.0
4, 2, 0, 4, 0, 0, 1, 0.0, 0.0, 0.0, 0.0, 0.0
4, 2, 0, 4, 0, 1, 0, 0.0, 0.0, 0.0, 0.0, 0.0
4, 2, 0, 4, 0, 1, 1, 0.0, 0.0, 0.0, 0.0, 0.0
4, 2, 0, 4, 1, 0, 0, 0.0, 0.0, 0.0, 0.0, 0.0
4, 2, 0, 4, 1, 0, 1, 0.0, 0.0, 0.0, 0.0, 0.0
4, 2, 0, 4, 1, 1, 0, 0.0, 0.0, 0.0, 0.0, 0.0
4, 2, 0, 4, 1, 1, 1, 0.0, 0.0, 0.0, 0.0, 0.0
4, 2, 0, 4, 2, 0, 0, 0.0, 0.0, 0.0, 0.0, 0.0
4, 2, 0, 4, 2, 0, 1, 0.0, 0.0, 0.0, 0.0, 0.0
4, 2, 0, 4, 2, 1, 0, 0.0, 0.0, 0.0, 0.0, 0.0
4, 2, 0, 4, 2, 1, 1, 0.0, 0.0, 0.0, 0.0, 0.0
4, 2, 1, 0, 0, 0, 0, -0.0832, -0.3139849820104199, -0.3040546190493167, 0.0, 0.0
4, 2, 1, 0, 0, 0, 1, -0.792, -0.12000000000000005, -0.4, -0.4, -0.4
4, 2, 1, 0, 0, 1, 0, 0.0, 0.0, 0.0, 0.0, 0.0
4, 2, 1, 0, 0, 1, 1, 0.0, 0.0, 0.0, 0.0, 0.0
4, 2, 1, 0, 1, 0, 0, 0.36000000000000004, 0.0, 0.0, 0.0, 0.0
4, 2, 1, 0, 1, 0, 1, -0.4, -0.4, 6.136675606434384, 0.0, 0.0
4, 2, 1, 0, 1, 1, 0, 0.0, 0.0, 0.0, 0.0, 0.0
4, 2, 1, 0, 1, 1, 1, 0.0, 0.0, 0.0, 0.0, 0.0
4, 2, 1, 0, 2, 0, 0, -0.0832, -0.6117088000000002, -0.3352, -0.6890996992, 0.30793868569773264
4, 2, 1, 0, 2, 0, 1, 0.0, 0.0, 0.0, 0.0, 0.0
4, 2, 1, 0, 2, 1, 0, 0.0, 0.0, 0.0, 0.0, 0.0
4, 2, 1, 0, 2, 1, 1, 0.0, 0.0, 0.0, 0.0, 0.0
4, 2, 1, 1, 0, 0, 0, -0.4, -0.340608341168825, -0.4, -0.4, 1.8822920689952487
4, 2, 1, 1, 0, 0, 1, -0.4, -0.11199999999999999, 0.0, 0.0, 0.0
4, 2, 1, 1, 0, 1, 0, 0.0, 0.0, 0.0, 0.0, 0.0
4, 2, 1, 1, 0, 1, 1, 0.0, 0.0, 0.0, 0.0, 0.0
4, 2, 1, 1, 1, 0, 0, -0.4, 0.0, 0.0, 0.0, 0.0
4, 2, 1, 1, 1, 0, 1, -0.3352, -0.4, 4.840127993946003, 0.0, 0.0
4, 2, 1, 1, 1, 1, 0, 0.0, 0.0, 0.0, 0.0, 0.0
4, 2, 1, 1, 1, 1, 1, 0.0, 0.0, 0.0, 0.0, 0.0
4, 2, 1, 1, 2, 0, 0, 1.2360752046917634, -0.7852050720852906, -0.7059168, -0.8079157394807293, -0.5949789061931008
4, 2, 1, 1, 2, 0, 1, -0.03729121553471071, -0.3339391277109484, 0.0, 0.0, 0.0
4, 2, 1, 1, 2, 1, 0, 0.0, 0.0, 0.0, 0.0, 0.0
4, 2, 1, 1, 2, 1, 1, 0.0, 0.0, 0.0, 0.0, 0.0
4, 2, 1, 2, 0, 0, 0, 1.271036323867496, -0.3841047487024487, -0.4, -0.4, -0.16273812298271972
4, 2, 1, 2, 0, 0, 1, -0.4, 0.0056308298058802, -0.4, -0.4, -0.3630392481536006
4, 2, 1, 2, 0, 1, 0, 0.0, 0.0, 0.0, 0.0, 0.0
4, 2, 1, 2, 0, 1, 1, 0.0, 0.0, 0.0, 0.0, 0.0
4, 2, 1, 2, 1, 0, 0, 0.0, 0.0, 0.0, 0.0, 0.0
4, 2, 1, 2, 1, 0, 1, -0.4, -0.29604136547003596, 3.8921369216146187, 0.0, 0.0
4, 2, 1, 2, 1, 1, 0, 0.0, 0.0, 0.0, 0.0, 0.0
4, 2, 1, 2, 1, 1, 1, 0.0, 0.0, 0.0, 0.0, 0.0
4, 2, 1, 2, 2, 0, 0, -0.019247430540956262, -0.08455278887795825, -0.4, -0.4, 1.5947478933452006
4, 2, 1, 2, 2, 0, 1, 0.0, 0.0, 0.0, 0.0, 0.0
4, 2, 1, 2, 2, 1, 0, 0.0, 0.0, 0.0, 0.0, 0.0
4, 2, 1, 2, 2, 1, 1, 0.0, 0.0, 0.0, 0.0, 0.0
4, 2, 1, 3, 0, 0, 0, 0.0, 0.0, 0.0, 0.0, 0.0
4, 2, 1, 3, 0, 0, 1, 0.0, 0.0, 0.0, 0.0, 0.0
4, 2, 1, 3, 0, 1, 0, 0.0, 0.0, 0.0, 0.0, 0.0
4, 2, 1, 3, 0, 1, 1, 0.0, 0.0, 0.0, 0.0, 0.0
4, 2, 1, 3, 1, 0, 0, 0.0, 0.0, 0.0, 0.0, 0.0
4, 2, 1, 3, 1, 0, 1, 0.0, 0.0, 0.0, 0.0, 0.0
4, 2, 1, 3, 1, 1, 0, 0.0, 0.0, 0.0, 0.0, 0.0
4, 2, 1, 3, 1, 1, 1, 0.0, 0.0, 0.0, 0.0, 0.0
4, 2, 1, 3, 2, 0, 0, 0.0, 0.0, 0.0, 0.0, 0.0
4, 2, 1, 3, 2, 0, 1, 0.0, 0.0, 0.0, 0.0, 0.0
4, 2, 1, 3, 2, 1, 0, 0.0, 0.0, 0.0, 0.0, 0.0
4, 2, 1, 3, 2, 1, 1, 0.0, 0.0, 0.0, 0.0, 0.0
4, 2, 1, 4, 0, 0, 0, 0.0, 0.0, 0.0, 0.0, 0.0
4, 2, 1, 4, 0, 0, 1, 0.0, 0.0, 0.0, 0.0, 0.0
4, 2, 1, 4, 0, 1, 0, 0.0, 0.0, 0.0, 0.0, 0.0
4, 2, 1, 4, 0, 1, 1, 0.0, 0.0, 0.0, 0.0, 0.0
4, 2, 1, 4, 1, 0, 0, 0.0, 0.0, 0.0, 0.0, 0.0
4, 2, 1, 4, 1, 0, 1, 0.0, 0.0, 0.0, 0.0, 0.0
4, 2, 1, 4, 1, 1, 0, 0.0, 0.0, 0.0, 0.0, 0.0
4, 2, 1, 4, 1, 1, 1, 0.0, 0.0, 0.0, 0.0, 0.0
4, 2, 1, 4, 2, 0, 0, 0.0, 0.0, 0.0, 0.0, 0.0
4, 2, 1, 4, 2, 0, 1, 0.0, 0.0, 0.0, 0.0, 0.0
4, 2, 1, 4, 2, 1, 0, 0.0, 0.0, 0.0, 0.0, 0.0
4, 2, 1, 4, 2, 1, 1, 0.0, 0.0, 0.0, 0.0, 0.0